X,CH1,CH2,Start,Increment,
Sequence,Volt,Volt,-3.000000e-04,5.000000e-07
0,1.84e+00,-1.80e+00,
1,1.72e+00,-1.68e+00,
2,1.80e+00,-1.80e+00,
3,1.68e+00,-1.64e+00,
4,1.76e+00,-1.76e+00,
5,1.64e+00,-1.60e+00,
6,1.72e+00,-1.60e+00,
7,1.60e+00,-1.72e+00,
8,1.72e+00,-1.56e+00,
9,1.56e+00,-1.68e+00,
10,1.68e+00,-1.68e+00,
11,1.56e+00,-1.52e+00,
12,1.68e+00,-1.64e+00,
13,1.52e+00,-1.48e+00,
14,1.60e+00,-1.60e+00,
15,1.48e+00,-1.44e+00,
16,1.56e+00,-1.52e+00,
17,1.44e+00,-1.40e+00,
18,1.52e+00,-1.52e+00,
19,1.40e+00,-1.36e+00,
20,1.52e+00,-1.48e+00,
21,1.40e+00,-1.36e+00,
22,1.48e+00,-1.32e+00,
23,1.36e+00,-1.44e+00,
24,1.44e+00,-1.44e+00,
25,1.36e+00,-1.28e+00,
26,1.32e+00,-1.40e+00,
27,1.40e+00,-1.24e+00,
28,1.40e+00,-1.36e+00,
29,1.28e+00,-1.24e+00,
30,1.36e+00,-1.20e+00,
31,1.24e+00,-1.32e+00,
32,1.32e+00,-1.32e+00,
33,1.20e+00,-1.16e+00,
34,1.28e+00,-1.28e+00,
35,1.16e+00,-1.08e+00,
36,1.28e+00,-1.08e+00,
37,1.12e+00,-1.24e+00,
38,1.20e+00,-1.16e+00,
39,1.12e+00,-1.04e+00,
40,1.08e+00,-1.12e+00,
41,1.16e+00,-1.00e+00,
42,1.12e+00,-1.12e+00,
43,1.04e+00,-9.60e-01,
44,1.12e+00,-1.08e+00,
45,1.00e+00,-9.20e-01,
46,1.08e+00,-9.20e-01,
47,9.60e-01,-1.04e+00,
48,1.04e+00,-1.00e+00,
49,9.20e-01,-8.80e-01,
50,9.20e-01,-1.00e+00,
51,1.00e+00,-8.40e-01,
52,9.60e-01,-9.60e-01,
53,8.80e-01,-8.00e-01,
54,9.60e-01,-8.00e-01,
55,8.40e-01,-9.20e-01,
56,9.20e-01,-7.20e-01,
57,7.60e-01,-8.80e-01,
58,8.80e-01,-8.00e-01,
59,7.60e-01,-6.80e-01,
60,8.00e-01,-7.60e-01,
61,7.20e-01,-6.40e-01,
62,8.00e-01,-7.60e-01,
63,6.80e-01,-6.00e-01,
64,7.60e-01,-7.20e-01,
65,6.40e-01,-5.60e-01,
66,7.20e-01,-6.80e-01,
67,6.00e-01,-5.60e-01,
68,6.80e-01,-6.40e-01,
69,6.00e-01,-5.20e-01,
70,5.60e-01,-6.00e-01,
71,6.40e-01,-4.80e-01,
72,6.00e-01,-5.60e-01,
73,5.20e-01,-4.40e-01,
74,6.00e-01,-5.20e-01,
75,4.80e-01,-4.00e-01,
76,5.60e-01,-4.80e-01,
77,4.40e-01,-3.60e-01,
78,5.20e-01,-4.40e-01,
79,3.60e-01,-3.20e-01,
80,4.80e-01,-4.00e-01,
81,3.60e-01,-2.80e-01,
82,4.40e-01,-3.60e-01,
83,3.20e-01,-2.40e-01,
84,4.00e-01,-3.20e-01,
85,2.80e-01,-2.00e-01,
86,3.60e-01,-2.80e-01,
87,2.40e-01,-1.60e-01,
88,3.20e-01,-1.60e-01,
89,2.00e-01,-2.80e-01,
90,2.80e-01,-1.20e-01,
91,2.00e-01,-2.40e-01,
92,2.40e-01,-2.00e-01,
93,1.60e-01,-8.00e-02,
94,2.00e-01,-1.60e-01,
95,1.20e-01,-4.00e-02,
96,2.00e-01,-8.00e-02,
97,8.00e-02,4.00e-02,
98,1.60e-01,-8.00e-02,
99,4.00e-02,4.00e-02,
100,4.00e-02,0.00e+00,
101,1.20e-01,8.00e-02,
102,4.00e-02,0.00e+00,
103,-4.00e-02,1.20e-01,
104,0.00e+00,4.00e-02,
105,-8.00e-02,1.60e-01,
106,0.00e+00,8.00e-02,
107,-1.20e-01,2.00e-01,
108,-4.00e-02,1.20e-01,
109,-1.60e-01,2.40e-01,
110,-8.00e-02,1.20e-01,
111,-2.00e-01,2.80e-01,
112,-2.00e-01,2.00e-01,
113,-1.20e-01,2.80e-01,
114,-1.60e-01,3.20e-01,
115,-2.40e-01,2.00e-01,
116,-2.00e-01,2.40e-01,
117,-2.80e-01,4.00e-01,
118,-2.00e-01,3.20e-01,
119,-3.20e-01,4.40e-01,
120,-2.40e-01,3.60e-01,
121,-3.60e-01,4.80e-01,
122,-3.20e-01,4.80e-01,
123,-4.00e-01,4.00e-01,
124,-3.60e-01,4.40e-01,
125,-4.40e-01,5.20e-01,
126,-4.00e-01,4.40e-01,
127,-4.80e-01,5.60e-01,
128,-4.00e-01,4.80e-01,
129,-5.20e-01,6.00e-01,
130,-4.40e-01,5.20e-01,
131,-5.60e-01,6.40e-01,
132,-4.80e-01,5.60e-01,
133,-5.60e-01,6.80e-01,
134,-6.00e-01,6.80e-01,
135,-5.20e-01,6.00e-01,
136,-5.60e-01,6.40e-01,
137,-6.40e-01,7.60e-01,
138,-6.00e-01,6.80e-01,
139,-6.80e-01,8.00e-01,
140,-6.00e-01,7.20e-01,
141,-7.20e-01,8.40e-01,
142,-6.40e-01,8.40e-01,
143,-7.60e-01,7.60e-01,
144,-8.00e-01,8.00e-01,
145,-6.80e-01,8.80e-01,
146,-7.60e-01,8.40e-01,
147,-8.40e-01,9.20e-01,
148,-8.00e-01,8.40e-01,
149,-8.80e-01,9.60e-01,
150,-8.00e-01,8.80e-01,
151,-9.20e-01,1.00e+00,
152,-8.40e-01,9.20e-01,
153,-9.20e-01,1.04e+00,
154,-8.80e-01,1.04e+00,
155,-9.60e-01,9.60e-01,
156,-9.20e-01,1.00e+00,
157,-1.00e+00,1.12e+00,
158,-9.60e-01,1.04e+00,
159,-1.04e+00,1.16e+00,
160,-1.04e+00,1.08e+00,
161,-9.60e-01,1.20e+00,
162,-1.00e+00,1.12e+00,
163,-1.08e+00,1.20e+00,
164,-1.04e+00,1.16e+00,
165,-1.12e+00,1.24e+00,
166,-1.08e+00,1.16e+00,
167,-1.16e+00,1.28e+00,
168,-1.20e+00,1.20e+00,
169,-1.08e+00,1.32e+00,
170,-1.16e+00,1.32e+00,
171,-1.24e+00,1.24e+00,
172,-1.20e+00,1.28e+00,
173,-1.28e+00,1.36e+00,
174,-1.24e+00,1.32e+00,
175,-1.32e+00,1.40e+00,
176,-1.32e+00,1.32e+00,
177,-1.24e+00,1.44e+00,
178,-1.28e+00,1.44e+00,
179,-1.36e+00,1.36e+00,
180,-1.32e+00,1.44e+00,
181,-1.40e+00,1.52e+00,
182,-1.32e+00,1.44e+00,
183,-1.44e+00,1.56e+00,
184,-1.44e+00,1.48e+00,
185,-1.36e+00,1.56e+00,
186,-1.40e+00,1.52e+00,
187,-1.48e+00,1.60e+00,
188,-1.44e+00,1.52e+00,
189,-1.52e+00,1.64e+00,
190,-1.52e+00,1.56e+00,
191,-1.44e+00,1.68e+00,
192,-1.48e+00,1.68e+00,
193,-1.60e+00,1.60e+00,
194,-1.56e+00,1.64e+00,
195,-1.64e+00,1.72e+00,
196,-1.64e+00,1.64e+00,
197,-1.56e+00,1.76e+00,
198,-1.68e+00,1.76e+00,
199,-1.60e+00,1.68e+00,
200,-1.64e+00,1.72e+00,
201,-1.72e+00,1.80e+00,
202,-1.72e+00,1.76e+00,
203,-1.64e+00,1.88e+00,
204,-1.68e+00,1.76e+00,
205,-1.76e+00,1.88e+00,
206,-1.72e+00,1.84e+00,
207,-1.80e+00,1.92e+00,
208,-1.80e+00,1.84e+00,
209,-1.72e+00,1.96e+00,
210,-1.76e+00,1.88e+00,
211,-1.84e+00,1.96e+00,
212,-1.80e+00,1.92e+00,
213,-1.88e+00,2.00e+00,
214,-1.88e+00,1.92e+00,
215,-1.80e+00,2.04e+00,
216,-1.92e+00,1.96e+00,
217,-1.84e+00,2.04e+00,
218,-1.92e+00,2.00e+00,
219,-1.88e+00,2.08e+00,
220,-1.92e+00,2.00e+00,
221,-2.00e+00,2.08e+00,
222,-1.92e+00,2.04e+00,
223,-2.04e+00,2.12e+00,
224,-1.96e+00,2.04e+00,
225,-2.04e+00,2.12e+00,
226,-2.00e+00,2.08e+00,
227,-2.08e+00,2.16e+00,
228,-2.00e+00,2.12e+00,
229,-2.12e+00,2.24e+00,
230,-2.04e+00,2.12e+00,
231,-2.12e+00,2.24e+00,
232,-2.08e+00,2.20e+00,
233,-2.16e+00,2.28e+00,
234,-2.08e+00,2.20e+00,
235,-2.16e+00,2.28e+00,
236,-2.12e+00,2.24e+00,
237,-2.20e+00,2.32e+00,
238,-2.20e+00,2.24e+00,
239,-2.12e+00,2.32e+00,
240,-2.16e+00,2.28e+00,
241,-2.24e+00,2.36e+00,
242,-2.24e+00,2.36e+00,
243,-2.16e+00,2.28e+00,
244,-2.20e+00,2.32e+00,
245,-2.28e+00,2.40e+00,
246,-2.28e+00,2.40e+00,
247,-2.20e+00,2.32e+00,
248,-2.24e+00,2.36e+00,
249,-2.32e+00,2.44e+00,
250,-2.32e+00,2.44e+00,
251,-2.24e+00,2.36e+00,
252,-2.32e+00,2.40e+00,
253,-2.40e+00,2.48e+00,
254,-2.32e+00,2.40e+00,
255,-2.40e+00,2.52e+00,
256,-2.36e+00,2.44e+00,
257,-2.44e+00,2.52e+00,
258,-2.36e+00,2.52e+00,
259,-2.44e+00,2.44e+00,
260,-2.40e+00,2.48e+00,
261,-2.48e+00,2.56e+00,
262,-2.48e+00,2.48e+00,
263,-2.40e+00,2.60e+00,
264,-2.48e+00,2.56e+00,
265,-2.40e+00,2.64e+00,
266,-2.44e+00,2.56e+00,
267,-2.52e+00,2.64e+00,
268,-2.44e+00,2.60e+00,
269,-2.52e+00,2.64e+00,
270,-2.48e+00,2.60e+00,
271,-2.56e+00,2.68e+00,
272,-2.48e+00,2.68e+00,
273,-2.56e+00,2.60e+00,
274,-2.52e+00,2.64e+00,
275,-2.60e+00,2.72e+00,
276,-2.52e+00,2.72e+00,
277,-2.60e+00,2.64e+00,
278,-2.52e+00,2.72e+00,
279,-2.60e+00,2.64e+00,
280,-2.56e+00,2.68e+00,
281,-2.64e+00,2.76e+00,
282,-2.64e+00,2.76e+00,
283,-2.56e+00,2.68e+00,
284,-2.64e+00,2.76e+00,
285,-2.56e+00,2.72e+00,
286,-2.60e+00,2.72e+00,
287,-2.68e+00,2.80e+00,
288,-2.60e+00,2.80e+00,
289,-2.68e+00,2.72e+00,
290,-2.68e+00,2.80e+00,
291,-2.60e+00,2.76e+00,
292,-2.64e+00,2.76e+00,
293,-2.72e+00,2.80e+00,
294,-2.72e+00,2.84e+00,
295,-2.64e+00,2.76e+00,
296,-2.72e+00,2.84e+00,
297,-2.64e+00,2.76e+00,
298,-2.72e+00,2.84e+00,
299,-2.68e+00,2.80e+00,
300,-2.72e+00,2.80e+00,
301,-2.80e+00,2.88e+00,
302,-2.72e+00,2.88e+00,
303,-2.80e+00,2.80e+00,
304,-2.72e+00,2.88e+00,
305,-2.80e+00,2.80e+00,
306,-2.72e+00,2.84e+00,
307,-2.84e+00,2.92e+00,
308,-2.76e+00,2.84e+00,
309,-2.84e+00,2.92e+00,
310,-2.84e+00,2.84e+00,
311,-2.76e+00,2.92e+00,
312,-2.84e+00,2.92e+00,
313,-2.76e+00,2.84e+00,
314,-2.84e+00,2.92e+00,
315,-2.76e+00,2.84e+00,
316,-2.84e+00,2.92e+00,
317,-2.76e+00,2.88e+00,
318,-2.80e+00,2.92e+00,
319,-2.88e+00,2.88e+00,
320,-2.88e+00,2.92e+00,
321,-2.80e+00,3.00e+00,
322,-2.80e+00,2.92e+00,
323,-2.88e+00,3.00e+00,
324,-2.88e+00,2.92e+00,
325,-2.80e+00,3.00e+00,
326,-2.80e+00,2.92e+00,
327,-2.88e+00,3.00e+00,
328,-2.88e+00,2.96e+00,
329,-2.80e+00,3.00e+00,
330,-2.88e+00,2.96e+00,
331,-2.80e+00,3.00e+00,
332,-2.84e+00,2.96e+00,
333,-2.92e+00,3.00e+00,
334,-2.84e+00,2.96e+00,
335,-2.92e+00,3.00e+00,
336,-2.84e+00,2.96e+00,
337,-2.92e+00,3.00e+00,
338,-2.84e+00,2.96e+00,
339,-2.92e+00,3.04e+00,
340,-2.84e+00,2.96e+00,
341,-2.92e+00,3.04e+00,
342,-2.92e+00,2.96e+00,
343,-2.84e+00,3.04e+00,
344,-2.84e+00,2.96e+00,
345,-2.92e+00,3.04e+00,
346,-2.92e+00,2.96e+00,
347,-2.84e+00,3.04e+00,
348,-2.92e+00,2.96e+00,
349,-2.84e+00,3.04e+00,
350,-2.84e+00,2.96e+00,
351,-2.92e+00,3.04e+00,
352,-2.84e+00,2.96e+00,
353,-2.92e+00,3.04e+00,
354,-2.92e+00,2.96e+00,
355,-2.84e+00,3.04e+00,
356,-2.92e+00,2.96e+00,
357,-2.84e+00,3.04e+00,
358,-2.92e+00,2.96e+00,
359,-2.84e+00,3.04e+00,
360,-2.84e+00,2.96e+00,
361,-2.92e+00,3.04e+00,
362,-2.92e+00,2.96e+00,
363,-2.84e+00,3.00e+00,
364,-2.92e+00,2.96e+00,
365,-2.84e+00,3.04e+00,
366,-2.92e+00,3.00e+00,
367,-2.84e+00,2.96e+00,
368,-2.84e+00,2.96e+00,
369,-2.92e+00,3.00e+00,
370,-2.84e+00,2.96e+00,
371,-2.88e+00,3.00e+00,
372,-2.84e+00,2.96e+00,
373,-2.88e+00,3.00e+00,
374,-2.88e+00,2.92e+00,
375,-2.80e+00,3.00e+00,
376,-2.80e+00,3.00e+00,
377,-2.88e+00,2.88e+00,
378,-2.88e+00,2.88e+00,
379,-2.80e+00,3.00e+00,
380,-2.80e+00,2.96e+00,
381,-2.88e+00,2.88e+00,
382,-2.80e+00,2.92e+00,
383,-2.88e+00,2.88e+00,
384,-2.80e+00,2.92e+00,
385,-2.88e+00,2.88e+00,
386,-2.84e+00,2.92e+00,
387,-2.76e+00,2.84e+00,
388,-2.84e+00,2.92e+00,
389,-2.76e+00,2.84e+00,
390,-2.76e+00,2.92e+00,
391,-2.84e+00,2.84e+00,
392,-2.84e+00,2.84e+00,
393,-2.76e+00,2.92e+00,
394,-2.84e+00,2.88e+00,
395,-2.72e+00,2.84e+00,
396,-2.80e+00,2.88e+00,
397,-2.72e+00,2.80e+00,
398,-2.72e+00,2.88e+00,
399,-2.80e+00,2.80e+00,
400,-2.72e+00,2.88e+00,
401,-2.80e+00,2.80e+00,
402,-2.80e+00,2.84e+00,
403,-2.72e+00,2.80e+00,
404,-2.72e+00,2.84e+00,
405,-2.64e+00,2.76e+00,
406,-2.64e+00,2.84e+00,
407,-2.76e+00,2.76e+00,
408,-2.72e+00,2.80e+00,
409,-2.64e+00,2.76e+00,
410,-2.72e+00,2.80e+00,
411,-2.64e+00,2.72e+00,
412,-2.68e+00,2.80e+00,
413,-2.60e+00,2.72e+00,
414,-2.68e+00,2.80e+00,
415,-2.60e+00,2.72e+00,
416,-2.68e+00,2.76e+00,
417,-2.60e+00,2.68e+00,
418,-2.64e+00,2.68e+00,
419,-2.56e+00,2.76e+00,
420,-2.64e+00,2.72e+00,
421,-2.56e+00,2.64e+00,
422,-2.64e+00,2.72e+00,
423,-2.56e+00,2.64e+00,
424,-2.60e+00,2.64e+00,
425,-2.52e+00,2.72e+00,
426,-2.60e+00,2.64e+00,
427,-2.52e+00,2.68e+00,
428,-2.56e+00,2.68e+00,
429,-2.48e+00,2.60e+00,
430,-2.56e+00,2.60e+00,
431,-2.48e+00,2.68e+00,
432,-2.56e+00,2.64e+00,
433,-2.48e+00,2.56e+00,
434,-2.52e+00,2.64e+00,
435,-2.44e+00,2.56e+00,
436,-2.52e+00,2.56e+00,
437,-2.44e+00,2.56e+00,
438,-2.48e+00,2.60e+00,
439,-2.40e+00,2.48e+00,
440,-2.40e+00,2.56e+00,
441,-2.48e+00,2.48e+00,
442,-2.44e+00,2.52e+00,
443,-2.36e+00,2.44e+00,
444,-2.36e+00,2.52e+00,
445,-2.44e+00,2.44e+00,
446,-2.44e+00,2.48e+00,
447,-2.36e+00,2.40e+00,
448,-2.40e+00,2.48e+00,
449,-2.32e+00,2.40e+00,
450,-2.40e+00,2.44e+00,
451,-2.32e+00,2.36e+00,
452,-2.32e+00,2.36e+00,
453,-2.24e+00,2.44e+00,
454,-2.32e+00,2.40e+00,
455,-2.24e+00,2.32e+00,
456,-2.28e+00,2.40e+00,
457,-2.20e+00,2.32e+00,
458,-2.28e+00,2.36e+00,
459,-2.20e+00,2.28e+00,
460,-2.24e+00,2.28e+00,
461,-2.16e+00,2.36e+00,
462,-2.24e+00,2.32e+00,
463,-2.16e+00,2.24e+00,
464,-2.20e+00,2.28e+00,
465,-2.12e+00,2.24e+00,
466,-2.12e+00,2.28e+00,
467,-2.16e+00,2.20e+00,
468,-2.16e+00,2.24e+00,
469,-2.08e+00,2.20e+00,
470,-2.12e+00,2.20e+00,
471,-2.04e+00,2.12e+00,
472,-2.04e+00,2.16e+00,
473,-2.12e+00,2.08e+00,
474,-2.08e+00,2.16e+00,
475,-2.00e+00,2.08e+00,
476,-2.08e+00,2.12e+00,
477,-2.00e+00,2.04e+00,
478,-2.04e+00,2.12e+00,
479,-1.96e+00,2.04e+00,
480,-2.00e+00,2.08e+00,
481,-1.92e+00,2.00e+00,
482,-1.92e+00,2.08e+00,
483,-2.00e+00,1.96e+00,
484,-1.92e+00,1.96e+00,
485,-1.88e+00,2.04e+00,
486,-1.92e+00,2.00e+00,
487,-1.84e+00,1.92e+00,
488,-1.88e+00,2.00e+00,
489,-1.80e+00,1.88e+00,
490,-1.88e+00,1.88e+00,
491,-1.76e+00,1.96e+00,
492,-1.84e+00,1.92e+00,
493,-1.76e+00,1.84e+00,
494,-1.80e+00,1.84e+00,
495,-1.72e+00,1.92e+00,
496,-1.80e+00,1.88e+00,
497,-1.68e+00,1.76e+00,
498,-1.76e+00,1.84e+00,
499,-1.68e+00,1.72e+00,
500,-1.72e+00,1.80e+00,
501,-1.64e+00,1.72e+00,
502,-1.64e+00,1.68e+00,
503,-1.72e+00,1.76e+00,
504,-1.60e+00,1.72e+00,
505,-1.68e+00,1.64e+00,
506,-1.64e+00,1.72e+00,
507,-1.56e+00,1.64e+00,
508,-1.64e+00,1.68e+00,
509,-1.52e+00,1.60e+00,
510,-1.60e+00,1.64e+00,
511,-1.48e+00,1.56e+00,
512,-1.52e+00,1.64e+00,
513,-1.44e+00,1.52e+00,
514,-1.48e+00,1.52e+00,
515,-1.40e+00,1.60e+00,
516,-1.40e+00,1.56e+00,
517,-1.48e+00,1.48e+00,
518,-1.44e+00,1.52e+00,
519,-1.36e+00,1.44e+00,
520,-1.40e+00,1.52e+00,
521,-1.32e+00,1.40e+00,
522,-1.40e+00,1.36e+00,
523,-1.28e+00,1.48e+00,
524,-1.28e+00,1.40e+00,
525,-1.36e+00,1.32e+00,
526,-1.32e+00,1.40e+00,
527,-1.24e+00,1.28e+00,
528,-1.28e+00,1.36e+00,
529,-1.20e+00,1.28e+00,
530,-1.20e+00,1.24e+00,
531,-1.28e+00,1.32e+00,
532,-1.16e+00,1.28e+00,
533,-1.24e+00,1.20e+00,
534,-1.20e+00,1.28e+00,
535,-1.08e+00,1.16e+00,
536,-1.12e+00,1.24e+00,
537,-1.04e+00,1.12e+00,
538,-1.12e+00,1.12e+00,
539,-1.04e+00,1.20e+00,
540,-1.08e+00,1.16e+00,
541,-1.00e+00,1.08e+00,
542,-1.04e+00,1.12e+00,
543,-9.60e-01,1.00e+00,
544,-1.00e+00,1.12e+00,
545,-9.20e-01,9.60e-01,
546,-1.00e+00,1.04e+00,
547,-8.80e-01,9.20e-01,
548,-8.80e-01,9.20e-01,
549,-9.60e-01,1.00e+00,
550,-9.20e-01,9.60e-01,
551,-8.40e-01,8.80e-01,
552,-8.80e-01,9.60e-01,
553,-8.00e-01,8.40e-01,
554,-8.80e-01,9.20e-01,
555,-7.60e-01,8.00e-01,
556,-8.40e-01,8.80e-01,
557,-7.20e-01,7.60e-01,
558,-7.60e-01,8.40e-01,
559,-6.80e-01,7.60e-01,
560,-7.60e-01,8.40e-01,
561,-6.40e-01,7.20e-01,
562,-6.80e-01,7.60e-01,
563,-6.00e-01,6.40e-01,
564,-6.80e-01,7.60e-01,
565,-5.60e-01,6.00e-01,
566,-6.40e-01,6.80e-01,
567,-5.60e-01,6.00e-01,
568,-6.00e-01,6.40e-01,
569,-5.20e-01,5.60e-01,
570,-5.60e-01,6.40e-01,
571,-4.80e-01,5.20e-01,
572,-5.20e-01,6.00e-01,
573,-4.40e-01,4.80e-01,
574,-4.80e-01,5.60e-01,
575,-4.00e-01,4.40e-01,
576,-4.80e-01,5.20e-01,
577,-3.60e-01,4.00e-01,
578,-3.60e-01,4.80e-01,
579,-4.40e-01,3.60e-01,
580,-3.60e-01,4.40e-01,
581,-2.80e-01,3.60e-01,
582,-3.20e-01,3.20e-01,
583,-2.40e-01,4.00e-01,
584,-3.20e-01,3.60e-01,
585,-2.00e-01,2.40e-01,
586,-2.80e-01,3.20e-01,
587,-1.60e-01,2.00e-01,
588,-1.60e-01,2.80e-01,
589,-2.40e-01,2.00e-01,
590,-2.00e-01,2.80e-01,
591,-1.20e-01,1.20e-01,
592,-1.60e-01,2.00e-01,
593,-8.00e-02,1.20e-01,
594,-1.20e-01,2.00e-01,
595,-4.00e-02,8.00e-02,
596,-1.20e-01,1.60e-01,
597,0.00e+00,4.00e-02,
598,-8.00e-02,1.20e-01,
599,4.00e-02,0.00e+00,
600,-4.00e-02,-4.00e-02,
601,8.00e-02,8.00e-02,
602,4.00e-02,4.00e-02,
603,1.20e-01,-8.00e-02,
604,8.00e-02,0.00e+00,
605,1.60e-01,-1.20e-01,
606,8.00e-02,-4.00e-02,
607,2.00e-01,-1.60e-01,
608,1.20e-01,-8.00e-02,
609,2.40e-01,-2.00e-01,
610,1.60e-01,-1.20e-01,
611,2.80e-01,-2.40e-01,
612,2.80e-01,-1.60e-01,
613,2.00e-01,-2.80e-01,
614,2.40e-01,-2.00e-01,
615,3.20e-01,-3.20e-01,
616,2.80e-01,-2.40e-01,
617,3.60e-01,-3.60e-01,
618,3.20e-01,-2.80e-01,
619,4.00e-01,-4.00e-01,
620,3.60e-01,-4.00e-01,
621,4.40e-01,-2.80e-01,
622,3.60e-01,-3.20e-01,
623,4.80e-01,-4.80e-01,
624,4.00e-01,-3.60e-01,
625,5.20e-01,-5.20e-01,
626,4.40e-01,-4.00e-01,
627,5.60e-01,-5.60e-01,
628,4.80e-01,-4.40e-01,
629,6.00e-01,-6.00e-01,
630,5.20e-01,-4.80e-01,
631,6.40e-01,-6.40e-01,
632,5.60e-01,-5.20e-01,
633,6.80e-01,-6.40e-01,
634,6.00e-01,-5.60e-01,
635,7.20e-01,-6.80e-01,
636,6.40e-01,-6.00e-01,
637,7.20e-01,-7.20e-01,
638,6.40e-01,-6.00e-01,
639,7.60e-01,-7.60e-01,
640,6.80e-01,-6.40e-01,
641,8.00e-01,-8.00e-01,
642,7.20e-01,-7.20e-01,
643,8.40e-01,-8.40e-01,
644,8.80e-01,-7.20e-01,
645,7.60e-01,-8.80e-01,
646,8.40e-01,-8.00e-01,
647,9.20e-01,-9.20e-01,
648,8.40e-01,-8.40e-01,
649,9.60e-01,-9.60e-01,
650,8.80e-01,-8.40e-01,
651,1.00e+00,-1.00e+00,
652,9.20e-01,-8.80e-01,
653,1.04e+00,-1.00e+00,
654,9.60e-01,-1.04e+00,
655,1.04e+00,-9.20e-01,
656,9.60e-01,-9.60e-01,
657,1.08e+00,-1.08e+00,
658,1.00e+00,-9.60e-01,
659,1.12e+00,-1.12e+00,
660,1.04e+00,-1.00e+00,
661,1.16e+00,-1.16e+00,
662,1.08e+00,-1.04e+00,
663,1.20e+00,-1.20e+00,
664,1.12e+00,-1.08e+00,
665,1.20e+00,-1.20e+00,
666,1.12e+00,-1.16e+00,
667,1.24e+00,-1.28e+00,
668,1.16e+00,-1.16e+00,
669,1.32e+00,-1.28e+00,
670,1.20e+00,-1.20e+00,
671,1.32e+00,-1.32e+00,
672,1.24e+00,-1.24e+00,
673,1.36e+00,-1.36e+00,
674,1.28e+00,-1.28e+00,
675,1.40e+00,-1.40e+00,
676,1.32e+00,-1.28e+00,
677,1.44e+00,-1.44e+00,
678,1.36e+00,-1.32e+00,
679,1.44e+00,-1.48e+00,
680,1.36e+00,-1.36e+00,
681,1.48e+00,-1.52e+00,
682,1.40e+00,-1.52e+00,
683,1.52e+00,-1.36e+00,
684,1.44e+00,-1.40e+00,
685,1.52e+00,-1.56e+00,
686,1.48e+00,-1.44e+00,
687,1.56e+00,-1.60e+00,
688,1.48e+00,-1.52e+00,
689,1.60e+00,-1.64e+00,
690,1.52e+00,-1.52e+00,
691,1.64e+00,-1.68e+00,
692,1.68e+00,-1.56e+00,
693,1.56e+00,-1.72e+00,
694,1.56e+00,-1.60e+00,
695,1.72e+00,-1.76e+00,
696,1.64e+00,-1.64e+00,
697,1.72e+00,-1.76e+00,
698,1.64e+00,-1.80e+00,
699,1.76e+00,-1.64e+00,
700,1.68e+00,-1.68e+00,
701,1.80e+00,-1.84e+00,
702,1.72e+00,-1.72e+00,
703,1.84e+00,-1.88e+00,
704,1.84e+00,-1.72e+00,
705,1.72e+00,-1.88e+00,
706,1.76e+00,-1.76e+00,
707,1.88e+00,-1.92e+00,
708,1.80e+00,-1.92e+00,
709,1.92e+00,-1.76e+00,
710,1.80e+00,-1.80e+00,
711,1.96e+00,-2.00e+00,
712,1.84e+00,-1.84e+00,
713,1.96e+00,-2.00e+00,
714,1.88e+00,-1.92e+00,
715,2.00e+00,-2.04e+00,
716,2.00e+00,-1.92e+00,
717,1.88e+00,-2.04e+00,
718,1.92e+00,-1.96e+00,
719,2.08e+00,-2.08e+00,
720,2.00e+00,-1.96e+00,
721,2.08e+00,-2.12e+00,
722,2.00e+00,-2.12e+00,
723,2.12e+00,-2.00e+00,
724,2.00e+00,-2.04e+00,
725,2.16e+00,-2.16e+00,
726,2.16e+00,-2.20e+00,
727,2.04e+00,-2.04e+00,
728,2.08e+00,-2.08e+00,
729,2.20e+00,-2.24e+00,
730,2.20e+00,-2.24e+00,
731,2.08e+00,-2.12e+00,
732,2.12e+00,-2.12e+00,
733,2.24e+00,-2.28e+00,
734,2.12e+00,-2.12e+00,
735,2.28e+00,-2.32e+00,
736,2.16e+00,-2.16e+00,
737,2.28e+00,-2.32e+00,
738,2.20e+00,-2.20e+00,
739,2.32e+00,-2.40e+00,
740,2.20e+00,-2.20e+00,
741,2.32e+00,-2.36e+00,
742,2.20e+00,-2.40e+00,
743,2.36e+00,-2.24e+00,
744,2.24e+00,-2.28e+00,
745,2.36e+00,-2.44e+00,
746,2.24e+00,-2.32e+00,
747,2.40e+00,-2.44e+00,
748,2.32e+00,-2.32e+00,
749,2.44e+00,-2.48e+00,
750,2.32e+00,-2.48e+00,
751,2.44e+00,-2.36e+00,
752,2.32e+00,-2.36e+00,
753,2.48e+00,-2.52e+00,
754,2.36e+00,-2.40e+00,
755,2.52e+00,-2.56e+00,
756,2.40e+00,-2.40e+00,
757,2.52e+00,-2.60e+00,
758,2.40e+00,-2.40e+00,
759,2.52e+00,-2.60e+00,
760,2.44e+00,-2.44e+00,
761,2.56e+00,-2.60e+00,
762,2.44e+00,-2.60e+00,
763,2.56e+00,-2.48e+00,
764,2.44e+00,-2.48e+00,
765,2.60e+00,-2.64e+00,
766,2.48e+00,-2.64e+00,
767,2.60e+00,-2.48e+00,
768,2.60e+00,-2.52e+00,
769,2.48e+00,-2.68e+00,
770,2.52e+00,-2.52e+00,
771,2.64e+00,-2.68e+00,
772,2.64e+00,-2.72e+00,
773,2.52e+00,-2.56e+00,
774,2.56e+00,-2.72e+00,
775,2.68e+00,-2.56e+00,
776,2.68e+00,-2.76e+00,
777,2.56e+00,-2.60e+00,
778,2.56e+00,-2.80e+00,
779,2.72e+00,-2.60e+00,
780,2.60e+00,-2.80e+00,
781,2.72e+00,-2.60e+00,
782,2.72e+00,-2.60e+00,
783,2.60e+00,-2.80e+00,
784,2.60e+00,-2.68e+00,
785,2.76e+00,-2.84e+00,
786,2.76e+00,-2.68e+00,
787,2.64e+00,-2.84e+00,
788,2.76e+00,-2.68e+00,
789,2.64e+00,-2.84e+00,
790,2.68e+00,-2.72e+00,
791,2.80e+00,-2.88e+00,
792,2.68e+00,-2.72e+00,
793,2.80e+00,-2.88e+00,
794,2.68e+00,-2.88e+00,
795,2.84e+00,-2.76e+00,
796,2.72e+00,-2.76e+00,
797,2.84e+00,-2.88e+00,
798,2.72e+00,-2.92e+00,
799,2.84e+00,-2.76e+00,
800,2.72e+00,-2.76e+00,
801,2.88e+00,-2.92e+00,
802,2.76e+00,-2.76e+00,
803,2.88e+00,-2.96e+00,
804,2.88e+00,-2.80e+00,
805,2.76e+00,-2.92e+00,
806,2.76e+00,-2.96e+00,
807,2.92e+00,-2.80e+00,
808,2.80e+00,-2.96e+00,
809,2.88e+00,-2.80e+00,
810,2.80e+00,-2.80e+00,
811,2.92e+00,-3.00e+00,
812,2.92e+00,-2.84e+00,
813,2.80e+00,-3.00e+00,
814,2.80e+00,-3.00e+00,
815,2.96e+00,-2.84e+00,
816,2.80e+00,-2.84e+00,
817,2.96e+00,-3.00e+00,
818,2.84e+00,-2.84e+00,
819,2.96e+00,-3.00e+00,
820,2.84e+00,-3.00e+00,
821,2.96e+00,-2.84e+00,
822,2.96e+00,-2.84e+00,
823,2.84e+00,-3.04e+00,
824,2.96e+00,-2.88e+00,
825,2.84e+00,-3.04e+00,
826,2.96e+00,-3.04e+00,
827,2.84e+00,-2.88e+00,
828,2.96e+00,-2.88e+00,
829,2.84e+00,-3.04e+00,
830,2.84e+00,-3.04e+00,
831,2.96e+00,-2.88e+00,
832,2.84e+00,-2.88e+00,
833,3.00e+00,-3.04e+00,
834,2.88e+00,-3.04e+00,
835,3.00e+00,-2.88e+00,
836,2.88e+00,-3.04e+00,
837,3.00e+00,-2.88e+00,
838,2.88e+00,-3.04e+00,
839,3.00e+00,-2.88e+00,
840,2.88e+00,-3.04e+00,
841,3.00e+00,-2.88e+00,
842,2.88e+00,-3.04e+00,
843,3.00e+00,-2.88e+00,
844,2.92e+00,-3.04e+00,
845,3.00e+00,-2.88e+00,
846,3.00e+00,-3.04e+00,
847,2.88e+00,-2.92e+00,
848,3.00e+00,-3.04e+00,
849,2.88e+00,-2.92e+00,
850,3.00e+00,-3.04e+00,
851,2.88e+00,-2.88e+00,
852,3.00e+00,-3.04e+00,
853,2.88e+00,-2.92e+00,
854,3.00e+00,-3.04e+00,
855,2.88e+00,-2.88e+00,
856,3.00e+00,-3.04e+00,
857,2.88e+00,-2.92e+00,
858,3.00e+00,-3.04e+00,
859,2.88e+00,-2.88e+00,
860,3.00e+00,-3.04e+00,
861,2.88e+00,-2.88e+00,
862,3.00e+00,-3.04e+00,
863,2.88e+00,-2.88e+00,
864,2.88e+00,-2.88e+00,
865,3.00e+00,-3.04e+00,
866,2.88e+00,-3.04e+00,
867,3.00e+00,-2.88e+00,
868,2.88e+00,-3.04e+00,
869,3.00e+00,-2.88e+00,
870,2.88e+00,-3.04e+00,
871,3.00e+00,-2.88e+00,
872,3.00e+00,-2.88e+00,
873,2.84e+00,-3.04e+00,
874,2.84e+00,-2.88e+00,
875,3.00e+00,-3.04e+00,
876,2.96e+00,-3.04e+00,
877,2.84e+00,-2.88e+00,
878,2.96e+00,-3.00e+00,
879,2.84e+00,-2.84e+00,
880,2.96e+00,-3.00e+00,
881,2.84e+00,-2.84e+00,
882,2.96e+00,-3.00e+00,
883,2.84e+00,-2.84e+00,
884,2.96e+00,-2.84e+00,
885,2.80e+00,-3.00e+00,
886,2.96e+00,-3.00e+00,
887,2.80e+00,-2.84e+00,
888,2.92e+00,-2.84e+00,
889,2.80e+00,-2.96e+00,
890,2.92e+00,-2.80e+00,
891,2.80e+00,-2.96e+00,
892,2.92e+00,-2.96e+00,
893,2.80e+00,-2.80e+00,
894,2.92e+00,-2.96e+00,
895,2.76e+00,-2.80e+00,
896,2.88e+00,-2.80e+00,
897,2.72e+00,-2.96e+00,
898,2.76e+00,-2.92e+00,
899,2.88e+00,-2.76e+00,
900,2.88e+00,-2.92e+00,
901,2.76e+00,-2.76e+00,
902,2.84e+00,-2.76e+00,
903,2.72e+00,-2.92e+00,
904,2.72e+00,-2.76e+00,
905,2.84e+00,-2.92e+00,
906,2.72e+00,-2.88e+00,
907,2.84e+00,-2.72e+00,
908,2.84e+00,-2.72e+00,
909,2.68e+00,-2.88e+00,
910,2.80e+00,-2.84e+00,
911,2.68e+00,-2.72e+00,
912,2.68e+00,-2.84e+00,
913,2.80e+00,-2.68e+00,
914,2.76e+00,-2.68e+00,
915,2.68e+00,-2.84e+00,
916,2.76e+00,-2.68e+00,
917,2.64e+00,-2.80e+00,
918,2.60e+00,-2.80e+00,
919,2.72e+00,-2.64e+00,
920,2.72e+00,-2.76e+00,
921,2.60e+00,-2.60e+00,
922,2.60e+00,-2.80e+00,
923,2.72e+00,-2.60e+00,
924,2.56e+00,-2.76e+00,
925,2.72e+00,-2.56e+00,
926,2.68e+00,-2.76e+00,
927,2.56e+00,-2.56e+00,
928,2.68e+00,-2.68e+00,
929,2.52e+00,-2.56e+00,
930,2.52e+00,-2.68e+00,
931,2.68e+00,-2.52e+00,
932,2.64e+00,-2.52e+00,
933,2.52e+00,-2.68e+00,
934,2.52e+00,-2.64e+00,
935,2.64e+00,-2.48e+00,
936,2.60e+00,-2.48e+00,
937,2.48e+00,-2.64e+00,
938,2.56e+00,-2.60e+00,
939,2.44e+00,-2.48e+00,
940,2.56e+00,-2.60e+00,
941,2.44e+00,-2.44e+00,
942,2.44e+00,-2.56e+00,
943,2.52e+00,-2.44e+00,
944,2.52e+00,-2.52e+00,
945,2.40e+00,-2.40e+00,
946,2.52e+00,-2.52e+00,
947,2.40e+00,-2.40e+00,
948,2.48e+00,-2.36e+00,
949,2.36e+00,-2.52e+00,
950,2.32e+00,-2.48e+00,
951,2.48e+00,-2.36e+00,
952,2.28e+00,-2.44e+00,
953,2.44e+00,-2.32e+00,
954,2.40e+00,-2.44e+00,
955,2.28e+00,-2.28e+00,
956,2.28e+00,-2.44e+00,
957,2.40e+00,-2.24e+00,
958,2.36e+00,-2.36e+00,
959,2.24e+00,-2.24e+00,
960,2.36e+00,-2.36e+00,
961,2.20e+00,-2.20e+00,
962,2.32e+00,-2.32e+00,
963,2.20e+00,-2.16e+00,
964,2.28e+00,-2.16e+00,
965,2.20e+00,-2.32e+00,
966,2.28e+00,-2.28e+00,
967,2.16e+00,-2.12e+00,
968,2.24e+00,-2.12e+00,
969,2.12e+00,-2.28e+00,
970,2.12e+00,-2.24e+00,
971,2.24e+00,-2.08e+00,
972,2.20e+00,-2.08e+00,
973,2.08e+00,-2.20e+00,
974,2.16e+00,-2.20e+00,
975,2.04e+00,-2.04e+00,
976,2.16e+00,-2.16e+00,
977,2.04e+00,-2.00e+00,
978,2.16e+00,-2.16e+00,
979,2.00e+00,-2.00e+00,
980,2.12e+00,-2.12e+00,
981,2.00e+00,-1.96e+00,
982,1.92e+00,-1.96e+00,
983,2.08e+00,-2.12e+00,
984,1.92e+00,-2.08e+00,
985,2.04e+00,-1.92e+00,
986,2.00e+00,-2.04e+00,
987,1.88e+00,-1.88e+00,
988,2.00e+00,-2.00e+00,
989,1.84e+00,-1.84e+00,
990,1.96e+00,-1.96e+00,
991,1.84e+00,-1.80e+00,
992,1.92e+00,-1.80e+00,
993,1.84e+00,-1.92e+00,
994,1.92e+00,-1.76e+00,
995,1.80e+00,-1.92e+00,
996,1.88e+00,-1.88e+00,
997,1.76e+00,-1.72e+00,
998,1.84e+00,-1.84e+00,
999,1.76e+00,-1.72e+00,
1000,1.80e+00,-1.80e+00,
1001,1.72e+00,-1.68e+00,
1002,1.68e+00,-1.80e+00,
1003,1.80e+00,-1.64e+00,
1004,1.76e+00,-1.76e+00,
1005,1.64e+00,-1.60e+00,
1006,1.64e+00,-1.72e+00,
1007,1.72e+00,-1.56e+00,
1008,1.72e+00,-1.68e+00,
1009,1.56e+00,-1.56e+00,
1010,1.68e+00,-1.68e+00,
1011,1.56e+00,-1.48e+00,
1012,1.60e+00,-1.48e+00,
1013,1.52e+00,-1.64e+00,
1014,1.60e+00,-1.64e+00,
1015,1.48e+00,-1.44e+00,
1016,1.56e+00,-1.56e+00,
1017,1.44e+00,-1.40e+00,
1018,1.56e+00,-1.52e+00,
1019,1.44e+00,-1.40e+00,
1020,1.52e+00,-1.48e+00,
1021,1.40e+00,-1.32e+00,
1022,1.48e+00,-1.44e+00,
1023,1.36e+00,-1.32e+00,
1024,1.48e+00,-1.28e+00,
1025,1.32e+00,-1.44e+00,
1026,1.32e+00,-1.36e+00,
1027,1.40e+00,-1.24e+00,
1028,1.40e+00,-1.24e+00,
1029,1.28e+00,-1.36e+00,
1030,1.36e+00,-1.36e+00,
1031,1.24e+00,-1.20e+00,
1032,1.24e+00,-1.28e+00,
1033,1.32e+00,-1.12e+00,
1034,1.28e+00,-1.28e+00,
1035,1.16e+00,-1.12e+00,
1036,1.24e+00,-1.20e+00,
1037,1.12e+00,-1.08e+00,
1038,1.20e+00,-1.20e+00,
1039,1.08e+00,-1.04e+00,
1040,1.16e+00,-1.12e+00,
1041,1.04e+00,-1.00e+00,
1042,1.12e+00,-1.08e+00,
1043,1.04e+00,-9.60e-01,
1044,1.12e+00,-9.60e-01,
1045,1.00e+00,-1.08e+00,
1046,1.08e+00,-9.20e-01,
1047,9.60e-01,-1.04e+00,
1048,9.60e-01,-1.00e+00,
1049,1.04e+00,-8.80e-01,
1050,9.20e-01,-1.00e+00,
1051,1.00e+00,-8.40e-01,
1052,1.00e+00,-9.60e-01,
1053,8.80e-01,-8.00e-01,
1054,9.60e-01,-9.20e-01,
1055,8.40e-01,-7.60e-01,
1056,9.20e-01,-8.40e-01,
1057,8.00e-01,-7.20e-01,
1058,7.60e-01,-8.00e-01,
1059,8.80e-01,-6.80e-01,
1060,8.00e-01,-7.60e-01,
1061,7.20e-01,-6.40e-01,
1062,8.00e-01,-7.60e-01,
1063,6.80e-01,-6.00e-01,
1064,7.60e-01,-6.00e-01,
1065,6.40e-01,-7.20e-01,
1066,7.20e-01,-6.80e-01,
1067,6.00e-01,-5.60e-01,
1068,6.00e-01,-6.40e-01,
1069,6.80e-01,-5.20e-01,
1070,5.60e-01,-6.00e-01,
1071,6.40e-01,-4.80e-01,
1072,6.00e-01,-5.60e-01,
1073,5.20e-01,-4.40e-01,
1074,6.00e-01,-5.20e-01,
1075,4.80e-01,-3.60e-01,
1076,5.60e-01,-3.60e-01,
1077,4.40e-01,-4.80e-01,
1078,4.40e-01,-4.40e-01,
1079,5.20e-01,-3.20e-01,
1080,3.60e-01,-4.00e-01,
1081,4.80e-01,-2.80e-01,
1082,4.40e-01,-3.60e-01,
1083,3.20e-01,-2.40e-01,
1084,4.00e-01,-3.20e-01,
1085,2.80e-01,-2.00e-01,
1086,3.60e-01,-3.20e-01,
1087,2.40e-01,-1.60e-01,
1088,3.20e-01,-1.60e-01,
1089,2.00e-01,-2.80e-01,
1090,2.00e-01,-1.20e-01,
1091,2.80e-01,-2.40e-01,
1092,2.40e-01,-2.00e-01,
1093,1.60e-01,-8.00e-02,
1094,2.40e-01,-1.60e-01,
1095,1.20e-01,0.00e+00,
1096,1.60e-01,-1.20e-01,
1097,8.00e-02,4.00e-02,
1098,1.60e-01,-8.00e-02,
1099,4.00e-02,4.00e-02,
1100,4.00e-02,8.00e-02,
1101,1.20e-01,-4.00e-02,
1102,-4.00e-02,1.20e-01,
1103,8.00e-02,0.00e+00,
1104,0.00e+00,4.00e-02,
1105,-8.00e-02,1.60e-01,
1106,0.00e+00,8.00e-02,
1107,-1.20e-01,2.00e-01,
1108,-4.00e-02,1.20e-01,
1109,-1.60e-01,2.40e-01,
1110,-8.00e-02,2.40e-01,
1111,-2.00e-01,1.20e-01,
1112,-1.20e-01,2.80e-01,
1113,-2.00e-01,1.60e-01,
1114,-1.60e-01,3.20e-01,
1115,-2.40e-01,2.00e-01,
1116,-2.00e-01,2.80e-01,
1117,-2.80e-01,4.00e-01,
1118,-2.40e-01,3.20e-01,
1119,-3.20e-01,4.40e-01,
1120,-2.80e-01,3.60e-01,
1121,-3.60e-01,4.80e-01,
1122,-3.60e-01,4.80e-01,
1123,-2.80e-01,3.60e-01,
1124,-3.60e-01,4.40e-01,
1125,-4.40e-01,5.20e-01,
1126,-4.00e-01,4.40e-01,
1127,-4.80e-01,5.60e-01,
1128,-4.40e-01,4.80e-01,
1129,-5.20e-01,6.00e-01,
1130,-4.40e-01,5.20e-01,
1131,-5.60e-01,6.40e-01,
1132,-4.80e-01,5.60e-01,
1133,-6.00e-01,6.80e-01,
1134,-5.20e-01,6.80e-01,
1135,-6.00e-01,5.60e-01,
1136,-5.60e-01,6.80e-01,
1137,-6.40e-01,7.60e-01,
1138,-6.00e-01,6.80e-01,
1139,-6.80e-01,8.00e-01,
1140,-6.00e-01,7.20e-01,
1141,-7.20e-01,8.40e-01,
1142,-7.20e-01,7.60e-01,
1143,-6.40e-01,8.80e-01,
1144,-6.80e-01,8.00e-01,
1145,-8.00e-01,8.80e-01,
1146,-7.60e-01,8.40e-01,
1147,-8.40e-01,9.20e-01,
1148,-8.00e-01,8.40e-01,
1149,-8.80e-01,9.60e-01,
1150,-8.00e-01,8.80e-01,
1151,-9.20e-01,1.00e+00,
1152,-8.40e-01,1.00e+00,
1153,-9.20e-01,9.20e-01,
1154,-8.80e-01,9.60e-01,
1155,-9.60e-01,1.04e+00,
1156,-9.20e-01,9.60e-01,
1157,-1.00e+00,1.12e+00,
1158,-9.60e-01,1.00e+00,
1159,-1.04e+00,1.16e+00,
1160,-1.04e+00,1.08e+00,
1161,-9.60e-01,1.16e+00,
1162,-1.08e+00,1.12e+00,
1163,-1.00e+00,1.20e+00,
1164,-1.04e+00,1.16e+00,
1165,-1.12e+00,1.24e+00,
1166,-1.08e+00,1.16e+00,
1167,-1.20e+00,1.28e+00,
1168,-1.08e+00,1.20e+00,
1169,-1.20e+00,1.32e+00,
1170,-1.16e+00,1.24e+00,
1171,-1.24e+00,1.32e+00,
1172,-1.20e+00,1.28e+00,
1173,-1.28e+00,1.36e+00,
1174,-1.24e+00,1.28e+00,
1175,-1.32e+00,1.40e+00,
1176,-1.32e+00,1.32e+00,
1177,-1.24e+00,1.44e+00,
1178,-1.28e+00,1.44e+00,
1179,-1.36e+00,1.36e+00,
1180,-1.32e+00,1.44e+00,
1181,-1.40e+00,1.52e+00,
1182,-1.32e+00,1.44e+00,
1183,-1.44e+00,1.56e+00,
1184,-1.44e+00,1.56e+00,
1185,-1.36e+00,1.48e+00,
1186,-1.40e+00,1.52e+00,
1187,-1.48e+00,1.60e+00,
1188,-1.44e+00,1.56e+00,
1189,-1.52e+00,1.64e+00,
1190,-1.52e+00,1.56e+00,
1191,-1.48e+00,1.68e+00,
1192,-1.48e+00,1.60e+00,
1193,-1.60e+00,1.68e+00,
1194,-1.56e+00,1.64e+00,
1195,-1.64e+00,1.72e+00,
1196,-1.64e+00,1.64e+00,
1197,-1.56e+00,1.76e+00,
1198,-1.60e+00,1.68e+00,
1199,-1.68e+00,1.80e+00,
