X,CH1,CH2,Start,Increment,
Sequence,Volt,Volt,-1.200000e-02,2.000000e-05
0,-9.70e-01,9.80e-01,
1,-9.12e-01,8.80e-01,
2,-9.70e-01,9.40e-01,
3,-8.92e-01,8.60e-01,
4,-8.92e-01,9.40e-01,
5,-9.51e-01,8.40e-01,
6,-8.92e-01,8.80e-01,
7,-9.51e-01,9.40e-01,
8,-9.51e-01,9.20e-01,
9,-8.73e-01,8.20e-01,
10,-9.12e-01,9.00e-01,
11,-8.73e-01,8.20e-01,
12,-9.12e-01,8.20e-01,
13,-8.54e-01,9.20e-01,
14,-9.12e-01,8.00e-01,
15,-8.34e-01,8.80e-01,
16,-8.92e-01,8.60e-01,
17,-8.15e-01,7.80e-01,
18,-8.92e-01,9.00e-01,
19,-7.95e-01,7.80e-01,
20,-7.95e-01,8.60e-01,
21,-8.92e-01,7.60e-01,
22,-7.95e-01,8.40e-01,
23,-8.73e-01,7.40e-01,
24,-8.34e-01,8.40e-01,
25,-7.57e-01,7.20e-01,
26,-8.34e-01,8.40e-01,
27,-7.37e-01,7.00e-01,
28,-8.15e-01,8.00e-01,
29,-7.37e-01,7.00e-01,
30,-7.95e-01,7.80e-01,
31,-7.18e-01,7.00e-01,
32,-7.95e-01,6.60e-01,
33,-6.98e-01,7.80e-01,
34,-7.76e-01,6.60e-01,
35,-6.79e-01,7.60e-01,
36,-7.57e-01,6.40e-01,
37,-6.79e-01,7.40e-01,
38,-7.18e-01,7.20e-01,
39,-6.60e-01,6.20e-01,
40,-6.60e-01,7.00e-01,
41,-7.18e-01,6.00e-01,
42,-6.98e-01,5.80e-01,
43,-6.21e-01,6.80e-01,
44,-6.79e-01,6.80e-01,
45,-6.01e-01,5.60e-01,
46,-6.01e-01,5.80e-01,
47,-6.60e-01,6.40e-01,
48,-6.40e-01,5.20e-01,
49,-5.63e-01,6.20e-01,
50,-6.21e-01,6.00e-01,
51,-5.43e-01,5.00e-01,
52,-6.01e-01,5.80e-01,
53,-5.24e-01,4.80e-01,
54,-5.82e-01,5.60e-01,
55,-5.24e-01,4.40e-01,
56,-5.63e-01,4.60e-01,
57,-4.85e-01,5.40e-01,
58,-5.24e-01,5.40e-01,
59,-4.66e-01,4.20e-01,
60,-5.04e-01,4.20e-01,
61,-4.27e-01,5.00e-01,
62,-5.04e-01,4.80e-01,
63,-4.07e-01,3.80e-01,
64,-4.66e-01,4.60e-01,
65,-4.07e-01,3.60e-01,
66,-4.46e-01,3.40e-01,
67,-3.69e-01,4.40e-01,
68,-4.27e-01,4.20e-01,
69,-3.49e-01,3.00e-01,
70,-3.88e-01,4.00e-01,
71,-3.30e-01,3.00e-01,
72,-3.69e-01,3.80e-01,
73,-2.91e-01,2.60e-01,
74,-3.49e-01,3.40e-01,
75,-2.72e-01,2.20e-01,
76,-3.10e-01,3.20e-01,
77,-2.72e-01,2.20e-01,
78,-3.10e-01,2.80e-01,
79,-2.33e-01,2.00e-01,
80,-2.91e-01,2.60e-01,
81,-2.13e-01,1.80e-01,
82,-2.52e-01,2.40e-01,
83,-1.94e-01,1.40e-01,
84,-2.33e-01,2.20e-01,
85,-1.55e-01,1.40e-01,
86,-2.13e-01,2.00e-01,
87,-1.36e-01,1.00e-01,
88,-1.75e-01,1.60e-01,
89,-1.36e-01,8.00e-02,
90,-1.55e-01,1.60e-01,
91,-7.76e-02,6.00e-02,
92,-1.16e-01,4.00e-02,
93,-5.82e-02,1.40e-01,
94,-1.16e-01,0.00e+00,
95,-3.88e-02,1.00e-01,
96,-1.94e-02,8.00e-02,
97,-9.70e-02,-2.00e-02,
98,-7.76e-02,6.00e-02,
99,0.00e+00,-4.00e-02,
100,-3.88e-02,4.00e-02,
101,3.88e-02,-8.00e-02,
102,-1.94e-02,0.00e+00,
103,5.82e-02,-8.00e-02,
104,0.00e+00,0.00e+00,
105,7.76e-02,-1.20e-01,
106,1.94e-02,-4.00e-02,
107,1.16e-01,-1.40e-01,
108,3.88e-02,-6.00e-02,
109,1.36e-01,-1.60e-01,
110,7.76e-02,-1.80e-01,
111,1.75e-01,-8.00e-02,
112,1.75e-01,-2.20e-01,
113,9.70e-02,-1.20e-01,
114,1.55e-01,-1.40e-01,
115,1.94e-01,-2.40e-01,
116,1.55e-01,-2.60e-01,
117,2.13e-01,-1.60e-01,
118,1.75e-01,-2.00e-01,
119,2.52e-01,-2.80e-01,
120,2.13e-01,-2.00e-01,
121,2.72e-01,-3.20e-01,
122,2.33e-01,-2.40e-01,
123,2.72e-01,-3.20e-01,
124,2.52e-01,-2.80e-01,
125,3.10e-01,-3.40e-01,
126,2.91e-01,-3.00e-01,
127,3.30e-01,-3.80e-01,
128,3.10e-01,-3.20e-01,
129,3.69e-01,-4.00e-01,
130,3.88e-01,-3.40e-01,
131,3.10e-01,-4.20e-01,
132,3.49e-01,-4.20e-01,
133,4.07e-01,-3.40e-01,
134,3.69e-01,-3.80e-01,
135,4.46e-01,-4.60e-01,
136,4.46e-01,-4.20e-01,
137,3.69e-01,-4.80e-01,
138,4.07e-01,-4.20e-01,
139,4.85e-01,-5.00e-01,
140,4.27e-01,-4.60e-01,
141,5.04e-01,-5.40e-01,
142,4.46e-01,-4.60e-01,
143,5.24e-01,-5.40e-01,
144,5.43e-01,-5.00e-01,
145,4.66e-01,-5.60e-01,
146,5.04e-01,-5.20e-01,
147,5.43e-01,-6.00e-01,
148,5.04e-01,-5.20e-01,
149,5.82e-01,-6.20e-01,
150,5.24e-01,-5.40e-01,
151,6.01e-01,-6.20e-01,
152,5.63e-01,-5.80e-01,
153,6.01e-01,-6.40e-01,
154,5.82e-01,-6.00e-01,
155,6.40e-01,-6.80e-01,
156,5.82e-01,-6.80e-01,
157,6.60e-01,-6.20e-01,
158,6.60e-01,-6.40e-01,
159,6.21e-01,-7.00e-01,
160,6.40e-01,-6.60e-01,
161,7.18e-01,-7.20e-01,
162,6.40e-01,-6.60e-01,
163,7.18e-01,-7.40e-01,
164,6.60e-01,-6.80e-01,
165,7.37e-01,-7.60e-01,
166,6.79e-01,-6.80e-01,
167,7.37e-01,-7.80e-01,
168,6.79e-01,-7.80e-01,
169,7.76e-01,-7.20e-01,
170,6.98e-01,-7.20e-01,
171,7.95e-01,-8.00e-01,
172,7.18e-01,-7.40e-01,
173,7.95e-01,-8.40e-01,
174,7.37e-01,-7.60e-01,
175,8.15e-01,-8.40e-01,
176,7.57e-01,-8.40e-01,
177,8.15e-01,-7.60e-01,
178,7.57e-01,-8.00e-01,
179,8.54e-01,-8.60e-01,
180,8.54e-01,-8.00e-01,
181,7.76e-01,-8.80e-01,
182,7.95e-01,-8.20e-01,
183,8.54e-01,-9.00e-01,
184,8.15e-01,-8.40e-01,
185,8.54e-01,-9.00e-01,
186,8.34e-01,-8.40e-01,
187,8.73e-01,-9.20e-01,
188,8.34e-01,-9.20e-01,
189,8.92e-01,-8.60e-01,
190,8.34e-01,-8.60e-01,
191,8.92e-01,-9.40e-01,
192,8.34e-01,-8.80e-01,
193,9.31e-01,-9.40e-01,
194,8.54e-01,-8.80e-01,
195,9.31e-01,-9.60e-01,
196,8.73e-01,-9.60e-01,
197,9.31e-01,-8.80e-01,
198,9.51e-01,-9.00e-01,
199,8.54e-01,-9.80e-01,
200,9.51e-01,-9.80e-01,
201,8.73e-01,-9.00e-01,
202,8.92e-01,-9.20e-01,
203,9.31e-01,-9.80e-01,
204,9.12e-01,-9.20e-01,
205,9.51e-01,-1.00e+00,
206,9.12e-01,-1.00e+00,
207,9.51e-01,-9.20e-01,
208,9.12e-01,-1.00e+00,
209,9.70e-01,-9.40e-01,
210,9.12e-01,-1.00e+00,
211,9.89e-01,-9.20e-01,
212,9.12e-01,-9.20e-01,
213,9.89e-01,-1.02e+00,
214,9.12e-01,-1.02e+00,
215,9.89e-01,-9.20e-01,
216,9.89e-01,-1.02e+00,
217,9.12e-01,-9.40e-01,
218,9.12e-01,-9.60e-01,
219,9.89e-01,-1.04e+00,
220,9.89e-01,-1.02e+00,
221,9.12e-01,-9.40e-01,
222,9.89e-01,-1.02e+00,
223,9.12e-01,-9.40e-01,
224,9.89e-01,-1.02e+00,
225,9.12e-01,-9.40e-01,
226,9.89e-01,-1.02e+00,
227,9.12e-01,-9.40e-01,
228,9.89e-01,-1.02e+00,
229,9.12e-01,-9.40e-01,
230,9.51e-01,-9.60e-01,
231,9.89e-01,-1.02e+00,
232,9.51e-01,-1.02e+00,
233,9.89e-01,-9.60e-01,
234,9.70e-01,-9.60e-01,
235,9.12e-01,-1.02e+00,
236,9.70e-01,-1.00e+00,
237,9.12e-01,-9.60e-01,
238,9.12e-01,-1.00e+00,
239,9.70e-01,-9.60e-01,
240,9.12e-01,-1.00e+00,
241,9.70e-01,-9.60e-01,
242,9.51e-01,-1.00e+00,
243,8.92e-01,-9.20e-01,
244,9.51e-01,-9.20e-01,
245,8.92e-01,-1.00e+00,
246,8.92e-01,-1.00e+00,
247,9.51e-01,-9.20e-01,
248,8.92e-01,-9.80e-01,
249,9.51e-01,-9.00e-01,
250,9.31e-01,-9.80e-01,
251,8.73e-01,-9.00e-01,
252,9.31e-01,-9.80e-01,
253,8.54e-01,-8.80e-01,
254,9.31e-01,-9.60e-01,
255,8.34e-01,-8.80e-01,
256,9.12e-01,-9.40e-01,
257,8.34e-01,-8.80e-01,
258,9.12e-01,-9.40e-01,
259,8.34e-01,-8.40e-01,
260,8.34e-01,-8.40e-01,
261,9.12e-01,-9.40e-01,
262,8.15e-01,-9.20e-01,
263,8.92e-01,-8.40e-01,
264,8.73e-01,-8.20e-01,
265,7.76e-01,-9.20e-01,
266,8.73e-01,-9.00e-01,
267,7.95e-01,-8.00e-01,
268,8.54e-01,-9.00e-01,
269,7.76e-01,-8.00e-01,
270,8.54e-01,-8.60e-01,
271,7.57e-01,-8.00e-01,
272,8.15e-01,-8.60e-01,
273,7.57e-01,-7.60e-01,
274,8.15e-01,-7.60e-01,
275,7.18e-01,-8.60e-01,
276,7.95e-01,-8.20e-01,
277,7.18e-01,-7.40e-01,
278,6.98e-01,-8.00e-01,
279,7.76e-01,-7.40e-01,
280,7.57e-01,-7.80e-01,
281,6.98e-01,-7.40e-01,
282,6.98e-01,-7.80e-01,
283,7.37e-01,-7.00e-01,
284,7.18e-01,-7.60e-01,
285,6.60e-01,-6.80e-01,
286,7.18e-01,-7.60e-01,
287,6.40e-01,-6.80e-01,
288,6.79e-01,-7.20e-01,
289,6.40e-01,-6.60e-01,
290,6.21e-01,-7.00e-01,
291,6.79e-01,-6.40e-01,
292,6.60e-01,-7.00e-01,
293,5.82e-01,-6.20e-01,
294,6.40e-01,-6.80e-01,
295,5.82e-01,-6.00e-01,
296,6.01e-01,-6.40e-01,
297,5.63e-01,-5.80e-01,
298,6.01e-01,-6.40e-01,
299,5.43e-01,-5.80e-01,
300,5.82e-01,-6.20e-01,
301,5.04e-01,-5.20e-01,
302,5.82e-01,-6.00e-01,
303,4.85e-01,-5.00e-01,
304,5.43e-01,-5.00e-01,
305,4.66e-01,-6.00e-01,
306,5.24e-01,-4.60e-01,
307,4.46e-01,-5.60e-01,
308,5.24e-01,-5.40e-01,
309,4.27e-01,-4.60e-01,
310,5.04e-01,-5.20e-01,
311,4.07e-01,-4.20e-01,
312,4.66e-01,-5.00e-01,
313,3.69e-01,-4.00e-01,
314,4.46e-01,-4.60e-01,
315,3.49e-01,-3.80e-01,
316,4.07e-01,-4.40e-01,
317,3.49e-01,-3.60e-01,
318,3.10e-01,-4.20e-01,
319,4.07e-01,-3.20e-01,
320,3.88e-01,-4.00e-01,
321,2.91e-01,-3.20e-01,
322,3.49e-01,-3.80e-01,
323,2.72e-01,-2.80e-01,
324,2.33e-01,-3.80e-01,
325,3.30e-01,-2.80e-01,
326,2.13e-01,-3.20e-01,
327,3.10e-01,-2.40e-01,
328,2.72e-01,-2.20e-01,
329,2.13e-01,-3.20e-01,
330,2.52e-01,-3.00e-01,
331,1.94e-01,-2.00e-01,
332,2.13e-01,-2.60e-01,
333,1.55e-01,-1.80e-01,
334,1.94e-01,-2.40e-01,
335,1.55e-01,-1.60e-01,
336,1.16e-01,-2.20e-01,
337,1.75e-01,-1.40e-01,
338,1.36e-01,-1.80e-01,
339,9.70e-02,-1.20e-01,
340,1.36e-01,-1.60e-01,
341,5.82e-02,-8.00e-02,
342,1.16e-01,-1.40e-01,
343,3.88e-02,-6.00e-02,
344,7.76e-02,-1.00e-01,
345,1.94e-02,-4.00e-02,
346,5.82e-02,-8.00e-02,
347,-1.94e-02,0.00e+00,
348,3.88e-02,-4.00e-02,
349,-3.88e-02,2.00e-02,
350,-3.88e-02,-2.00e-02,
351,0.00e+00,2.00e-02,
352,-1.94e-02,-2.00e-02,
353,-9.70e-02,6.00e-02,
354,-5.82e-02,8.00e-02,
355,-9.70e-02,0.00e+00,
356,-1.16e-01,4.00e-02,
357,-5.82e-02,1.00e-01,
358,-7.76e-02,6.00e-02,
359,-1.75e-01,1.40e-01,
360,-1.16e-01,8.00e-02,
361,-1.75e-01,1.60e-01,
362,-1.36e-01,1.20e-01,
363,-2.13e-01,1.80e-01,
364,-1.55e-01,1.80e-01,
365,-2.33e-01,1.20e-01,
366,-1.94e-01,2.20e-01,
367,-2.52e-01,1.60e-01,
368,-1.94e-01,1.60e-01,
369,-2.91e-01,2.60e-01,
370,-2.33e-01,2.60e-01,
371,-3.10e-01,2.00e-01,
372,-2.72e-01,2.20e-01,
373,-3.49e-01,3.00e-01,
374,-2.91e-01,2.60e-01,
375,-3.49e-01,3.20e-01,
376,-2.91e-01,2.80e-01,
377,-3.69e-01,3.40e-01,
378,-3.30e-01,3.60e-01,
379,-3.88e-01,3.00e-01,
380,-3.49e-01,3.00e-01,
381,-4.27e-01,4.00e-01,
382,-3.69e-01,4.00e-01,
383,-4.46e-01,3.40e-01,
384,-4.46e-01,3.60e-01,
385,-4.07e-01,4.40e-01,
386,-4.07e-01,3.80e-01,
387,-4.85e-01,4.60e-01,
388,-4.27e-01,4.20e-01,
389,-5.04e-01,4.80e-01,
390,-4.66e-01,4.40e-01,
391,-5.24e-01,4.80e-01,
392,-5.63e-01,4.60e-01,
393,-4.85e-01,5.20e-01,
394,-5.63e-01,4.60e-01,
395,-5.24e-01,5.40e-01,
396,-5.24e-01,5.00e-01,
397,-5.82e-01,5.60e-01,
398,-5.43e-01,5.20e-01,
399,-6.21e-01,5.80e-01,
400,-5.63e-01,5.40e-01,
401,-6.40e-01,6.00e-01,
402,-6.01e-01,5.60e-01,
403,-6.40e-01,6.20e-01,
404,-6.01e-01,6.20e-01,
405,-6.79e-01,5.80e-01,
406,-6.21e-01,5.80e-01,
407,-6.98e-01,6.60e-01,
408,-6.60e-01,6.00e-01,
409,-7.18e-01,6.80e-01,
410,-6.60e-01,6.40e-01,
411,-7.18e-01,7.00e-01,
412,-6.79e-01,6.60e-01,
413,-7.57e-01,7.00e-01,
414,-7.57e-01,6.60e-01,
415,-6.79e-01,7.20e-01,
416,-7.76e-01,6.60e-01,
417,-6.98e-01,7.60e-01,
418,-7.18e-01,6.80e-01,
419,-7.95e-01,7.80e-01,
420,-7.37e-01,7.20e-01,
421,-8.15e-01,7.80e-01,
422,-7.37e-01,7.80e-01,
423,-8.34e-01,7.20e-01,
424,-8.34e-01,7.20e-01,
425,-7.57e-01,8.20e-01,
426,-7.95e-01,7.60e-01,
427,-8.54e-01,8.20e-01,
428,-8.54e-01,7.60e-01,
429,-8.15e-01,8.40e-01,
430,-8.15e-01,8.00e-01,
431,-8.92e-01,8.40e-01,
432,-8.92e-01,8.00e-01,
433,-8.54e-01,8.60e-01,
434,-8.34e-01,8.60e-01,
435,-9.12e-01,8.00e-01,
436,-9.12e-01,8.20e-01,
437,-8.34e-01,8.80e-01,
438,-9.12e-01,8.40e-01,
439,-8.73e-01,9.00e-01,
440,-8.73e-01,9.00e-01,
441,-9.51e-01,8.40e-01,
442,-9.51e-01,9.00e-01,
443,-8.73e-01,8.60e-01,
444,-8.92e-01,8.80e-01,
445,-9.70e-01,9.20e-01,
446,-8.92e-01,9.20e-01,
447,-9.70e-01,8.80e-01,
448,-9.70e-01,8.80e-01,
449,-9.31e-01,9.40e-01,
450,-9.31e-01,9.40e-01,
451,-9.70e-01,9.00e-01,
452,-9.31e-01,9.40e-01,
453,-9.89e-01,9.00e-01,
454,-9.89e-01,9.00e-01,
455,-9.31e-01,9.40e-01,
456,-9.89e-01,9.00e-01,
457,-9.51e-01,9.80e-01,
458,-9.89e-01,9.80e-01,
459,-9.51e-01,9.20e-01,
460,-9.89e-01,9.40e-01,
461,-9.51e-01,9.80e-01,
462,-9.51e-01,9.80e-01,
463,-1.03e+00,9.40e-01,
464,-9.51e-01,9.40e-01,
465,-1.03e+00,9.80e-01,
466,-1.03e+00,9.40e-01,
467,-9.51e-01,9.80e-01,
468,-1.03e+00,9.40e-01,
469,-9.51e-01,9.80e-01,
470,-1.03e+00,9.80e-01,
471,-9.89e-01,9.40e-01,
472,-1.03e+00,9.80e-01,
473,-9.51e-01,9.40e-01,
474,-1.03e+00,9.40e-01,
475,-1.01e+00,9.80e-01,
476,-1.03e+00,9.80e-01,
477,-1.01e+00,9.40e-01,
478,-1.03e+00,9.40e-01,
479,-9.89e-01,1.00e+00,
480,-1.03e+00,9.40e-01,
481,-9.70e-01,9.80e-01,
482,-1.03e+00,9.40e-01,
483,-9.51e-01,9.80e-01,
484,-1.03e+00,9.40e-01,
485,-9.51e-01,9.80e-01,
486,-9.51e-01,9.80e-01,
487,-1.03e+00,9.40e-01,
488,-9.51e-01,9.80e-01,
489,-1.01e+00,9.40e-01,
490,-9.51e-01,9.80e-01,
491,-9.89e-01,9.20e-01,
492,-9.89e-01,9.80e-01,
493,-9.31e-01,9.00e-01,
494,-9.89e-01,9.40e-01,
495,-9.31e-01,9.00e-01,
496,-9.89e-01,9.00e-01,
497,-9.31e-01,9.40e-01,
498,-9.89e-01,9.40e-01,
499,-9.31e-01,8.80e-01,
500,-9.70e-01,9.40e-01,
501,-8.92e-01,8.80e-01,
502,-9.70e-01,9.40e-01,
503,-8.92e-01,8.80e-01,
504,-9.70e-01,9.20e-01,
505,-8.92e-01,8.60e-01,
506,-9.51e-01,9.20e-01,
507,-8.73e-01,8.60e-01,
508,-9.51e-01,9.20e-01,
509,-8.73e-01,8.40e-01,
510,-9.31e-01,9.00e-01,
511,-8.34e-01,8.20e-01,
512,-9.12e-01,8.20e-01,
513,-8.34e-01,9.00e-01,
514,-9.12e-01,8.80e-01,
515,-8.34e-01,8.00e-01,
516,-8.92e-01,7.80e-01,
517,-8.15e-01,9.00e-01,
518,-8.92e-01,8.60e-01,
519,-8.15e-01,7.80e-01,
520,-8.54e-01,8.60e-01,
521,-8.15e-01,7.40e-01,
522,-8.54e-01,7.40e-01,
523,-7.95e-01,8.40e-01,
524,-8.34e-01,8.40e-01,
525,-7.76e-01,7.20e-01,
526,-8.34e-01,7.20e-01,
527,-7.57e-01,8.20e-01,
528,-8.15e-01,7.80e-01,
529,-7.37e-01,7.20e-01,
530,-7.37e-01,7.20e-01,
531,-8.15e-01,7.80e-01,
532,-7.76e-01,7.60e-01,
533,-6.98e-01,6.60e-01,
534,-7.57e-01,6.60e-01,
535,-6.98e-01,7.60e-01,
536,-7.57e-01,7.00e-01,
537,-6.79e-01,6.40e-01,
538,-7.18e-01,7.00e-01,
539,-6.60e-01,6.20e-01,
540,-6.60e-01,7.00e-01,
541,-7.18e-01,6.00e-01,
542,-6.98e-01,6.80e-01,
543,-6.21e-01,5.80e-01,
544,-6.79e-01,6.80e-01,
545,-6.01e-01,5.60e-01,
546,-6.01e-01,6.40e-01,
547,-6.79e-01,5.40e-01,
548,-6.40e-01,6.20e-01,
549,-5.63e-01,5.40e-01,
550,-6.21e-01,6.00e-01,
551,-5.43e-01,5.00e-01,
552,-5.82e-01,5.80e-01,
553,-5.24e-01,4.80e-01,
554,-5.82e-01,5.60e-01,
555,-5.24e-01,4.80e-01,
556,-5.63e-01,5.40e-01,
557,-4.85e-01,4.40e-01,
558,-5.43e-01,5.40e-01,
559,-4.66e-01,4.20e-01,
560,-5.04e-01,5.00e-01,
561,-4.46e-01,3.80e-01,
562,-4.85e-01,4.60e-01,
563,-4.07e-01,3.60e-01,
564,-4.66e-01,4.60e-01,
565,-4.07e-01,3.60e-01,
566,-4.46e-01,4.40e-01,
567,-3.88e-01,3.40e-01,
568,-4.27e-01,4.00e-01,
569,-3.49e-01,3.00e-01,
570,-3.88e-01,4.00e-01,
571,-3.30e-01,2.80e-01,
572,-3.69e-01,3.80e-01,
573,-2.91e-01,2.60e-01,
574,-3.49e-01,3.60e-01,
575,-2.91e-01,2.40e-01,
576,-3.30e-01,3.00e-01,
577,-2.72e-01,2.20e-01,
578,-3.10e-01,3.00e-01,
579,-2.33e-01,2.00e-01,
580,-2.91e-01,2.60e-01,
581,-2.13e-01,1.80e-01,
582,-2.52e-01,2.60e-01,
583,-1.94e-01,1.60e-01,
584,-2.33e-01,2.40e-01,
585,-1.55e-01,1.20e-01,
586,-2.13e-01,1.80e-01,
587,-1.36e-01,1.00e-01,
588,-1.75e-01,1.80e-01,
589,-9.70e-02,6.00e-02,
590,-1.55e-01,1.40e-01,
591,-9.70e-02,6.00e-02,
592,-1.16e-01,1.40e-01,
593,-7.76e-02,2.00e-02,
594,-1.16e-01,1.00e-01,
595,-5.82e-02,2.00e-02,
596,-9.70e-02,8.00e-02,
597,-1.94e-02,-2.00e-02,
598,-7.76e-02,4.00e-02,
599,0.00e+00,-4.00e-02,
600,-3.88e-02,4.00e-02,
601,3.88e-02,-6.00e-02,
602,-1.94e-02,0.00e+00,
603,5.82e-02,-8.00e-02,
604,1.94e-02,-2.00e-02,
605,7.76e-02,-1.00e-01,
606,3.88e-02,-6.00e-02,
607,1.16e-01,-1.60e-01,
608,5.82e-02,-8.00e-02,
609,1.36e-01,-1.60e-01,
610,7.76e-02,-1.80e-01,
611,1.36e-01,-1.20e-01,
612,9.70e-02,-1.20e-01,
613,1.75e-01,-2.00e-01,
614,1.16e-01,-1.40e-01,
615,1.94e-01,-2.40e-01,
616,1.55e-01,-1.60e-01,
617,2.33e-01,-2.60e-01,
618,1.75e-01,-2.00e-01,
619,2.52e-01,-2.80e-01,
620,2.13e-01,-2.20e-01,
621,2.72e-01,-3.00e-01,
622,2.33e-01,-2.20e-01,
623,3.10e-01,-3.40e-01,
624,2.33e-01,-2.40e-01,
625,3.30e-01,-3.40e-01,
626,3.30e-01,-2.80e-01,
627,2.91e-01,-3.80e-01,
628,2.91e-01,-3.20e-01,
629,3.69e-01,-4.00e-01,
630,3.10e-01,-4.20e-01,
631,3.88e-01,-3.40e-01,
632,3.49e-01,-3.60e-01,
633,4.07e-01,-4.40e-01,
634,3.69e-01,-3.80e-01,
635,4.27e-01,-4.80e-01,
636,3.88e-01,-3.80e-01,
637,4.46e-01,-4.80e-01,
638,4.27e-01,-4.20e-01,
639,4.66e-01,-5.00e-01,
640,4.27e-01,-5.40e-01,
641,5.04e-01,-4.20e-01,
642,4.46e-01,-4.60e-01,
643,5.24e-01,-5.40e-01,
644,4.85e-01,-5.00e-01,
645,5.24e-01,-5.60e-01,
646,5.04e-01,-5.20e-01,
647,5.43e-01,-6.00e-01,
648,5.04e-01,-5.40e-01,
649,5.82e-01,-6.20e-01,
650,5.24e-01,-5.40e-01,
651,5.82e-01,-6.20e-01,
652,5.63e-01,-5.80e-01,
653,6.01e-01,-6.40e-01,
654,5.63e-01,-6.00e-01,
655,6.40e-01,-6.80e-01,
656,5.82e-01,-6.80e-01,
657,6.60e-01,-6.00e-01,
658,6.21e-01,-6.20e-01,
659,6.79e-01,-7.00e-01,
660,6.40e-01,-6.60e-01,
661,6.79e-01,-7.20e-01,
662,6.40e-01,-6.60e-01,
663,7.18e-01,-7.40e-01,
664,6.60e-01,-6.80e-01,
665,7.18e-01,-7.60e-01,
666,7.37e-01,-7.00e-01,
667,6.79e-01,-7.80e-01,
668,6.98e-01,-7.80e-01,
669,7.37e-01,-7.20e-01,
670,7.18e-01,-7.40e-01,
671,7.76e-01,-8.00e-01,
672,7.18e-01,-8.00e-01,
673,7.76e-01,-7.40e-01,
674,7.95e-01,-7.60e-01,
675,7.18e-01,-8.40e-01,
676,7.57e-01,-7.60e-01,
677,8.15e-01,-8.60e-01,
678,7.76e-01,-8.00e-01,
679,8.15e-01,-8.60e-01,
680,8.15e-01,-8.60e-01,
681,7.76e-01,-8.20e-01,
682,7.95e-01,-8.20e-01,
683,8.54e-01,-9.00e-01,
684,8.54e-01,-9.00e-01,
685,7.95e-01,-8.20e-01,
686,8.15e-01,-8.40e-01,
687,8.73e-01,-9.20e-01,
688,8.34e-01,-9.20e-01,
689,8.73e-01,-8.80e-01,
690,8.34e-01,-8.80e-01,
691,8.92e-01,-9.40e-01,
692,8.54e-01,-8.80e-01,
693,9.12e-01,-9.40e-01,
694,9.12e-01,-9.40e-01,
695,8.54e-01,-9.00e-01,
696,8.73e-01,-9.00e-01,
697,9.31e-01,-9.60e-01,
698,8.92e-01,-9.00e-01,
699,9.31e-01,-9.80e-01,
700,9.31e-01,-9.80e-01,
701,8.92e-01,-9.00e-01,
702,9.31e-01,-9.20e-01,
703,8.92e-01,-9.80e-01,
704,8.92e-01,-9.20e-01,
705,9.51e-01,-1.00e+00,
706,9.12e-01,-9.20e-01,
707,9.70e-01,-1.00e+00,
708,9.12e-01,-1.00e+00,
709,9.70e-01,-9.40e-01,
710,9.12e-01,-1.00e+00,
711,9.70e-01,-9.40e-01,
712,9.70e-01,-1.00e+00,
713,9.12e-01,-9.40e-01,
714,9.12e-01,-9.60e-01,
715,9.89e-01,-1.02e+00,
716,9.89e-01,-9.60e-01,
717,9.31e-01,-1.02e+00,
718,9.51e-01,-9.60e-01,
719,9.89e-01,-1.02e+00,
720,9.89e-01,-1.02e+00,
721,9.31e-01,-9.40e-01,
722,9.89e-01,-9.60e-01,
723,9.31e-01,-1.02e+00,
724,9.31e-01,-1.02e+00,
725,9.89e-01,-9.20e-01,
726,9.89e-01,-9.60e-01,
727,9.12e-01,-1.02e+00,
728,9.89e-01,-1.02e+00,
729,9.12e-01,-9.60e-01,
730,9.89e-01,-9.60e-01,
731,9.12e-01,-1.02e+00,
732,9.89e-01,-1.02e+00,
733,9.12e-01,-9.60e-01,
734,9.70e-01,-9.60e-01,
735,9.12e-01,-1.02e+00,
736,9.12e-01,-1.00e+00,
737,9.89e-01,-9.40e-01,
738,9.12e-01,-1.00e+00,
739,9.89e-01,-9.20e-01,
740,9.51e-01,-9.40e-01,
741,9.12e-01,-1.02e+00,
742,9.70e-01,-1.00e+00,
743,9.12e-01,-9.20e-01,
744,9.51e-01,-1.00e+00,
745,9.12e-01,-9.20e-01,
746,9.31e-01,-9.80e-01,
747,8.92e-01,-9.20e-01,
748,9.31e-01,-9.20e-01,
749,8.92e-01,-9.80e-01,
750,8.92e-01,-9.80e-01,
751,9.31e-01,-9.00e-01,
752,9.31e-01,-9.00e-01,
753,8.92e-01,-9.80e-01,
754,9.12e-01,-9.40e-01,
755,8.54e-01,-9.00e-01,
756,8.54e-01,-9.40e-01,
757,9.12e-01,-8.80e-01,
758,8.54e-01,-8.80e-01,
759,9.12e-01,-9.40e-01,
760,8.73e-01,-9.20e-01,
761,8.34e-01,-8.60e-01,
762,8.73e-01,-9.20e-01,
763,8.34e-01,-8.40e-01,
764,8.54e-01,-8.40e-01,
765,8.15e-01,-9.00e-01,
766,7.95e-01,-9.00e-01,
767,8.54e-01,-8.20e-01,
768,8.34e-01,-8.20e-01,
769,7.76e-01,-8.60e-01,
770,8.15e-01,-8.60e-01,
771,7.76e-01,-8.00e-01,
772,8.15e-01,-8.00e-01,
773,7.57e-01,-8.60e-01,
774,7.95e-01,-8.40e-01,
775,7.57e-01,-7.60e-01,
776,7.76e-01,-7.60e-01,
777,7.18e-01,-8.40e-01,
778,7.76e-01,-8.00e-01,
779,7.18e-01,-7.40e-01,
780,7.57e-01,-7.40e-01,
781,6.98e-01,-7.80e-01,
782,6.98e-01,-7.80e-01,
783,7.37e-01,-7.00e-01,
784,7.18e-01,-7.60e-01,
785,6.60e-01,-6.80e-01,
786,7.18e-01,-6.80e-01,
787,6.40e-01,-7.40e-01,
788,6.79e-01,-7.20e-01,
789,6.40e-01,-6.60e-01,
790,6.60e-01,-7.00e-01,
791,6.21e-01,-6.20e-01,
792,6.60e-01,-6.20e-01,
793,5.82e-01,-7.00e-01,
794,6.40e-01,-6.80e-01,
795,5.82e-01,-6.00e-01,
796,6.40e-01,-6.40e-01,
797,5.63e-01,-5.80e-01,
798,6.01e-01,-5.80e-01,
799,5.24e-01,-6.20e-01,
800,5.82e-01,-6.20e-01,
801,5.24e-01,-5.40e-01,
802,5.43e-01,-6.00e-01,
803,5.04e-01,-5.20e-01,
804,5.43e-01,-5.60e-01,
805,4.85e-01,-5.00e-01,
806,5.24e-01,-5.40e-01,
807,4.46e-01,-5.00e-01,
808,4.46e-01,-5.40e-01,
809,5.04e-01,-4.60e-01,
810,4.66e-01,-5.20e-01,
811,4.27e-01,-4.40e-01,
812,4.46e-01,-4.80e-01,
813,3.88e-01,-4.00e-01,
814,4.46e-01,-4.60e-01,
815,3.69e-01,-3.80e-01,
816,4.07e-01,-4.20e-01,
817,3.49e-01,-3.60e-01,
818,3.88e-01,-4.20e-01,
819,3.10e-01,-3.60e-01,
820,3.69e-01,-4.00e-01,
821,3.10e-01,-3.20e-01,
822,3.30e-01,-3.80e-01,
823,2.91e-01,-3.00e-01,
824,3.30e-01,-3.40e-01,
825,2.52e-01,-2.80e-01,
826,3.10e-01,-3.20e-01,
827,2.33e-01,-2.40e-01,
828,2.72e-01,-2.40e-01,
829,2.13e-01,-3.00e-01,
830,2.13e-01,-2.60e-01,
831,2.52e-01,-2.20e-01,
832,2.13e-01,-2.60e-01,
833,1.75e-01,-2.00e-01,
834,1.94e-01,-2.40e-01,
835,1.55e-01,-1.60e-01,
836,1.75e-01,-2.00e-01,
837,1.16e-01,-1.40e-01,
838,1.55e-01,-1.80e-01,
839,9.70e-02,-1.20e-01,
840,1.36e-01,-1.60e-01,
841,5.82e-02,-8.00e-02,
842,1.16e-01,-1.40e-01,
843,3.88e-02,-6.00e-02,
844,7.76e-02,-1.00e-01,
845,1.94e-02,-4.00e-02,
846,5.82e-02,-8.00e-02,
847,-1.94e-02,0.00e+00,
848,3.88e-02,-4.00e-02,
849,-3.88e-02,0.00e+00,
850,0.00e+00,2.00e-02,
851,-5.82e-02,-2.00e-02,
852,-1.94e-02,-2.00e-02,
853,-9.70e-02,6.00e-02,
854,-5.82e-02,0.00e+00,
855,-9.70e-02,8.00e-02,
856,-7.76e-02,4.00e-02,
857,-1.16e-01,1.00e-01,
858,-9.70e-02,6.00e-02,
859,-1.55e-01,1.40e-01,
860,-1.16e-01,8.00e-02,
861,-1.75e-01,1.60e-01,
862,-1.36e-01,1.20e-01,
863,-2.13e-01,1.80e-01,
864,-1.55e-01,1.40e-01,
865,-2.33e-01,2.00e-01,
866,-1.94e-01,2.20e-01,
867,-2.52e-01,1.60e-01,
868,-2.13e-01,2.40e-01,
869,-2.91e-01,2.00e-01,
870,-2.33e-01,2.00e-01,
871,-3.10e-01,2.60e-01,
872,-3.10e-01,2.20e-01,
873,-2.72e-01,3.00e-01,
874,-2.91e-01,2.60e-01,
875,-3.49e-01,3.20e-01,
876,-2.91e-01,2.60e-01,
877,-3.69e-01,3.60e-01,
878,-3.30e-01,2.80e-01,
879,-3.88e-01,3.80e-01,
880,-3.49e-01,4.00e-01,
881,-4.27e-01,3.00e-01,
882,-3.69e-01,4.40e-01,
883,-4.46e-01,3.40e-01,
884,-4.07e-01,3.60e-01,
885,-4.66e-01,4.60e-01,
886,-4.27e-01,3.80e-01,
887,-4.85e-01,4.80e-01,
888,-4.27e-01,4.00e-01,
889,-5.04e-01,5.00e-01,
890,-4.66e-01,5.00e-01,
891,-5.43e-01,4.20e-01,
892,-4.85e-01,4.60e-01,
893,-5.63e-01,5.40e-01,
894,-5.63e-01,4.60e-01,
895,-4.85e-01,5.60e-01,
896,-5.24e-01,5.00e-01,
897,-5.82e-01,6.00e-01,
898,-5.43e-01,5.00e-01,
899,-6.21e-01,6.00e-01,
900,-6.40e-01,6.20e-01,
901,-5.43e-01,5.00e-01,
902,-5.82e-01,5.40e-01,
903,-6.60e-01,6.40e-01,
904,-6.01e-01,5.60e-01,
905,-6.98e-01,6.80e-01,
906,-6.01e-01,6.80e-01,
907,-6.98e-01,5.80e-01,
908,-6.98e-01,5.80e-01,
909,-6.21e-01,7.00e-01,
910,-6.21e-01,6.20e-01,
911,-7.57e-01,7.20e-01,
912,-6.79e-01,6.40e-01,
913,-7.57e-01,7.20e-01,
914,-6.79e-01,7.40e-01,
915,-7.57e-01,6.40e-01,
916,-6.98e-01,6.60e-01,
917,-7.76e-01,7.80e-01,
918,-7.37e-01,6.60e-01,
919,-7.95e-01,7.80e-01,
920,-7.37e-01,6.80e-01,
921,-8.15e-01,8.00e-01,
922,-7.57e-01,8.20e-01,
923,-8.34e-01,7.20e-01,
924,-8.34e-01,7.20e-01,
925,-7.57e-01,8.40e-01,
926,-7.95e-01,8.20e-01,
927,-8.54e-01,7.20e-01,
928,-8.54e-01,8.60e-01,
929,-7.95e-01,7.60e-01,
930,-7.95e-01,8.60e-01,
931,-8.92e-01,7.60e-01,
932,-8.92e-01,8.00e-01,
933,-8.15e-01,8.80e-01,
934,-8.34e-01,9.00e-01,
935,-9.12e-01,8.00e-01,
936,-8.34e-01,8.60e-01,
937,-9.12e-01,8.00e-01,
938,-8.54e-01,8.20e-01,
939,-9.31e-01,9.00e-01,
940,-8.73e-01,8.00e-01,
941,-9.51e-01,9.40e-01,
942,-9.51e-01,8.40e-01,
943,-8.92e-01,9.40e-01,
944,-8.92e-01,9.40e-01,
945,-9.70e-01,8.20e-01,
946,-9.70e-01,8.60e-01,
947,-8.92e-01,9.40e-01,
948,-9.70e-01,9.60e-01,
949,-9.12e-01,8.40e-01,
950,-9.70e-01,8.60e-01,
951,-9.31e-01,9.60e-01,
952,-9.31e-01,8.60e-01,
953,-9.89e-01,9.80e-01,
954,-9.89e-01,8.80e-01,
955,-9.31e-01,9.80e-01,
956,-9.89e-01,8.80e-01,
957,-9.70e-01,1.00e+00,
958,-9.89e-01,8.80e-01,
959,-9.51e-01,1.00e+00,
960,-9.89e-01,9.20e-01,
961,-9.51e-01,1.00e+00,
962,-9.51e-01,1.00e+00,
963,-1.03e+00,9.00e-01,
964,-1.03e+00,1.02e+00,
965,-9.51e-01,8.80e-01,
966,-9.51e-01,9.00e-01,
967,-1.03e+00,9.80e-01,
968,-1.03e+00,9.00e-01,
969,-9.51e-01,1.02e+00,
970,-1.03e+00,9.40e-01,
971,-9.51e-01,1.02e+00,
972,-1.03e+00,9.20e-01,
973,-9.51e-01,1.02e+00,
974,-1.03e+00,9.20e-01,
975,-9.51e-01,1.02e+00,
976,-1.03e+00,9.40e-01,
977,-9.51e-01,1.02e+00,
978,-9.51e-01,9.00e-01,
979,-1.03e+00,1.02e+00,
980,-1.03e+00,1.04e+00,
981,-9.51e-01,9.00e-01,
982,-1.03e+00,9.00e-01,
983,-9.51e-01,1.02e+00,
984,-1.03e+00,1.00e+00,
985,-9.31e-01,9.20e-01,
986,-1.03e+00,8.80e-01,
987,-9.31e-01,1.02e+00,
988,-9.31e-01,1.00e+00,
989,-1.01e+00,8.80e-01,
990,-1.01e+00,8.80e-01,
991,-9.31e-01,1.00e+00,
992,-9.89e-01,8.80e-01,
993,-9.31e-01,1.00e+00,
994,-9.89e-01,8.80e-01,
995,-9.31e-01,1.00e+00,
996,-9.89e-01,8.80e-01,
997,-9.31e-01,9.80e-01,
998,-9.70e-01,8.60e-01,
999,-9.31e-01,9.80e-01,
1000,-9.70e-01,9.60e-01,
1001,-9.31e-01,8.60e-01,
1002,-9.70e-01,8.60e-01,
1003,-8.92e-01,9.80e-01,
1004,-8.92e-01,9.20e-01,
1005,-9.70e-01,8.20e-01,
1006,-9.51e-01,8.60e-01,
1007,-8.73e-01,9.40e-01,
1008,-9.51e-01,9.40e-01,
1009,-8.73e-01,8.20e-01,
1010,-8.73e-01,8.40e-01,
1011,-9.12e-01,9.20e-01,
1012,-9.12e-01,8.20e-01,
1013,-8.34e-01,9.20e-01,
1014,-9.12e-01,8.00e-01,
1015,-8.34e-01,8.80e-01,
1016,-9.12e-01,9.00e-01,
1017,-8.15e-01,7.60e-01,
1018,-8.92e-01,7.80e-01,
1019,-8.15e-01,8.60e-01,
1020,-8.54e-01,8.60e-01,
1021,-7.95e-01,7.40e-01,
1022,-8.54e-01,8.40e-01,
1023,-7.95e-01,7.40e-01,
1024,-8.34e-01,8.40e-01,
1025,-7.57e-01,7.20e-01,
1026,-7.57e-01,8.20e-01,
1027,-8.34e-01,7.20e-01,
1028,-8.15e-01,7.80e-01,
1029,-7.37e-01,7.00e-01,
1030,-7.37e-01,6.80e-01,
1031,-7.76e-01,7.80e-01,
1032,-7.76e-01,7.60e-01,
1033,-6.98e-01,6.60e-01,
1034,-7.57e-01,7.60e-01,
1035,-6.98e-01,6.60e-01,
1036,-7.57e-01,7.40e-01,
1037,-6.79e-01,6.40e-01,
1038,-7.18e-01,7.20e-01,
1039,-6.60e-01,6.00e-01,
1040,-7.18e-01,7.00e-01,
1041,-6.21e-01,6.00e-01,
1042,-6.98e-01,6.80e-01,
1043,-6.21e-01,5.80e-01,
1044,-6.79e-01,6.40e-01,
1045,-6.01e-01,5.60e-01,
1046,-6.60e-01,6.40e-01,
1047,-5.63e-01,5.40e-01,
1048,-6.40e-01,6.20e-01,
1049,-5.63e-01,5.20e-01,
1050,-6.21e-01,6.00e-01,
1051,-5.43e-01,5.00e-01,
1052,-5.82e-01,6.00e-01,
1053,-5.24e-01,4.80e-01,
1054,-5.82e-01,4.60e-01,
1055,-5.04e-01,5.60e-01,
1056,-5.63e-01,5.40e-01,
1057,-4.66e-01,4.40e-01,
1058,-5.24e-01,5.20e-01,
1059,-4.66e-01,4.20e-01,
1060,-5.04e-01,5.00e-01,
1061,-4.27e-01,3.80e-01,
1062,-4.27e-01,4.80e-01,
1063,-4.85e-01,3.80e-01,
1064,-4.07e-01,4.60e-01,
1065,-4.85e-01,3.60e-01,
1066,-4.46e-01,3.40e-01,
1067,-3.49e-01,4.40e-01,
1068,-4.27e-01,4.00e-01,
1069,-3.49e-01,3.00e-01,
1070,-3.88e-01,3.80e-01,
1071,-3.30e-01,2.80e-01,
1072,-3.69e-01,3.80e-01,
1073,-2.91e-01,2.60e-01,
1074,-3.88e-01,3.60e-01,
1075,-2.72e-01,2.60e-01,
1076,-2.52e-01,3.20e-01,
1077,-3.30e-01,2.20e-01,
1078,-3.10e-01,3.00e-01,
1079,-2.33e-01,2.00e-01,
1080,-2.91e-01,2.60e-01,
1081,-2.13e-01,1.60e-01,
1082,-2.52e-01,2.40e-01,
1083,-1.94e-01,1.40e-01,
1084,-2.33e-01,2.40e-01,
1085,-1.55e-01,1.40e-01,
1086,-2.13e-01,2.20e-01,
1087,-1.36e-01,1.20e-01,
1088,-1.75e-01,1.60e-01,
1089,-9.70e-02,8.00e-02,
1090,-1.75e-01,1.60e-01,
1091,-7.76e-02,4.00e-02,
1092,-1.55e-01,4.00e-02,
1093,-5.82e-02,1.40e-01,
1094,-1.16e-01,1.00e-01,
1095,-1.94e-02,0.00e+00,
1096,-9.70e-02,8.00e-02,
1097,0.00e+00,-2.00e-02,
1098,-5.82e-02,6.00e-02,
1099,0.00e+00,-4.00e-02,
1100,-3.88e-02,2.00e-02,
1101,3.88e-02,-4.00e-02,
1102,-1.94e-02,0.00e+00,
1103,5.82e-02,-1.00e-01,
1104,-1.94e-02,0.00e+00,
1105,1.16e-01,-1.20e-01,
1106,1.94e-02,-2.00e-02,
1107,1.16e-01,-1.60e-01,
1108,5.82e-02,-6.00e-02,
1109,1.36e-01,-1.60e-01,
1110,9.70e-02,-1.00e-01,
1111,1.36e-01,-1.80e-01,
1112,9.70e-02,-1.20e-01,
1113,1.75e-01,-2.00e-01,
1114,1.16e-01,-1.40e-01,
1115,1.94e-01,-2.40e-01,
1116,1.55e-01,-1.60e-01,
1117,2.13e-01,-2.60e-01,
1118,1.75e-01,-1.80e-01,
1119,2.52e-01,-2.80e-01,
1120,2.13e-01,-2.20e-01,
1121,2.72e-01,-3.20e-01,
1122,2.33e-01,-3.20e-01,
1123,3.10e-01,-2.40e-01,
1124,2.52e-01,-2.80e-01,
1125,3.30e-01,-3.40e-01,
1126,2.91e-01,-2.80e-01,
1127,3.49e-01,-3.80e-01,
1128,2.91e-01,-3.00e-01,
1129,3.69e-01,-4.00e-01,
1130,3.10e-01,-4.20e-01,
1131,3.88e-01,-3.20e-01,
1132,3.49e-01,-3.60e-01,
1133,4.07e-01,-4.60e-01,
1134,3.69e-01,-3.80e-01,
1135,4.46e-01,-4.60e-01,
1136,3.69e-01,-4.80e-01,
1137,4.66e-01,-4.00e-01,
1138,4.07e-01,-4.20e-01,
1139,4.85e-01,-5.00e-01,
1140,4.27e-01,-4.40e-01,
1141,5.04e-01,-5.40e-01,
1142,4.27e-01,-4.60e-01,
1143,5.24e-01,-5.60e-01,
1144,4.46e-01,-4.80e-01,
1145,5.43e-01,-5.80e-01,
1146,4.85e-01,-5.20e-01,
1147,5.82e-01,-6.00e-01,
1148,5.04e-01,-5.20e-01,
1149,5.82e-01,-6.20e-01,
1150,6.01e-01,-6.20e-01,
1151,5.24e-01,-5.40e-01,
1152,5.43e-01,-5.40e-01,
1153,6.40e-01,-6.80e-01,
1154,5.63e-01,-6.00e-01,
1155,6.60e-01,-6.80e-01,
1156,5.82e-01,-6.80e-01,
1157,6.60e-01,-6.00e-01,
1158,6.21e-01,-6.20e-01,
1159,6.79e-01,-7.00e-01,
1160,6.40e-01,-6.60e-01,
1161,6.79e-01,-7.20e-01,
1162,6.40e-01,-7.20e-01,
1163,7.18e-01,-6.80e-01,
1164,7.18e-01,-6.80e-01,
1165,6.60e-01,-7.60e-01,
1166,6.98e-01,-7.00e-01,
1167,7.37e-01,-7.80e-01,
1168,7.37e-01,-7.80e-01,
1169,6.98e-01,-7.20e-01,
1170,7.18e-01,-7.40e-01,
1171,7.76e-01,-8.00e-01,
1172,7.18e-01,-8.00e-01,
1173,7.95e-01,-7.40e-01,
1174,7.57e-01,-7.60e-01,
1175,7.95e-01,-8.40e-01,
1176,7.57e-01,-8.40e-01,
1177,8.15e-01,-8.00e-01,
1178,7.76e-01,-8.00e-01,
1179,8.54e-01,-8.60e-01,
1180,8.34e-01,-8.00e-01,
1181,7.76e-01,-8.80e-01,
1182,7.76e-01,-8.20e-01,
1183,8.73e-01,-9.00e-01,
1184,7.95e-01,-9.00e-01,
1185,8.73e-01,-8.20e-01,
1186,8.73e-01,-8.20e-01,
1187,8.15e-01,-9.20e-01,
1188,8.15e-01,-9.20e-01,
1189,9.12e-01,-8.40e-01,
1190,8.34e-01,-8.40e-01,
1191,9.12e-01,-9.40e-01,
1192,9.31e-01,-8.80e-01,
1193,8.34e-01,-9.60e-01,
1194,8.34e-01,-8.80e-01,
1195,9.31e-01,-9.60e-01,
1196,9.31e-01,-8.80e-01,
1197,8.54e-01,-9.80e-01,
1198,9.31e-01,-9.80e-01,
1199,8.73e-01,-8.80e-01,
