X,CH1,CH2,Start,Increment,
Sequence,Volt,Volt,-6.000000e-05,1.000000e-07
0,5.63e-01,-6.00e-01,
1,5.24e-01,-5.40e-01,
2,5.43e-01,-5.40e-01,
3,5.04e-01,-6.00e-01,
4,5.43e-01,-5.60e-01,
5,5.04e-01,-5.20e-01,
6,5.04e-01,-5.60e-01,
7,5.24e-01,-5.20e-01,
8,5.24e-01,-5.60e-01,
9,4.85e-01,-5.00e-01,
10,4.85e-01,-5.40e-01,
11,5.24e-01,-5.00e-01,
12,5.04e-01,-5.00e-01,
13,4.66e-01,-5.40e-01,
14,4.46e-01,-5.00e-01,
15,5.04e-01,-5.20e-01,
16,4.66e-01,-5.20e-01,
17,4.46e-01,-4.60e-01,
18,4.66e-01,-4.60e-01,
19,4.27e-01,-5.00e-01,
20,4.27e-01,-4.80e-01,
21,4.66e-01,-4.40e-01,
22,4.46e-01,-4.80e-01,
23,4.07e-01,-4.40e-01,
24,3.88e-01,-4.60e-01,
25,4.46e-01,-4.20e-01,
26,4.07e-01,-4.60e-01,
27,3.88e-01,-4.20e-01,
28,4.07e-01,-4.60e-01,
29,3.69e-01,-4.00e-01,
30,4.07e-01,-4.20e-01,
31,3.69e-01,-3.80e-01,
32,3.88e-01,-4.20e-01,
33,3.49e-01,-3.80e-01,
34,3.88e-01,-4.00e-01,
35,3.49e-01,-3.80e-01,
36,3.49e-01,-4.00e-01,
37,3.69e-01,-3.60e-01,
38,3.10e-01,-3.60e-01,
39,3.69e-01,-4.00e-01,
40,3.49e-01,-3.80e-01,
41,3.10e-01,-3.40e-01,
42,3.30e-01,-3.80e-01,
43,2.91e-01,-3.20e-01,
44,2.91e-01,-3.40e-01,
45,3.30e-01,-3.00e-01,
46,3.10e-01,-3.40e-01,
47,2.52e-01,-3.00e-01,
48,3.10e-01,-3.20e-01,
49,2.52e-01,-2.80e-01,
50,2.72e-01,-3.20e-01,
51,2.33e-01,-2.80e-01,
52,2.72e-01,-2.60e-01,
53,2.33e-01,-3.20e-01,
54,2.72e-01,-3.00e-01,
55,2.33e-01,-2.40e-01,
56,2.52e-01,-2.40e-01,
57,2.13e-01,-3.00e-01,
58,2.13e-01,-2.60e-01,
59,2.52e-01,-2.20e-01,
60,2.33e-01,-2.60e-01,
61,1.75e-01,-2.20e-01,
62,2.13e-01,-2.40e-01,
63,1.75e-01,-2.00e-01,
64,1.94e-01,-2.40e-01,
65,1.55e-01,-2.00e-01,
66,1.94e-01,-2.20e-01,
67,1.55e-01,-1.80e-01,
68,1.75e-01,-1.60e-01,
69,1.36e-01,-2.20e-01,
70,1.75e-01,-1.60e-01,
71,1.16e-01,-1.80e-01,
72,1.75e-01,-1.80e-01,
73,9.70e-02,-1.40e-01,
74,1.36e-01,-1.40e-01,
75,9.70e-02,-1.80e-01,
76,9.70e-02,-1.60e-01,
77,1.36e-01,-1.20e-01,
78,1.16e-01,-1.20e-01,
79,7.76e-02,-1.60e-01,
80,7.76e-02,-1.20e-01,
81,1.16e-01,-8.00e-02,
82,7.76e-02,-8.00e-02,
83,3.88e-02,-1.20e-01,
84,7.76e-02,-1.00e-01,
85,3.88e-02,-6.00e-02,
86,5.82e-02,-1.00e-01,
87,1.94e-02,-6.00e-02,
88,5.82e-02,-8.00e-02,
89,1.94e-02,-4.00e-02,
90,1.94e-02,-8.00e-02,
91,5.82e-02,-2.00e-02,
92,3.88e-02,-4.00e-02,
93,-1.94e-02,0.00e+00,
94,-1.94e-02,-4.00e-02,
95,3.88e-02,0.00e+00,
96,0.00e+00,-4.00e-02,
97,-3.88e-02,2.00e-02,
98,0.00e+00,-2.00e-02,
99,-3.88e-02,2.00e-02,
100,-1.94e-02,2.00e-02,
101,-5.82e-02,0.00e+00,
102,-1.94e-02,0.00e+00,
103,-7.76e-02,6.00e-02,
104,-5.82e-02,2.00e-02,
105,-9.70e-02,6.00e-02,
106,-5.82e-02,4.00e-02,
107,-9.70e-02,8.00e-02,
108,-5.82e-02,4.00e-02,
109,-1.16e-01,8.00e-02,
110,-7.76e-02,6.00e-02,
111,-1.16e-01,1.00e-01,
112,-1.16e-01,6.00e-02,
113,-7.76e-02,1.00e-01,
114,-1.55e-01,6.00e-02,
115,-9.70e-02,1.40e-01,
116,-9.70e-02,8.00e-02,
117,-1.55e-01,1.40e-01,
118,-1.36e-01,1.00e-01,
119,-1.75e-01,1.40e-01,
120,-1.36e-01,1.20e-01,
121,-1.75e-01,1.60e-01,
122,-1.55e-01,1.60e-01,
123,-1.94e-01,1.20e-01,
124,-1.55e-01,1.40e-01,
125,-2.13e-01,1.80e-01,
126,-1.75e-01,1.40e-01,
127,-2.33e-01,1.80e-01,
128,-1.94e-01,1.60e-01,
129,-2.33e-01,2.20e-01,
130,-2.33e-01,2.20e-01,
131,-1.94e-01,1.60e-01,
132,-2.13e-01,2.00e-01,
133,-2.52e-01,2.40e-01,
134,-2.52e-01,2.00e-01,
135,-2.13e-01,2.40e-01,
136,-2.33e-01,2.40e-01,
137,-2.91e-01,2.20e-01,
138,-2.33e-01,2.20e-01,
139,-2.91e-01,2.60e-01,
140,-2.72e-01,2.40e-01,
141,-3.10e-01,2.80e-01,
142,-2.72e-01,2.60e-01,
143,-3.10e-01,3.00e-01,
144,-2.72e-01,2.60e-01,
145,-3.49e-01,3.00e-01,
146,-2.91e-01,2.80e-01,
147,-3.49e-01,3.20e-01,
148,-2.91e-01,3.20e-01,
149,-3.69e-01,2.80e-01,
150,-3.30e-01,3.20e-01,
151,-3.69e-01,3.00e-01,
152,-3.30e-01,3.00e-01,
153,-3.69e-01,3.60e-01,
154,-3.49e-01,3.40e-01,
155,-3.88e-01,3.60e-01,
156,-3.88e-01,3.40e-01,
157,-3.49e-01,3.80e-01,
158,-3.49e-01,3.40e-01,
159,-4.27e-01,3.80e-01,
160,-3.88e-01,3.60e-01,
161,-4.27e-01,4.00e-01,
162,-3.69e-01,3.60e-01,
163,-4.27e-01,4.00e-01,
164,-3.88e-01,3.80e-01,
165,-4.46e-01,4.00e-01,
166,-4.46e-01,3.80e-01,
167,-4.07e-01,4.40e-01,
168,-4.07e-01,4.20e-01,
169,-4.85e-01,4.40e-01,
170,-4.85e-01,4.20e-01,
171,-4.27e-01,4.40e-01,
172,-4.27e-01,4.20e-01,
173,-5.04e-01,4.60e-01,
174,-4.66e-01,4.60e-01,
175,-5.04e-01,4.40e-01,
176,-4.66e-01,4.40e-01,
177,-5.04e-01,4.80e-01,
178,-4.66e-01,4.80e-01,
179,-5.24e-01,4.60e-01,
180,-5.24e-01,4.60e-01,
181,-4.85e-01,5.20e-01,
182,-4.85e-01,4.80e-01,
183,-5.43e-01,5.20e-01,
184,-5.24e-01,5.00e-01,
185,-5.63e-01,5.40e-01,
186,-5.24e-01,5.00e-01,
187,-5.63e-01,5.40e-01,
188,-5.24e-01,5.20e-01,
189,-5.82e-01,5.40e-01,
190,-5.43e-01,5.20e-01,
191,-5.82e-01,5.60e-01,
192,-5.43e-01,5.20e-01,
193,-6.01e-01,5.60e-01,
194,-5.63e-01,5.60e-01,
195,-6.21e-01,5.20e-01,
196,-6.21e-01,5.40e-01,
197,-5.63e-01,6.00e-01,
198,-6.21e-01,5.60e-01,
199,-5.63e-01,6.00e-01,
200,-6.01e-01,6.00e-01,
201,-6.40e-01,5.80e-01,
202,-6.01e-01,5.80e-01,
203,-6.40e-01,6.20e-01,
204,-6.01e-01,6.20e-01,
205,-6.60e-01,6.00e-01,
206,-6.21e-01,6.00e-01,
207,-6.79e-01,6.20e-01,
208,-6.21e-01,6.40e-01,
209,-6.98e-01,6.00e-01,
210,-6.21e-01,6.40e-01,
211,-6.98e-01,6.60e-01,
212,-6.60e-01,6.40e-01,
213,-6.98e-01,6.60e-01,
214,-6.60e-01,6.40e-01,
215,-6.98e-01,6.80e-01,
216,-6.60e-01,6.60e-01,
217,-7.18e-01,6.80e-01,
218,-7.18e-01,6.60e-01,
219,-6.79e-01,7.00e-01,
220,-7.18e-01,7.00e-01,
221,-6.79e-01,6.60e-01,
222,-6.79e-01,6.80e-01,
223,-7.57e-01,7.00e-01,
224,-6.98e-01,7.00e-01,
225,-7.57e-01,6.80e-01,
226,-7.57e-01,6.80e-01,
227,-6.98e-01,7.40e-01,
228,-6.98e-01,7.40e-01,
229,-7.76e-01,6.80e-01,
230,-7.37e-01,7.20e-01,
231,-7.76e-01,7.40e-01,
232,-7.37e-01,7.20e-01,
233,-7.76e-01,7.60e-01,
234,-7.37e-01,7.60e-01,
235,-7.76e-01,7.20e-01,
236,-7.37e-01,7.40e-01,
237,-8.15e-01,7.60e-01,
238,-7.57e-01,7.40e-01,
239,-8.15e-01,7.80e-01,
240,-8.15e-01,7.80e-01,
241,-7.57e-01,7.40e-01,
242,-8.34e-01,7.80e-01,
243,-7.57e-01,7.60e-01,
244,-7.95e-01,7.80e-01,
245,-8.34e-01,7.60e-01,
246,-7.95e-01,7.60e-01,
247,-8.34e-01,8.20e-01,
248,-7.95e-01,8.20e-01,
249,-8.54e-01,7.60e-01,
250,-7.95e-01,8.20e-01,
251,-8.54e-01,8.00e-01,
252,-8.54e-01,8.00e-01,
253,-7.95e-01,8.40e-01,
254,-8.15e-01,8.00e-01,
255,-8.54e-01,8.40e-01,
256,-8.15e-01,8.00e-01,
257,-8.73e-01,8.40e-01,
258,-8.73e-01,8.00e-01,
259,-8.15e-01,8.60e-01,
260,-8.34e-01,8.60e-01,
261,-8.92e-01,8.20e-01,
262,-8.34e-01,8.20e-01,
263,-8.92e-01,8.60e-01,
264,-8.34e-01,8.60e-01,
265,-9.12e-01,8.20e-01,
266,-8.54e-01,8.60e-01,
267,-9.12e-01,8.40e-01,
268,-8.73e-01,8.60e-01,
269,-9.12e-01,8.40e-01,
270,-8.73e-01,8.40e-01,
271,-9.12e-01,9.00e-01,
272,-8.73e-01,9.00e-01,
273,-9.12e-01,8.40e-01,
274,-8.73e-01,8.80e-01,
275,-9.51e-01,9.00e-01,
276,-8.73e-01,9.00e-01,
277,-9.51e-01,8.60e-01,
278,-8.92e-01,8.80e-01,
279,-9.51e-01,9.00e-01,
280,-8.92e-01,8.80e-01,
281,-9.51e-01,9.00e-01,
282,-8.92e-01,8.80e-01,
283,-9.51e-01,9.20e-01,
284,-8.92e-01,9.20e-01,
285,-9.70e-01,8.80e-01,
286,-9.70e-01,9.00e-01,
287,-8.92e-01,9.20e-01,
288,-9.12e-01,9.20e-01,
289,-9.70e-01,9.00e-01,
290,-9.31e-01,9.20e-01,
291,-9.70e-01,9.00e-01,
292,-9.31e-01,9.00e-01,
293,-9.70e-01,9.40e-01,
294,-9.31e-01,9.40e-01,
295,-9.70e-01,9.00e-01,
296,-9.31e-01,9.40e-01,
297,-9.70e-01,9.00e-01,
298,-9.31e-01,9.40e-01,
299,-9.89e-01,9.40e-01,
300,-9.31e-01,9.40e-01,
301,-9.89e-01,9.40e-01,
302,-9.31e-01,9.40e-01,
303,-9.89e-01,9.40e-01,
304,-9.89e-01,9.40e-01,
305,-9.31e-01,9.40e-01,
306,-9.51e-01,9.40e-01,
307,-9.89e-01,9.60e-01,
308,-9.89e-01,9.40e-01,
309,-9.51e-01,9.80e-01,
310,-9.51e-01,9.40e-01,
311,-9.89e-01,9.80e-01,
312,-9.51e-01,9.40e-01,
313,-9.89e-01,9.80e-01,
314,-9.89e-01,9.80e-01,
315,-9.51e-01,9.60e-01,
316,-9.51e-01,9.60e-01,
317,-1.03e+00,9.80e-01,
318,-9.51e-01,9.80e-01,
319,-1.03e+00,9.60e-01,
320,-9.51e-01,9.60e-01,
321,-1.01e+00,9.80e-01,
322,-9.51e-01,9.60e-01,
323,-1.03e+00,9.80e-01,
324,-9.70e-01,9.60e-01,
325,-1.03e+00,9.80e-01,
326,-9.89e-01,9.60e-01,
327,-1.03e+00,9.80e-01,
328,-9.70e-01,9.60e-01,
329,-1.03e+00,9.80e-01,
330,-1.03e+00,9.60e-01,
331,-9.70e-01,9.80e-01,
332,-9.70e-01,9.60e-01,
333,-1.03e+00,1.00e+00,
334,-9.89e-01,9.60e-01,
335,-1.03e+00,1.00e+00,
336,-9.70e-01,9.60e-01,
337,-1.03e+00,1.00e+00,
338,-1.03e+00,1.00e+00,
339,-9.70e-01,9.60e-01,
340,-1.03e+00,1.00e+00,
341,-9.70e-01,9.60e-01,
342,-1.03e+00,9.60e-01,
343,-9.70e-01,1.00e+00,
344,-1.03e+00,1.00e+00,
345,-9.70e-01,9.60e-01,
346,-1.03e+00,9.60e-01,
347,-9.70e-01,1.00e+00,
348,-1.03e+00,9.60e-01,
349,-9.70e-01,1.00e+00,
350,-1.03e+00,1.00e+00,
351,-9.70e-01,9.60e-01,
352,-1.03e+00,9.60e-01,
353,-9.70e-01,1.00e+00,
354,-9.89e-01,1.00e+00,
355,-1.03e+00,9.60e-01,
356,-1.03e+00,1.00e+00,
357,-9.70e-01,9.60e-01,
358,-1.03e+00,9.60e-01,
359,-9.70e-01,1.00e+00,
360,-1.03e+00,9.60e-01,
361,-9.70e-01,1.00e+00,
362,-1.03e+00,1.00e+00,
363,-9.70e-01,9.60e-01,
364,-1.03e+00,9.60e-01,
365,-9.70e-01,9.80e-01,
366,-1.03e+00,9.60e-01,
367,-9.70e-01,9.80e-01,
368,-1.03e+00,9.80e-01,
369,-9.70e-01,9.60e-01,
370,-1.03e+00,9.80e-01,
371,-9.70e-01,9.60e-01,
372,-1.03e+00,9.60e-01,
373,-9.51e-01,9.80e-01,
374,-9.51e-01,9.80e-01,
375,-1.03e+00,9.60e-01,
376,-9.51e-01,9.60e-01,
377,-1.03e+00,9.80e-01,
378,-9.89e-01,9.60e-01,
379,-9.51e-01,9.80e-01,
380,-9.89e-01,9.80e-01,
381,-9.51e-01,9.40e-01,
382,-9.51e-01,9.80e-01,
383,-9.89e-01,9.40e-01,
384,-9.89e-01,9.40e-01,
385,-9.51e-01,9.80e-01,
386,-9.51e-01,9.40e-01,
387,-9.89e-01,9.80e-01,
388,-9.51e-01,9.40e-01,
389,-9.89e-01,9.80e-01,
390,-9.51e-01,9.40e-01,
391,-9.89e-01,9.40e-01,
392,-9.89e-01,9.40e-01,
393,-9.31e-01,9.40e-01,
394,-9.31e-01,9.40e-01,
395,-9.89e-01,9.40e-01,
396,-9.31e-01,9.40e-01,
397,-9.89e-01,9.40e-01,
398,-9.70e-01,9.40e-01,
399,-9.31e-01,9.40e-01,
400,-9.31e-01,9.40e-01,
401,-9.70e-01,9.00e-01,
402,-9.31e-01,9.40e-01,
403,-9.70e-01,9.00e-01,
404,-9.70e-01,9.00e-01,
405,-9.12e-01,9.40e-01,
406,-9.70e-01,9.20e-01,
407,-8.92e-01,9.00e-01,
408,-9.51e-01,9.20e-01,
409,-8.92e-01,9.00e-01,
410,-9.51e-01,9.20e-01,
411,-8.92e-01,9.00e-01,
412,-8.92e-01,9.20e-01,
413,-9.51e-01,8.80e-01,
414,-8.92e-01,9.20e-01,
415,-9.51e-01,8.80e-01,
416,-9.51e-01,9.00e-01,
417,-8.92e-01,8.80e-01,
418,-8.73e-01,8.80e-01,
419,-9.51e-01,9.00e-01,
420,-9.31e-01,8.80e-01,
421,-8.73e-01,9.00e-01,
422,-8.73e-01,9.00e-01,
423,-9.12e-01,8.40e-01,
424,-8.73e-01,8.40e-01,
425,-9.12e-01,9.00e-01,
426,-9.12e-01,8.80e-01,
427,-8.54e-01,8.40e-01,
428,-8.34e-01,8.60e-01,
429,-9.12e-01,8.20e-01,
430,-8.92e-01,8.60e-01,
431,-8.34e-01,8.40e-01,
432,-8.92e-01,8.60e-01,
433,-8.34e-01,8.20e-01,
434,-8.92e-01,8.20e-01,
435,-8.15e-01,8.60e-01,
436,-8.92e-01,8.40e-01,
437,-8.15e-01,8.20e-01,
438,-8.54e-01,8.40e-01,
439,-8.15e-01,8.20e-01,
440,-8.54e-01,8.40e-01,
441,-8.15e-01,8.00e-01,
442,-8.54e-01,8.00e-01,
443,-8.15e-01,8.40e-01,
444,-7.95e-01,8.00e-01,
445,-8.54e-01,8.20e-01,
446,-8.34e-01,8.00e-01,
447,-7.95e-01,8.20e-01,
448,-7.95e-01,8.20e-01,
449,-8.34e-01,7.60e-01,
450,-8.34e-01,8.00e-01,
451,-7.76e-01,7.60e-01,
452,-8.15e-01,7.80e-01,
453,-7.57e-01,7.60e-01,
454,-7.57e-01,7.80e-01,
455,-8.15e-01,7.40e-01,
456,-8.15e-01,7.80e-01,
457,-7.37e-01,7.40e-01,
458,-7.95e-01,7.40e-01,
459,-7.37e-01,7.60e-01,
460,-7.76e-01,7.60e-01,
461,-7.37e-01,7.40e-01,
462,-7.37e-01,7.60e-01,
463,-7.76e-01,7.20e-01,
464,-7.76e-01,7.60e-01,
465,-7.18e-01,7.20e-01,
466,-7.76e-01,7.20e-01,
467,-6.98e-01,7.40e-01,
468,-7.57e-01,7.40e-01,
469,-6.98e-01,6.80e-01,
470,-7.57e-01,7.20e-01,
471,-6.79e-01,6.80e-01,
472,-7.18e-01,6.80e-01,
473,-6.79e-01,7.00e-01,
474,-7.18e-01,7.00e-01,
475,-6.79e-01,6.60e-01,
476,-7.18e-01,6.60e-01,
477,-6.60e-01,7.00e-01,
478,-6.60e-01,6.80e-01,
479,-7.18e-01,6.60e-01,
480,-6.98e-01,6.80e-01,
481,-6.60e-01,6.40e-01,
482,-6.98e-01,6.80e-01,
483,-6.40e-01,6.40e-01,
484,-6.21e-01,6.40e-01,
485,-6.79e-01,6.60e-01,
486,-6.79e-01,6.00e-01,
487,-6.21e-01,6.60e-01,
488,-6.60e-01,6.40e-01,
489,-6.01e-01,6.00e-01,
490,-6.40e-01,6.20e-01,
491,-6.01e-01,6.00e-01,
492,-6.01e-01,6.20e-01,
493,-6.40e-01,5.80e-01,
494,-6.40e-01,5.80e-01,
495,-5.82e-01,6.20e-01,
496,-5.63e-01,6.00e-01,
497,-6.21e-01,5.60e-01,
498,-5.63e-01,6.00e-01,
499,-6.21e-01,5.40e-01,
500,-6.21e-01,5.60e-01,
501,-5.43e-01,5.40e-01,
502,-5.82e-01,5.60e-01,
503,-5.43e-01,5.40e-01,
504,-5.82e-01,5.60e-01,
505,-5.24e-01,5.20e-01,
506,-5.63e-01,5.40e-01,
507,-5.24e-01,5.20e-01,
508,-5.24e-01,5.40e-01,
509,-5.63e-01,5.00e-01,
510,-5.43e-01,5.00e-01,
511,-4.85e-01,5.40e-01,
512,-4.85e-01,5.20e-01,
513,-5.43e-01,4.60e-01,
514,-4.85e-01,4.60e-01,
515,-5.24e-01,5.20e-01,
516,-5.04e-01,4.80e-01,
517,-4.66e-01,4.60e-01,
518,-5.04e-01,4.80e-01,
519,-4.66e-01,4.40e-01,
520,-4.85e-01,4.80e-01,
521,-4.46e-01,4.40e-01,
522,-4.85e-01,4.40e-01,
523,-4.27e-01,4.60e-01,
524,-4.85e-01,4.60e-01,
525,-4.27e-01,4.20e-01,
526,-4.46e-01,4.20e-01,
527,-4.07e-01,4.40e-01,
528,-4.46e-01,4.40e-01,
529,-4.07e-01,3.80e-01,
530,-4.46e-01,3.80e-01,
531,-3.88e-01,4.40e-01,
532,-4.27e-01,4.00e-01,
533,-3.69e-01,3.60e-01,
534,-4.27e-01,4.00e-01,
535,-3.69e-01,3.60e-01,
536,-3.88e-01,3.60e-01,
537,-3.49e-01,3.80e-01,
538,-3.49e-01,3.80e-01,
539,-3.88e-01,3.40e-01,
540,-3.88e-01,3.80e-01,
541,-3.30e-01,3.40e-01,
542,-3.30e-01,3.60e-01,
543,-3.69e-01,3.00e-01,
544,-3.49e-01,3.00e-01,
545,-3.10e-01,3.60e-01,
546,-3.49e-01,3.20e-01,
547,-2.91e-01,2.80e-01,
548,-3.30e-01,3.20e-01,
549,-2.72e-01,2.80e-01,
550,-3.10e-01,2.80e-01,
551,-2.72e-01,3.00e-01,
552,-3.10e-01,3.00e-01,
553,-2.72e-01,2.60e-01,
554,-2.91e-01,2.60e-01,
555,-2.52e-01,2.60e-01,
556,-2.91e-01,2.60e-01,
557,-2.33e-01,2.20e-01,
558,-2.13e-01,2.20e-01,
559,-2.72e-01,2.60e-01,
560,-2.52e-01,2.40e-01,
561,-2.13e-01,2.00e-01,
562,-2.52e-01,2.00e-01,
563,-1.94e-01,2.40e-01,
564,-2.33e-01,2.20e-01,
565,-1.94e-01,1.60e-01,
566,-1.94e-01,2.20e-01,
567,-2.33e-01,1.60e-01,
568,-1.55e-01,1.80e-01,
569,-2.13e-01,1.40e-01,
570,-1.55e-01,1.80e-01,
571,-1.94e-01,1.40e-01,
572,-1.75e-01,1.40e-01,
573,-1.36e-01,1.60e-01,
574,-1.36e-01,1.60e-01,
575,-1.75e-01,1.20e-01,
576,-1.55e-01,1.40e-01,
577,-9.70e-02,1.00e-01,
578,-1.55e-01,1.40e-01,
579,-9.70e-02,8.00e-02,
580,-1.55e-01,1.40e-01,
581,-7.76e-02,8.00e-02,
582,-1.16e-01,1.00e-01,
583,-7.76e-02,6.00e-02,
584,-1.16e-01,1.00e-01,
585,-5.82e-02,6.00e-02,
586,-9.70e-02,8.00e-02,
587,-5.82e-02,4.00e-02,
588,-9.70e-02,8.00e-02,
589,-5.82e-02,4.00e-02,
590,-7.76e-02,6.00e-02,
591,-1.94e-02,2.00e-02,
592,-1.94e-02,0.00e+00,
593,-7.76e-02,6.00e-02,
594,-3.88e-02,2.00e-02,
595,0.00e+00,0.00e+00,
596,-3.88e-02,2.00e-02,
597,0.00e+00,-2.00e-02,
598,0.00e+00,-2.00e-02,
599,-3.88e-02,2.00e-02,
600,-1.94e-02,0.00e+00,
601,3.88e-02,-4.00e-02,
602,3.88e-02,0.00e+00,
603,1.94e-02,-4.00e-02,
604,1.94e-02,-2.00e-02,
605,5.82e-02,-8.00e-02,
606,5.82e-02,-4.00e-02,
607,1.94e-02,-8.00e-02,
608,3.88e-02,-6.00e-02,
609,7.76e-02,-1.00e-01,
610,7.76e-02,-1.00e-01,
611,3.88e-02,-6.00e-02,
612,5.82e-02,-8.00e-02,
613,1.16e-01,-1.20e-01,
614,1.16e-01,-1.20e-01,
615,5.82e-02,-8.00e-02,
616,7.76e-02,-1.20e-01,
617,1.36e-01,-1.40e-01,
618,9.70e-02,-1.20e-01,
619,1.36e-01,-1.60e-01,
620,1.16e-01,-1.20e-01,
621,1.55e-01,-1.80e-01,
622,1.16e-01,-1.40e-01,
623,1.75e-01,-1.80e-01,
624,1.36e-01,-1.80e-01,
625,1.75e-01,-1.40e-01,
626,1.55e-01,-1.60e-01,
627,1.94e-01,-2.00e-01,
628,1.94e-01,-1.60e-01,
629,1.55e-01,-2.20e-01,
630,1.75e-01,-2.00e-01,
631,2.13e-01,-2.40e-01,
632,2.13e-01,-2.00e-01,
633,1.75e-01,-2.40e-01,
634,2.13e-01,-2.40e-01,
635,2.52e-01,-2.20e-01,
636,2.13e-01,-2.20e-01,
637,2.52e-01,-2.60e-01,
638,2.52e-01,-2.60e-01,
639,2.13e-01,-2.20e-01,
640,2.33e-01,-2.40e-01,
641,2.72e-01,-3.00e-01,
642,2.72e-01,-3.00e-01,
643,2.52e-01,-2.40e-01,
644,2.52e-01,-2.80e-01,
645,3.10e-01,-3.20e-01,
646,3.10e-01,-3.20e-01,
647,2.52e-01,-2.80e-01,
648,2.91e-01,-3.00e-01,
649,3.30e-01,-3.40e-01,
650,2.91e-01,-3.00e-01,
651,3.30e-01,-3.40e-01,
652,2.91e-01,-3.20e-01,
653,3.49e-01,-3.80e-01,
654,3.10e-01,-3.20e-01,
655,3.69e-01,-3.80e-01,
656,3.69e-01,-3.20e-01,
657,3.10e-01,-4.00e-01,
658,3.49e-01,-3.60e-01,
659,3.88e-01,-4.00e-01,
660,3.49e-01,-3.60e-01,
661,3.88e-01,-4.00e-01,
662,3.69e-01,-3.80e-01,
663,3.88e-01,-4.20e-01,
664,3.69e-01,-4.20e-01,
665,4.07e-01,-3.80e-01,
666,4.07e-01,-4.20e-01,
667,3.88e-01,-4.00e-01,
668,3.88e-01,-4.20e-01,
669,4.46e-01,-4.60e-01,
670,3.88e-01,-4.60e-01,
671,4.46e-01,-4.20e-01,
672,4.27e-01,-4.40e-01,
673,4.66e-01,-4.80e-01,
674,4.27e-01,-4.80e-01,
675,4.66e-01,-4.40e-01,
676,4.66e-01,-4.60e-01,
677,4.46e-01,-5.00e-01,
678,4.46e-01,-5.20e-01,
679,4.85e-01,-4.60e-01,
680,4.46e-01,-5.20e-01,
681,5.04e-01,-4.60e-01,
682,4.85e-01,-5.00e-01,
683,5.04e-01,-5.40e-01,
684,4.85e-01,-5.00e-01,
685,5.24e-01,-5.40e-01,
686,5.24e-01,-5.20e-01,
687,5.04e-01,-5.60e-01,
688,5.04e-01,-5.20e-01,
689,5.43e-01,-5.60e-01,
690,5.04e-01,-5.20e-01,
691,5.43e-01,-5.80e-01,
692,5.43e-01,-5.40e-01,
693,5.04e-01,-6.00e-01,
694,5.24e-01,-5.40e-01,
695,5.82e-01,-6.00e-01,
696,5.43e-01,-6.00e-01,
697,5.82e-01,-5.60e-01,
698,5.63e-01,-5.80e-01,
699,6.01e-01,-6.20e-01,
700,5.63e-01,-5.80e-01,
701,6.01e-01,-6.40e-01,
702,5.63e-01,-5.80e-01,
703,6.01e-01,-6.40e-01,
704,5.82e-01,-6.00e-01,
705,6.21e-01,-6.40e-01,
706,5.82e-01,-6.40e-01,
707,6.40e-01,-6.00e-01,
708,6.40e-01,-6.20e-01,
709,6.21e-01,-6.80e-01,
710,6.21e-01,-6.20e-01,
711,6.60e-01,-6.80e-01,
712,6.21e-01,-6.80e-01,
713,6.60e-01,-6.20e-01,
714,6.60e-01,-6.60e-01,
715,6.21e-01,-7.00e-01,
716,6.40e-01,-6.60e-01,
717,6.79e-01,-7.00e-01,
718,6.40e-01,-7.00e-01,
719,6.79e-01,-6.60e-01,
720,6.79e-01,-7.20e-01,
721,6.60e-01,-6.60e-01,
722,6.79e-01,-6.80e-01,
723,6.60e-01,-7.20e-01,
724,6.79e-01,-6.80e-01,
725,7.18e-01,-7.60e-01,
726,7.18e-01,-7.00e-01,
727,6.79e-01,-7.60e-01,
728,6.98e-01,-7.00e-01,
729,7.37e-01,-7.60e-01,
730,6.98e-01,-7.20e-01,
731,7.37e-01,-7.60e-01,
732,7.37e-01,-7.80e-01,
733,6.98e-01,-7.20e-01,
734,7.37e-01,-7.40e-01,
735,7.18e-01,-7.80e-01,
736,7.18e-01,-7.40e-01,
737,7.76e-01,-8.00e-01,
738,7.76e-01,-7.80e-01,
739,7.18e-01,-7.60e-01,
740,7.57e-01,-7.60e-01,
741,7.76e-01,-8.00e-01,
742,7.57e-01,-8.00e-01,
743,7.76e-01,-7.60e-01,
744,7.57e-01,-7.60e-01,
745,7.95e-01,-8.20e-01,
746,7.95e-01,-8.00e-01,
747,7.57e-01,-8.40e-01,
748,7.76e-01,-8.00e-01,
749,7.95e-01,-8.40e-01,
750,7.76e-01,-8.00e-01,
751,8.15e-01,-8.40e-01,
752,7.76e-01,-8.40e-01,
753,8.15e-01,-8.00e-01,
754,8.15e-01,-8.20e-01,
755,7.76e-01,-8.60e-01,
756,8.15e-01,-8.20e-01,
757,7.95e-01,-8.60e-01,
758,8.15e-01,-8.20e-01,
759,8.15e-01,-8.60e-01,
760,8.15e-01,-8.20e-01,
761,8.54e-01,-8.80e-01,
762,8.54e-01,-8.40e-01,
763,8.15e-01,-8.80e-01,
764,8.54e-01,-8.40e-01,
765,8.34e-01,-9.00e-01,
766,8.54e-01,-8.40e-01,
767,8.34e-01,-9.00e-01,
768,8.34e-01,-9.00e-01,
769,8.73e-01,-8.40e-01,
770,8.34e-01,-8.80e-01,
771,8.73e-01,-9.20e-01,
772,8.73e-01,-8.80e-01,
773,8.34e-01,-9.20e-01,
774,8.73e-01,-8.80e-01,
775,8.54e-01,-9.20e-01,
776,8.73e-01,-8.80e-01,
777,8.54e-01,-9.40e-01,
778,8.54e-01,-9.20e-01,
779,9.12e-01,-8.80e-01,
780,8.54e-01,-9.40e-01,
781,9.12e-01,-8.80e-01,
782,8.73e-01,-9.00e-01,
783,9.12e-01,-9.40e-01,
784,9.12e-01,-9.00e-01,
785,8.92e-01,-9.40e-01,
786,9.12e-01,-9.00e-01,
787,8.92e-01,-9.40e-01,
788,9.12e-01,-9.00e-01,
789,8.92e-01,-9.60e-01,
790,8.92e-01,-9.40e-01,
791,9.31e-01,-9.00e-01,
792,8.92e-01,-9.20e-01,
793,9.31e-01,-9.80e-01,
794,9.31e-01,-9.20e-01,
795,8.92e-01,-9.80e-01,
796,9.31e-01,-9.80e-01,
797,9.12e-01,-9.20e-01,
798,9.31e-01,-9.20e-01,
799,9.12e-01,-9.80e-01,
800,9.31e-01,-9.20e-01,
801,9.12e-01,-1.00e+00,
802,9.12e-01,-9.20e-01,
803,9.31e-01,-9.80e-01,
804,9.12e-01,-9.80e-01,
805,9.51e-01,-9.40e-01,
806,9.51e-01,-9.60e-01,
807,9.12e-01,-1.00e+00,
808,9.51e-01,-1.00e+00,
809,9.12e-01,-9.40e-01,
810,9.70e-01,-9.60e-01,
811,9.12e-01,-1.00e+00,
812,9.12e-01,-1.00e+00,
813,9.70e-01,-9.40e-01,
814,9.51e-01,-1.00e+00,
815,9.70e-01,-9.60e-01,
816,9.51e-01,-9.60e-01,
817,9.51e-01,-1.02e+00,
818,9.51e-01,-1.00e+00,
819,9.70e-01,-9.60e-01,
820,9.51e-01,-9.60e-01,
821,9.70e-01,-1.02e+00,
822,9.51e-01,-1.00e+00,
823,9.70e-01,-9.80e-01,
824,9.51e-01,-9.80e-01,
825,9.70e-01,-1.02e+00,
826,9.51e-01,-1.00e+00,
827,9.70e-01,-9.80e-01,
828,9.51e-01,-1.02e+00,
829,9.70e-01,-9.60e-01,
830,9.51e-01,-1.02e+00,
831,9.89e-01,-9.80e-01,
832,9.51e-01,-1.02e+00,
833,9.89e-01,-9.60e-01,
834,9.51e-01,-9.80e-01,
835,9.89e-01,-1.02e+00,
836,9.51e-01,-1.02e+00,
837,9.89e-01,-9.80e-01,
838,9.89e-01,-1.02e+00,
839,9.51e-01,-9.80e-01,
840,9.51e-01,-1.02e+00,
841,9.89e-01,-9.60e-01,
842,9.89e-01,-9.80e-01,
843,9.51e-01,-1.02e+00,
844,9.89e-01,-1.02e+00,
845,9.51e-01,-9.80e-01,
846,9.89e-01,-1.02e+00,
847,9.51e-01,-9.80e-01,
848,9.89e-01,-1.02e+00,
849,9.51e-01,-9.60e-01,
850,9.89e-01,-1.02e+00,
851,9.51e-01,-9.80e-01,
852,9.89e-01,-9.80e-01,
853,9.51e-01,-1.02e+00,
854,9.89e-01,-9.80e-01,
855,9.51e-01,-1.02e+00,
856,9.51e-01,-9.80e-01,
857,9.89e-01,-1.02e+00,
858,9.51e-01,-1.02e+00,
859,9.89e-01,-9.80e-01,
860,9.51e-01,-1.02e+00,
861,9.89e-01,-9.60e-01,
862,9.51e-01,-9.80e-01,
863,9.89e-01,-1.02e+00,
864,9.51e-01,-1.02e+00,
865,9.89e-01,-9.60e-01,
866,9.51e-01,-1.00e+00,
867,9.89e-01,-9.80e-01,
868,9.51e-01,-1.00e+00,
869,9.51e-01,-9.60e-01,
870,9.51e-01,-9.80e-01,
871,9.70e-01,-1.00e+00,
872,9.51e-01,-9.60e-01,
873,9.70e-01,-1.02e+00,
874,9.51e-01,-1.00e+00,
875,9.70e-01,-9.60e-01,
876,9.51e-01,-9.60e-01,
877,9.51e-01,-1.02e+00,
878,9.51e-01,-1.00e+00,
879,9.70e-01,-9.60e-01,
880,9.51e-01,-9.60e-01,
881,9.70e-01,-1.02e+00,
882,9.70e-01,-9.60e-01,
883,9.12e-01,-1.00e+00,
884,9.12e-01,-1.00e+00,
885,9.70e-01,-9.20e-01,
886,9.12e-01,-9.60e-01,
887,9.70e-01,-1.00e+00,
888,9.12e-01,-1.00e+00,
889,9.51e-01,-9.40e-01,
890,9.31e-01,-9.60e-01,
891,9.12e-01,-9.80e-01,
892,9.31e-01,-9.80e-01,
893,9.12e-01,-9.20e-01,
894,9.12e-01,-9.80e-01,
895,9.31e-01,-9.20e-01,
896,9.31e-01,-9.80e-01,
897,9.12e-01,-9.20e-01,
898,9.31e-01,-9.80e-01,
899,8.92e-01,-9.20e-01,
900,9.31e-01,-9.80e-01,
901,8.92e-01,-9.00e-01,
902,9.31e-01,-9.20e-01,
903,8.92e-01,-9.80e-01,
904,8.92e-01,-9.20e-01,
905,9.31e-01,-9.60e-01,
906,9.12e-01,-9.40e-01,
907,8.92e-01,-9.00e-01,
908,8.92e-01,-9.00e-01,
909,9.12e-01,-9.60e-01,
910,9.12e-01,-9.40e-01,
911,8.73e-01,-9.00e-01,
912,9.12e-01,-9.40e-01,
913,8.54e-01,-8.80e-01,
914,9.12e-01,-9.00e-01,
915,8.54e-01,-9.40e-01,
916,8.73e-01,-9.20e-01,
917,8.54e-01,-8.80e-01,
918,8.73e-01,-9.20e-01,
919,8.54e-01,-8.80e-01,
920,8.73e-01,-9.20e-01,
921,8.34e-01,-8.80e-01,
922,8.73e-01,-9.20e-01,
923,8.34e-01,-8.80e-01,
924,8.73e-01,-9.20e-01,
925,8.34e-01,-8.60e-01,
926,8.34e-01,-8.80e-01,
927,8.73e-01,-9.00e-01,
928,8.34e-01,-9.00e-01,
929,8.54e-01,-8.40e-01,
930,8.54e-01,-9.00e-01,
931,8.15e-01,-8.40e-01,
932,8.15e-01,-8.80e-01,
933,8.54e-01,-8.40e-01,
934,8.15e-01,-8.80e-01,
935,8.34e-01,-8.40e-01,
936,8.15e-01,-8.20e-01,
937,7.95e-01,-8.80e-01,
938,8.15e-01,-8.60e-01,
939,7.95e-01,-8.20e-01,
940,8.15e-01,-8.60e-01,
941,7.76e-01,-8.20e-01,
942,8.15e-01,-8.20e-01,
943,7.76e-01,-8.40e-01,
944,7.95e-01,-8.00e-01,
945,7.76e-01,-8.60e-01,
946,7.95e-01,-8.00e-01,
947,7.57e-01,-8.40e-01,
948,7.95e-01,-8.40e-01,
949,7.57e-01,-7.60e-01,
950,7.57e-01,-8.00e-01,
951,7.95e-01,-7.80e-01,
952,7.57e-01,-8.00e-01,
953,7.76e-01,-7.60e-01,
954,7.76e-01,-8.00e-01,
955,7.37e-01,-7.60e-01,
956,7.76e-01,-8.00e-01,
957,7.18e-01,-7.40e-01,
958,7.37e-01,-7.80e-01,
959,7.18e-01,-7.40e-01,
960,7.18e-01,-7.40e-01,
961,7.37e-01,-8.00e-01,
962,7.37e-01,-7.80e-01,
963,6.98e-01,-7.40e-01,
964,7.37e-01,-7.20e-01,
965,6.98e-01,-7.80e-01,
966,6.98e-01,-7.60e-01,
967,7.18e-01,-7.00e-01,
968,7.18e-01,-7.60e-01,
969,6.60e-01,-6.80e-01,
970,7.18e-01,-7.20e-01,
971,6.60e-01,-7.00e-01,
972,6.79e-01,-7.20e-01,
973,6.60e-01,-6.80e-01,
974,6.79e-01,-6.80e-01,
975,6.40e-01,-7.20e-01,
976,6.40e-01,-6.60e-01,
977,6.79e-01,-7.20e-01,
978,6.60e-01,-7.00e-01,
979,6.21e-01,-6.60e-01,
980,6.60e-01,-6.60e-01,
981,6.21e-01,-7.00e-01,
982,6.21e-01,-6.60e-01,
983,6.60e-01,-6.80e-01,
984,6.21e-01,-6.80e-01,
985,6.40e-01,-6.20e-01,
986,5.82e-01,-6.20e-01,
987,6.40e-01,-6.80e-01,
988,5.82e-01,-6.60e-01,
989,6.40e-01,-6.00e-01,
990,6.01e-01,-6.40e-01,
991,5.82e-01,-6.00e-01,
992,6.01e-01,-6.00e-01,
993,5.63e-01,-6.40e-01,
994,6.01e-01,-6.20e-01,
995,5.63e-01,-5.80e-01,
996,5.82e-01,-6.20e-01,
997,5.43e-01,-5.80e-01,
998,5.82e-01,-5.80e-01,
999,5.24e-01,-6.20e-01,
1000,5.63e-01,-6.00e-01,
1001,5.24e-01,-5.40e-01,
1002,5.43e-01,-6.00e-01,
1003,5.04e-01,-5.40e-01,
1004,5.43e-01,-5.40e-01,
1005,5.04e-01,-5.80e-01,
1006,5.24e-01,-5.60e-01,
1007,5.04e-01,-5.20e-01,
1008,5.24e-01,-5.60e-01,
1009,4.85e-01,-5.00e-01,
1010,4.85e-01,-5.40e-01,
1011,5.04e-01,-5.00e-01,
1012,5.04e-01,-5.00e-01,
1013,4.66e-01,-5.40e-01,
1014,5.04e-01,-5.00e-01,
1015,4.46e-01,-5.40e-01,
1016,4.66e-01,-5.20e-01,
1017,4.46e-01,-4.60e-01,
1018,4.66e-01,-5.00e-01,
1019,4.27e-01,-4.60e-01,
1020,4.66e-01,-4.80e-01,
1021,4.27e-01,-4.60e-01,
1022,4.46e-01,-4.80e-01,
1023,3.88e-01,-4.40e-01,
1024,3.88e-01,-4.80e-01,
1025,4.46e-01,-4.20e-01,
1026,4.46e-01,-4.60e-01,
1027,3.88e-01,-4.20e-01,
1028,4.07e-01,-4.60e-01,
1029,3.69e-01,-4.00e-01,
1030,3.69e-01,-4.20e-01,
1031,4.07e-01,-3.80e-01,
1032,3.88e-01,-4.20e-01,
1033,3.49e-01,-3.80e-01,
1034,3.88e-01,-4.00e-01,
1035,3.49e-01,-3.60e-01,
1036,3.69e-01,-4.00e-01,
1037,3.10e-01,-3.60e-01,
1038,3.69e-01,-3.60e-01,
1039,3.10e-01,-4.00e-01,
1040,3.69e-01,-3.80e-01,
1041,3.10e-01,-3.20e-01,
1042,3.30e-01,-3.80e-01,
1043,2.91e-01,-3.20e-01,
1044,3.30e-01,-3.40e-01,
1045,2.91e-01,-3.00e-01,
1046,3.10e-01,-3.40e-01,
1047,2.72e-01,-3.00e-01,
1048,3.10e-01,-3.20e-01,
1049,2.52e-01,-2.80e-01,
1050,2.72e-01,-3.20e-01,
1051,2.52e-01,-2.80e-01,
1052,2.72e-01,-3.00e-01,
1053,2.33e-01,-2.60e-01,
1054,2.33e-01,-3.00e-01,
1055,2.72e-01,-2.40e-01,
1056,2.52e-01,-3.00e-01,
1057,2.13e-01,-2.40e-01,
1058,2.13e-01,-2.60e-01,
1059,2.52e-01,-2.20e-01,
1060,2.33e-01,-2.20e-01,
1061,1.75e-01,-2.60e-01,
1062,2.13e-01,-2.40e-01,
1063,1.75e-01,-2.00e-01,
1064,1.94e-01,-2.00e-01,
1065,1.55e-01,-2.40e-01,
1066,1.94e-01,-2.00e-01,
1067,1.55e-01,-2.20e-01,
1068,1.94e-01,-2.20e-01,
1069,1.16e-01,-1.60e-01,
1070,1.75e-01,-2.00e-01,
1071,1.16e-01,-1.60e-01,
1072,1.16e-01,-1.80e-01,
1073,1.75e-01,-1.40e-01,
1074,1.36e-01,-1.40e-01,
1075,9.70e-02,-1.80e-01,
1076,1.36e-01,-1.60e-01,
1077,9.70e-02,-1.20e-01,
1078,1.16e-01,-1.20e-01,
1079,7.76e-02,-1.60e-01,
1080,1.16e-01,-1.20e-01,
1081,7.76e-02,-8.00e-02,
1082,7.76e-02,-8.00e-02,
1083,3.88e-02,-1.20e-01,
1084,3.88e-02,-1.00e-01,
1085,7.76e-02,-6.00e-02,
1086,7.76e-02,-6.00e-02,
1087,1.94e-02,-1.00e-01,
1088,5.82e-02,-8.00e-02,
1089,1.94e-02,-2.00e-02,
1090,1.94e-02,-8.00e-02,
1091,5.82e-02,-2.00e-02,
1092,3.88e-02,-4.00e-02,
1093,-1.94e-02,0.00e+00,
1094,-1.94e-02,-4.00e-02,
1095,3.88e-02,0.00e+00,
1096,0.00e+00,0.00e+00,
1097,-3.88e-02,-4.00e-02,
1098,0.00e+00,-2.00e-02,
1099,-3.88e-02,2.00e-02,
1100,-1.94e-02,-2.00e-02,
1101,-5.82e-02,2.00e-02,
1102,-1.94e-02,0.00e+00,
1103,-7.76e-02,6.00e-02,
1104,-5.82e-02,2.00e-02,
1105,-9.70e-02,6.00e-02,
1106,-5.82e-02,4.00e-02,
1107,-9.70e-02,8.00e-02,
1108,-5.82e-02,4.00e-02,
1109,-1.16e-01,8.00e-02,
1110,-7.76e-02,6.00e-02,
1111,-1.16e-01,1.00e-01,
1112,-7.76e-02,6.00e-02,
1113,-1.36e-01,1.00e-01,
1114,-9.70e-02,8.00e-02,
1115,-1.55e-01,1.20e-01,
1116,-1.55e-01,8.00e-02,
1117,-9.70e-02,1.40e-01,
1118,-1.36e-01,1.20e-01,
1119,-1.75e-01,1.40e-01,
1120,-1.36e-01,1.20e-01,
1121,-1.75e-01,1.60e-01,
1122,-1.36e-01,1.20e-01,
1123,-1.94e-01,1.60e-01,
1124,-1.55e-01,1.80e-01,
1125,-2.13e-01,1.20e-01,
1126,-1.75e-01,1.40e-01,
1127,-2.33e-01,1.80e-01,
1128,-1.94e-01,1.60e-01,
1129,-2.33e-01,2.00e-01,
1130,-1.94e-01,1.60e-01,
1131,-2.52e-01,2.20e-01,
1132,-2.13e-01,2.00e-01,
1133,-2.52e-01,2.40e-01,
1134,-2.52e-01,2.00e-01,
1135,-2.13e-01,2.40e-01,
1136,-2.13e-01,2.40e-01,
1137,-2.91e-01,2.20e-01,
1138,-2.91e-01,2.20e-01,
1139,-2.33e-01,2.60e-01,
1140,-2.72e-01,2.60e-01,
1141,-3.10e-01,2.20e-01,
1142,-2.72e-01,2.60e-01,
1143,-3.10e-01,3.00e-01,
1144,-2.72e-01,2.60e-01,
1145,-3.49e-01,3.00e-01,
1146,-2.91e-01,3.00e-01,
1147,-3.49e-01,2.80e-01,
1148,-2.91e-01,2.80e-01,
1149,-3.49e-01,3.20e-01,
1150,-3.30e-01,3.00e-01,
1151,-3.69e-01,3.20e-01,
1152,-3.30e-01,3.00e-01,
1153,-3.69e-01,3.60e-01,
1154,-3.49e-01,3.40e-01,
1155,-3.88e-01,3.60e-01,
1156,-3.49e-01,3.40e-01,
1157,-3.88e-01,3.80e-01,
1158,-3.49e-01,3.40e-01,
1159,-4.27e-01,3.80e-01,
1160,-3.88e-01,3.60e-01,
1161,-4.27e-01,4.00e-01,
1162,-3.88e-01,4.00e-01,
1163,-4.27e-01,3.60e-01,
1164,-4.46e-01,3.80e-01,
1165,-3.88e-01,4.20e-01,
1166,-4.46e-01,3.80e-01,
1167,-4.07e-01,4.40e-01,
1168,-4.27e-01,4.20e-01,
1169,-4.85e-01,4.40e-01,
1170,-4.27e-01,4.20e-01,
1171,-4.85e-01,4.60e-01,
1172,-4.85e-01,4.20e-01,
1173,-4.27e-01,4.60e-01,
1174,-4.66e-01,4.60e-01,
1175,-5.04e-01,4.40e-01,
1176,-4.66e-01,4.80e-01,
1177,-5.04e-01,4.40e-01,
1178,-4.66e-01,4.80e-01,
1179,-5.24e-01,4.40e-01,
1180,-4.85e-01,4.60e-01,
1181,-5.43e-01,5.20e-01,
1182,-4.85e-01,4.80e-01,
1183,-5.43e-01,5.20e-01,
1184,-5.24e-01,5.00e-01,
1185,-5.63e-01,5.20e-01,
1186,-5.24e-01,5.00e-01,
1187,-5.63e-01,5.40e-01,
1188,-5.24e-01,5.40e-01,
1189,-5.82e-01,5.20e-01,
1190,-5.82e-01,5.20e-01,
1191,-5.24e-01,5.60e-01,
1192,-5.43e-01,5.60e-01,
1193,-6.01e-01,5.20e-01,
1194,-5.63e-01,5.60e-01,
1195,-6.21e-01,5.40e-01,
1196,-6.21e-01,5.40e-01,
1197,-5.63e-01,6.00e-01,
1198,-5.63e-01,5.60e-01,
1199,-6.40e-01,6.00e-01,
