X,CH1,CH2,Start,Increment,
Sequence,Volt,Volt,-6.000000e-04,1.000000e-06
0,-8.40e-01,1.64e+00,
1,-9.20e-01,1.72e+00,
2,-8.40e-01,1.64e+00,
3,-9.20e-01,1.72e+00,
4,-8.40e-01,1.64e+00,
5,-9.20e-01,1.72e+00,
6,-8.80e-01,1.72e+00,
7,-8.00e-01,1.64e+00,
8,-8.80e-01,1.68e+00,
9,-8.00e-01,1.72e+00,
10,-8.00e-01,1.68e+00,
11,-8.80e-01,1.76e+00,
12,-8.00e-01,1.68e+00,
13,-8.80e-01,1.76e+00,
14,-8.40e-01,1.76e+00,
15,-7.60e-01,1.68e+00,
16,-7.60e-01,1.72e+00,
17,-8.40e-01,1.80e+00,
18,-7.60e-01,1.72e+00,
19,-8.40e-01,1.80e+00,
20,-7.60e-01,1.80e+00,
21,-8.00e-01,1.72e+00,
22,-7.60e-01,1.76e+00,
23,-6.80e-01,1.80e+00,
24,-6.80e-01,1.76e+00,
25,-8.00e-01,1.84e+00,
26,-7.60e-01,1.76e+00,
27,-6.80e-01,1.84e+00,
28,-7.20e-01,1.80e+00,
29,-6.40e-01,1.88e+00,
30,-7.20e-01,1.80e+00,
31,-6.40e-01,1.88e+00,
32,-7.20e-01,1.88e+00,
33,-6.00e-01,1.80e+00,
34,-6.00e-01,1.84e+00,
35,-6.80e-01,1.92e+00,
36,-6.80e-01,1.92e+00,
37,-6.00e-01,1.84e+00,
38,-6.40e-01,1.88e+00,
39,-5.60e-01,1.92e+00,
40,-6.40e-01,1.88e+00,
41,-5.60e-01,1.96e+00,
42,-6.00e-01,1.92e+00,
43,-5.20e-01,1.96e+00,
44,-5.20e-01,1.92e+00,
45,-6.00e-01,2.00e+00,
46,-5.60e-01,2.00e+00,
47,-4.80e-01,1.92e+00,
48,-5.60e-01,1.96e+00,
49,-4.80e-01,2.04e+00,
50,-5.20e-01,2.08e+00,
51,-4.40e-01,1.96e+00,
52,-4.40e-01,2.04e+00,
53,-5.20e-01,2.12e+00,
54,-4.40e-01,2.04e+00,
55,-4.80e-01,2.12e+00,
56,-4.00e-01,2.08e+00,
57,-4.80e-01,2.16e+00,
58,-4.40e-01,2.08e+00,
59,-3.60e-01,2.16e+00,
60,-3.60e-01,2.12e+00,
61,-4.40e-01,2.20e+00,
62,-4.00e-01,2.12e+00,
63,-3.20e-01,2.20e+00,
64,-3.60e-01,2.12e+00,
65,-2.80e-01,2.24e+00,
66,-3.60e-01,2.24e+00,
67,-2.40e-01,2.16e+00,
68,-2.40e-01,2.20e+00,
69,-3.20e-01,2.28e+00,
70,-2.80e-01,2.28e+00,
71,-2.00e-01,2.20e+00,
72,-2.80e-01,2.24e+00,
73,-2.00e-01,2.32e+00,
74,-2.40e-01,2.32e+00,
75,-1.60e-01,2.24e+00,
76,-2.40e-01,2.28e+00,
77,-1.60e-01,2.36e+00,
78,-2.00e-01,2.32e+00,
79,-1.20e-01,2.40e+00,
80,-2.00e-01,2.32e+00,
81,-1.20e-01,2.44e+00,
82,-1.60e-01,2.32e+00,
83,-8.00e-02,2.48e+00,
84,-1.60e-01,2.40e+00,
85,-4.00e-02,2.48e+00,
86,-1.20e-01,2.40e+00,
87,-4.00e-02,2.52e+00,
88,-8.00e-02,2.52e+00,
89,0.00e+00,2.44e+00,
90,0.00e+00,2.48e+00,
91,-8.00e-02,2.56e+00,
92,-4.00e-02,2.56e+00,
93,4.00e-02,2.48e+00,
94,-4.00e-02,2.52e+00,
95,8.00e-02,2.60e+00,
96,4.00e-02,2.52e+00,
97,1.20e-01,2.64e+00,
98,4.00e-02,2.56e+00,
99,1.20e-01,2.64e+00,
100,8.00e-02,2.60e+00,
101,1.60e-01,2.68e+00,
102,1.20e-01,2.60e+00,
103,2.00e-01,2.72e+00,
104,1.20e-01,2.60e+00,
105,2.00e-01,2.72e+00,
106,1.60e-01,2.64e+00,
107,2.40e-01,2.76e+00,
108,1.60e-01,2.68e+00,
109,2.40e-01,2.80e+00,
110,2.00e-01,2.68e+00,
111,2.80e-01,2.80e+00,
112,2.40e-01,2.76e+00,
113,2.80e-01,2.84e+00,
114,2.40e-01,2.76e+00,
115,3.20e-01,2.88e+00,
116,2.80e-01,2.80e+00,
117,3.60e-01,2.92e+00,
118,3.60e-01,2.84e+00,
119,2.80e-01,2.92e+00,
120,3.20e-01,2.84e+00,
121,4.00e-01,2.96e+00,
122,4.00e-01,2.84e+00,
123,3.20e-01,2.96e+00,
124,3.60e-01,2.88e+00,
125,4.80e-01,3.00e+00,
126,4.00e-01,3.00e+00,
127,4.80e-01,2.88e+00,
128,4.40e-01,2.92e+00,
129,5.20e-01,3.04e+00,
130,4.40e-01,2.96e+00,
131,5.20e-01,3.04e+00,
132,4.80e-01,2.96e+00,
133,5.60e-01,3.08e+00,
134,5.20e-01,3.08e+00,
135,5.60e-01,2.96e+00,
136,5.20e-01,3.00e+00,
137,6.00e-01,3.12e+00,
138,5.60e-01,3.04e+00,
139,6.00e-01,3.12e+00,
140,5.60e-01,3.08e+00,
141,6.40e-01,3.20e+00,
142,6.40e-01,3.20e+00,
143,6.00e-01,3.08e+00,
144,6.00e-01,3.20e+00,
145,6.80e-01,3.08e+00,
146,6.80e-01,3.16e+00,
147,6.40e-01,3.24e+00,
148,6.40e-01,3.16e+00,
149,7.20e-01,3.28e+00,
150,7.20e-01,3.28e+00,
151,6.80e-01,3.16e+00,
152,6.80e-01,3.20e+00,
153,7.60e-01,3.32e+00,
154,7.60e-01,3.20e+00,
155,6.80e-01,3.32e+00,
156,7.20e-01,3.24e+00,
157,8.00e-01,3.36e+00,
158,7.20e-01,3.24e+00,
159,8.00e-01,3.36e+00,
160,7.60e-01,3.28e+00,
161,8.40e-01,3.40e+00,
162,7.60e-01,3.28e+00,
163,8.80e-01,3.40e+00,
164,8.40e-01,3.28e+00,
165,8.80e-01,3.40e+00,
166,8.40e-01,3.32e+00,
167,9.20e-01,3.44e+00,
168,8.40e-01,3.32e+00,
169,9.20e-01,3.44e+00,
170,8.80e-01,3.36e+00,
171,9.20e-01,3.44e+00,
172,8.80e-01,3.36e+00,
173,9.60e-01,3.48e+00,
174,9.60e-01,3.48e+00,
175,8.80e-01,3.36e+00,
176,9.20e-01,3.40e+00,
177,9.60e-01,3.48e+00,
178,9.20e-01,3.40e+00,
179,1.00e+00,3.52e+00,
180,1.00e+00,3.52e+00,
181,9.20e-01,3.40e+00,
182,1.00e+00,3.40e+00,
183,9.20e-01,3.56e+00,
184,9.60e-01,3.56e+00,
185,1.04e+00,3.44e+00,
186,9.60e-01,3.56e+00,
187,1.04e+00,3.44e+00,
188,1.04e+00,3.48e+00,
189,9.60e-01,3.60e+00,
190,1.04e+00,3.60e+00,
191,1.00e+00,3.44e+00,
192,1.00e+00,3.52e+00,
193,1.08e+00,3.60e+00,
194,1.00e+00,3.52e+00,
195,1.08e+00,3.64e+00,
196,1.00e+00,3.60e+00,
197,1.08e+00,3.52e+00,
198,1.04e+00,3.52e+00,
199,1.08e+00,3.64e+00,
200,1.04e+00,3.64e+00,
201,1.08e+00,3.52e+00,
202,1.04e+00,3.56e+00,
203,1.08e+00,3.64e+00,
204,1.04e+00,3.56e+00,
205,1.12e+00,3.64e+00,
206,1.04e+00,3.56e+00,
207,1.12e+00,3.68e+00,
208,1.12e+00,3.56e+00,
209,1.04e+00,3.68e+00,
210,1.04e+00,3.56e+00,
211,1.12e+00,3.68e+00,
212,1.12e+00,3.56e+00,
213,1.04e+00,3.68e+00,
214,1.12e+00,3.56e+00,
215,1.04e+00,3.68e+00,
216,1.12e+00,3.68e+00,
217,1.04e+00,3.56e+00,
218,1.12e+00,3.56e+00,
219,1.08e+00,3.68e+00,
220,1.12e+00,3.56e+00,
221,1.08e+00,3.68e+00,
222,1.08e+00,3.56e+00,
223,1.12e+00,3.68e+00,
224,1.12e+00,3.68e+00,
225,1.08e+00,3.56e+00,
226,1.12e+00,3.68e+00,
227,1.08e+00,3.56e+00,
228,1.08e+00,3.56e+00,
229,1.12e+00,3.68e+00,
230,1.12e+00,3.56e+00,
231,1.08e+00,3.68e+00,
232,1.12e+00,3.68e+00,
233,1.08e+00,3.56e+00,
234,1.12e+00,3.56e+00,
235,1.04e+00,3.68e+00,
236,1.12e+00,3.68e+00,
237,1.04e+00,3.56e+00,
238,1.04e+00,3.56e+00,
239,1.12e+00,3.68e+00,
240,1.12e+00,3.56e+00,
241,1.04e+00,3.64e+00,
242,1.04e+00,3.56e+00,
243,1.12e+00,3.68e+00,
244,1.04e+00,3.56e+00,
245,1.08e+00,3.64e+00,
246,1.08e+00,3.64e+00,
247,1.04e+00,3.52e+00,
248,1.08e+00,3.64e+00,
249,1.00e+00,3.52e+00,
250,1.08e+00,3.52e+00,
251,1.00e+00,3.64e+00,
252,1.08e+00,3.52e+00,
253,1.00e+00,3.64e+00,
254,1.08e+00,3.60e+00,
255,1.00e+00,3.48e+00,
256,1.04e+00,3.60e+00,
257,1.00e+00,3.48e+00,
258,1.04e+00,3.44e+00,
259,9.60e-01,3.60e+00,
260,9.60e-01,3.56e+00,
261,1.04e+00,3.44e+00,
262,9.60e-01,3.44e+00,
263,1.04e+00,3.56e+00,
264,9.60e-01,3.56e+00,
265,1.00e+00,3.40e+00,
266,1.00e+00,3.52e+00,
267,9.20e-01,3.40e+00,
268,1.00e+00,3.48e+00,
269,9.20e-01,3.40e+00,
270,9.60e-01,3.48e+00,
271,9.20e-01,3.40e+00,
272,9.60e-01,3.48e+00,
273,8.80e-01,3.36e+00,
274,9.60e-01,3.36e+00,
275,8.80e-01,3.48e+00,
276,8.80e-01,3.44e+00,
277,9.20e-01,3.32e+00,
278,9.20e-01,3.44e+00,
279,8.40e-01,3.32e+00,
280,8.40e-01,3.32e+00,
281,9.20e-01,3.44e+00,
282,8.80e-01,3.40e+00,
283,8.00e-01,3.28e+00,
284,8.80e-01,3.40e+00,
285,7.60e-01,3.28e+00,
286,8.80e-01,3.36e+00,
287,7.60e-01,3.28e+00,
288,8.00e-01,3.36e+00,
289,7.60e-01,3.24e+00,
290,8.00e-01,3.36e+00,
291,7.20e-01,3.20e+00,
292,7.20e-01,3.32e+00,
293,7.60e-01,3.20e+00,
294,7.60e-01,3.32e+00,
295,6.80e-01,3.20e+00,
296,6.80e-01,3.28e+00,
297,7.20e-01,3.16e+00,
298,7.20e-01,3.28e+00,
299,6.40e-01,3.16e+00,
300,7.20e-01,3.24e+00,
301,6.40e-01,3.12e+00,
302,6.80e-01,3.20e+00,
303,6.00e-01,3.12e+00,
304,6.00e-01,3.20e+00,
305,6.80e-01,3.08e+00,
306,6.40e-01,3.16e+00,
307,5.60e-01,3.04e+00,
308,5.60e-01,3.12e+00,
309,6.40e-01,3.04e+00,
310,6.00e-01,3.12e+00,
311,5.20e-01,3.00e+00,
312,5.20e-01,3.08e+00,
313,6.00e-01,2.96e+00,
314,5.60e-01,3.08e+00,
315,4.80e-01,2.96e+00,
316,4.80e-01,3.04e+00,
317,5.60e-01,2.96e+00,
318,5.20e-01,3.04e+00,
319,4.40e-01,2.92e+00,
320,4.40e-01,3.00e+00,
321,4.80e-01,2.88e+00,
322,4.80e-01,3.00e+00,
323,3.60e-01,2.88e+00,
324,3.60e-01,2.88e+00,
325,4.00e-01,2.96e+00,
326,4.00e-01,2.96e+00,
327,3.20e-01,2.84e+00,
328,3.60e-01,2.92e+00,
329,2.80e-01,2.80e+00,
330,2.80e-01,2.88e+00,
331,3.60e-01,2.80e+00,
332,3.20e-01,2.84e+00,
333,2.40e-01,2.76e+00,
334,3.20e-01,2.84e+00,
335,2.40e-01,2.76e+00,
336,2.80e-01,2.80e+00,
337,2.00e-01,2.68e+00,
338,2.00e-01,2.76e+00,
339,2.80e-01,2.68e+00,
340,2.40e-01,2.76e+00,
341,1.60e-01,2.64e+00,
342,2.00e-01,2.72e+00,
343,1.20e-01,2.60e+00,
344,2.00e-01,2.68e+00,
345,1.20e-01,2.60e+00,
346,1.60e-01,2.68e+00,
347,8.00e-02,2.56e+00,
348,1.60e-01,2.56e+00,
349,4.00e-02,2.64e+00,
350,1.20e-01,2.64e+00,
351,4.00e-02,2.52e+00,
352,8.00e-02,2.60e+00,
353,4.00e-02,2.52e+00,
354,8.00e-02,2.56e+00,
355,-4.00e-02,2.48e+00,
356,0.00e+00,2.56e+00,
357,-8.00e-02,2.44e+00,
358,0.00e+00,2.52e+00,
359,-8.00e-02,2.44e+00,
360,-4.00e-02,2.52e+00,
361,-1.20e-01,2.40e+00,
362,-4.00e-02,2.40e+00,
363,-1.20e-01,2.48e+00,
364,-8.00e-02,2.44e+00,
365,-1.60e-01,2.32e+00,
366,-8.00e-02,2.32e+00,
367,-2.00e-01,2.44e+00,
368,-1.20e-01,2.40e+00,
369,-2.00e-01,2.28e+00,
370,-1.60e-01,2.28e+00,
371,-2.40e-01,2.36e+00,
372,-2.40e-01,2.36e+00,
373,-1.60e-01,2.24e+00,
374,-2.00e-01,2.32e+00,
375,-2.80e-01,2.24e+00,
376,-2.80e-01,2.28e+00,
377,-2.00e-01,2.20e+00,
378,-2.40e-01,2.28e+00,
379,-3.20e-01,2.20e+00,
380,-3.20e-01,2.24e+00,
381,-2.40e-01,2.16e+00,
382,-2.80e-01,2.16e+00,
383,-3.60e-01,2.24e+00,
384,-3.60e-01,2.20e+00,
385,-2.80e-01,2.12e+00,
386,-3.60e-01,2.16e+00,
387,-4.40e-01,2.08e+00,
388,-3.60e-01,2.16e+00,
389,-4.40e-01,2.08e+00,
390,-4.00e-01,2.16e+00,
391,-4.80e-01,2.04e+00,
392,-4.00e-01,2.12e+00,
393,-4.80e-01,2.04e+00,
394,-4.40e-01,2.12e+00,
395,-5.20e-01,2.04e+00,
396,-4.40e-01,2.08e+00,
397,-5.20e-01,2.00e+00,
398,-4.80e-01,2.04e+00,
399,-5.60e-01,1.96e+00,
400,-5.60e-01,2.00e+00,
401,-4.80e-01,1.92e+00,
402,-5.20e-01,2.00e+00,
403,-6.00e-01,1.92e+00,
404,-5.20e-01,1.96e+00,
405,-6.00e-01,1.88e+00,
406,-5.20e-01,1.96e+00,
407,-6.40e-01,1.88e+00,
408,-5.60e-01,1.88e+00,
409,-6.40e-01,1.96e+00,
410,-5.60e-01,1.92e+00,
411,-6.40e-01,1.84e+00,
412,-6.00e-01,1.84e+00,
413,-6.80e-01,1.92e+00,
414,-6.80e-01,1.88e+00,
415,-6.00e-01,1.80e+00,
416,-6.00e-01,1.80e+00,
417,-7.20e-01,1.88e+00,
418,-7.20e-01,1.84e+00,
419,-6.40e-01,1.76e+00,
420,-7.20e-01,1.76e+00,
421,-6.40e-01,1.84e+00,
422,-6.80e-01,1.76e+00,
423,-7.60e-01,1.84e+00,
424,-6.80e-01,1.80e+00,
425,-8.00e-01,1.76e+00,
426,-6.80e-01,1.80e+00,
427,-8.00e-01,1.72e+00,
428,-7.60e-01,1.72e+00,
429,-8.40e-01,1.80e+00,
430,-7.60e-01,1.72e+00,
431,-8.40e-01,1.76e+00,
432,-7.60e-01,1.76e+00,
433,-8.40e-01,1.68e+00,
434,-8.00e-01,1.68e+00,
435,-8.40e-01,1.76e+00,
436,-8.00e-01,1.68e+00,
437,-8.80e-01,1.76e+00,
438,-8.00e-01,1.68e+00,
439,-8.80e-01,1.72e+00,
440,-8.00e-01,1.72e+00,
441,-8.80e-01,1.64e+00,
442,-8.80e-01,1.72e+00,
443,-8.40e-01,1.64e+00,
444,-8.40e-01,1.64e+00,
445,-9.20e-01,1.72e+00,
446,-9.20e-01,1.68e+00,
447,-8.40e-01,1.60e+00,
448,-9.20e-01,1.68e+00,
449,-8.40e-01,1.60e+00,
450,-8.40e-01,1.68e+00,
451,-9.20e-01,1.56e+00,
452,-9.20e-01,1.56e+00,
453,-8.80e-01,1.68e+00,
454,-8.80e-01,1.56e+00,
455,-9.60e-01,1.64e+00,
456,-8.80e-01,1.56e+00,
457,-9.60e-01,1.68e+00,
458,-8.80e-01,1.56e+00,
459,-9.60e-01,1.64e+00,
460,-8.80e-01,1.60e+00,
461,-9.60e-01,1.56e+00,
462,-8.80e-01,1.56e+00,
463,-9.60e-01,1.60e+00,
464,-8.80e-01,1.60e+00,
465,-9.60e-01,1.56e+00,
466,-8.80e-01,1.60e+00,
467,-9.60e-01,1.56e+00,
468,-9.60e-01,1.60e+00,
469,-8.80e-01,1.56e+00,
470,-9.60e-01,1.60e+00,
471,-8.80e-01,1.56e+00,
472,-8.80e-01,1.60e+00,
473,-9.60e-01,1.56e+00,
474,-9.60e-01,1.60e+00,
475,-8.80e-01,1.56e+00,
476,-9.60e-01,1.60e+00,
477,-8.80e-01,1.56e+00,
478,-9.60e-01,1.60e+00,
479,-8.80e-01,1.56e+00,
480,-9.60e-01,1.56e+00,
481,-8.80e-01,1.60e+00,
482,-8.80e-01,1.60e+00,
483,-9.60e-01,1.56e+00,
484,-8.80e-01,1.60e+00,
485,-9.60e-01,1.56e+00,
486,-9.60e-01,1.56e+00,
487,-8.80e-01,1.64e+00,
488,-9.60e-01,1.56e+00,
489,-8.80e-01,1.64e+00,
490,-9.60e-01,1.56e+00,
491,-8.80e-01,1.68e+00,
492,-8.80e-01,1.56e+00,
493,-9.60e-01,1.68e+00,
494,-8.80e-01,1.56e+00,
495,-9.60e-01,1.68e+00,
496,-9.20e-01,1.60e+00,
497,-8.80e-01,1.68e+00,
498,-9.20e-01,1.64e+00,
499,-8.40e-01,1.68e+00,
500,-8.40e-01,1.68e+00,
501,-9.20e-01,1.60e+00,
502,-8.40e-01,1.64e+00,
503,-9.20e-01,1.72e+00,
504,-8.40e-01,1.72e+00,
505,-9.20e-01,1.64e+00,
506,-8.40e-01,1.64e+00,
507,-8.80e-01,1.72e+00,
508,-8.80e-01,1.68e+00,
509,-8.00e-01,1.72e+00,
510,-8.00e-01,1.68e+00,
511,-8.80e-01,1.76e+00,
512,-8.00e-01,1.68e+00,
513,-8.80e-01,1.76e+00,
514,-8.40e-01,1.68e+00,
515,-7.60e-01,1.76e+00,
516,-7.60e-01,1.72e+00,
517,-8.40e-01,1.76e+00,
518,-7.60e-01,1.72e+00,
519,-8.40e-01,1.80e+00,
520,-8.40e-01,1.80e+00,
521,-7.20e-01,1.72e+00,
522,-8.00e-01,1.80e+00,
523,-6.80e-01,1.76e+00,
524,-7.60e-01,1.76e+00,
525,-6.80e-01,1.84e+00,
526,-7.20e-01,1.84e+00,
527,-6.80e-01,1.76e+00,
528,-7.20e-01,1.80e+00,
529,-6.40e-01,1.88e+00,
530,-7.20e-01,1.80e+00,
531,-6.40e-01,1.88e+00,
532,-6.80e-01,1.80e+00,
533,-6.00e-01,1.88e+00,
534,-6.00e-01,1.84e+00,
535,-6.80e-01,1.92e+00,
536,-6.80e-01,1.84e+00,
537,-6.00e-01,1.92e+00,
538,-6.40e-01,1.88e+00,
539,-5.60e-01,1.96e+00,
540,-6.40e-01,1.88e+00,
541,-5.60e-01,1.96e+00,
542,-6.00e-01,1.88e+00,
543,-5.20e-01,1.96e+00,
544,-6.00e-01,1.92e+00,
545,-5.20e-01,2.00e+00,
546,-5.60e-01,2.00e+00,
547,-4.80e-01,1.92e+00,
548,-5.60e-01,1.96e+00,
549,-4.80e-01,2.08e+00,
550,-5.60e-01,2.00e+00,
551,-4.40e-01,2.08e+00,
552,-5.20e-01,2.04e+00,
553,-4.40e-01,2.12e+00,
554,-4.40e-01,2.04e+00,
555,-5.20e-01,2.12e+00,
556,-4.00e-01,2.08e+00,
557,-4.80e-01,2.12e+00,
558,-4.00e-01,2.16e+00,
559,-4.40e-01,2.08e+00,
560,-4.40e-01,2.08e+00,
561,-3.20e-01,2.20e+00,
562,-4.00e-01,2.12e+00,
563,-3.20e-01,2.20e+00,
564,-3.60e-01,2.16e+00,
565,-2.80e-01,2.24e+00,
566,-3.60e-01,2.16e+00,
567,-2.40e-01,2.28e+00,
568,-2.40e-01,2.20e+00,
569,-3.20e-01,2.28e+00,
570,-2.80e-01,2.28e+00,
571,-2.00e-01,2.20e+00,
572,-2.00e-01,2.24e+00,
573,-2.80e-01,2.32e+00,
574,-2.40e-01,2.24e+00,
575,-1.60e-01,2.36e+00,
576,-2.40e-01,2.28e+00,
577,-1.60e-01,2.36e+00,
578,-2.00e-01,2.36e+00,
579,-1.20e-01,2.28e+00,
580,-2.00e-01,2.32e+00,
581,-1.20e-01,2.44e+00,
582,-1.60e-01,2.36e+00,
583,-8.00e-02,2.48e+00,
584,-1.60e-01,2.40e+00,
585,-4.00e-02,2.48e+00,
586,-1.20e-01,2.40e+00,
587,-4.00e-02,2.52e+00,
588,-8.00e-02,2.44e+00,
589,0.00e+00,2.52e+00,
590,0.00e+00,2.48e+00,
591,-8.00e-02,2.56e+00,
592,-4.00e-02,2.48e+00,
593,8.00e-02,2.60e+00,
594,-4.00e-02,2.52e+00,
595,8.00e-02,2.60e+00,
596,4.00e-02,2.52e+00,
597,1.20e-01,2.64e+00,
598,1.20e-01,2.56e+00,
599,4.00e-02,2.64e+00,
600,1.60e-01,2.56e+00,
601,4.00e-02,2.68e+00,
602,1.20e-01,2.68e+00,
603,2.00e-01,2.60e+00,
604,2.00e-01,2.72e+00,
605,1.20e-01,2.60e+00,
606,1.60e-01,2.64e+00,
607,2.40e-01,2.76e+00,
608,2.40e-01,2.68e+00,
609,1.60e-01,2.80e+00,
610,2.00e-01,2.72e+00,
611,2.80e-01,2.80e+00,
612,2.80e-01,2.76e+00,
613,2.00e-01,2.84e+00,
614,2.40e-01,2.76e+00,
615,3.20e-01,2.88e+00,
616,2.80e-01,2.80e+00,
617,3.60e-01,2.88e+00,
618,3.60e-01,2.80e+00,
619,2.80e-01,2.92e+00,
620,3.20e-01,2.84e+00,
621,4.00e-01,2.96e+00,
622,4.00e-01,2.84e+00,
623,3.20e-01,2.96e+00,
624,3.60e-01,2.88e+00,
625,4.80e-01,3.00e+00,
626,3.60e-01,2.92e+00,
627,4.80e-01,3.00e+00,
628,4.40e-01,2.92e+00,
629,5.20e-01,3.04e+00,
630,4.80e-01,2.96e+00,
631,5.20e-01,3.04e+00,
632,4.80e-01,2.96e+00,
633,5.60e-01,3.08e+00,
634,5.20e-01,3.00e+00,
635,5.60e-01,3.08e+00,
636,5.20e-01,3.12e+00,
637,6.00e-01,3.00e+00,
638,5.60e-01,3.12e+00,
639,6.00e-01,3.04e+00,
640,5.60e-01,3.04e+00,
641,6.40e-01,3.20e+00,
642,6.40e-01,3.08e+00,
643,6.00e-01,3.20e+00,
644,6.00e-01,3.12e+00,
645,6.80e-01,3.24e+00,
646,6.40e-01,3.12e+00,
647,7.20e-01,3.24e+00,
648,6.40e-01,3.16e+00,
649,7.20e-01,3.28e+00,
650,6.40e-01,3.16e+00,
651,7.20e-01,3.28e+00,
652,6.80e-01,3.20e+00,
653,7.60e-01,3.32e+00,
654,7.60e-01,3.20e+00,
655,6.80e-01,3.32e+00,
656,7.20e-01,3.24e+00,
657,8.00e-01,3.36e+00,
658,8.00e-01,3.24e+00,
659,7.20e-01,3.36e+00,
660,8.00e-01,3.28e+00,
661,7.60e-01,3.36e+00,
662,7.60e-01,3.28e+00,
663,8.80e-01,3.40e+00,
664,8.40e-01,3.40e+00,
665,8.80e-01,3.28e+00,
666,9.20e-01,3.32e+00,
667,8.00e-01,3.44e+00,
668,8.40e-01,3.32e+00,
669,9.20e-01,3.44e+00,
670,8.80e-01,3.36e+00,
671,9.20e-01,3.44e+00,
672,8.80e-01,3.36e+00,
673,9.60e-01,3.48e+00,
674,9.60e-01,3.48e+00,
675,8.80e-01,3.36e+00,
676,9.20e-01,3.40e+00,
677,9.60e-01,3.48e+00,
678,9.20e-01,3.40e+00,
679,1.00e+00,3.52e+00,
680,1.00e+00,3.40e+00,
681,9.20e-01,3.56e+00,
682,1.00e+00,3.44e+00,
683,9.60e-01,3.56e+00,
684,9.60e-01,3.56e+00,
685,1.00e+00,3.44e+00,
686,9.60e-01,3.60e+00,
687,1.04e+00,3.44e+00,
688,1.04e+00,3.48e+00,
689,9.60e-01,3.60e+00,
690,1.04e+00,3.60e+00,
691,1.00e+00,3.48e+00,
692,1.00e+00,3.60e+00,
693,1.08e+00,3.48e+00,
694,1.00e+00,3.52e+00,
695,1.08e+00,3.60e+00,
696,1.08e+00,3.52e+00,
697,1.00e+00,3.64e+00,
698,1.00e+00,3.64e+00,
699,1.12e+00,3.52e+00,
700,1.00e+00,3.64e+00,
701,1.08e+00,3.52e+00,
702,1.08e+00,3.56e+00,
703,1.04e+00,3.64e+00,
704,1.04e+00,3.64e+00,
705,1.12e+00,3.56e+00,
706,1.04e+00,3.56e+00,
707,1.12e+00,3.68e+00,
708,1.12e+00,3.56e+00,
709,1.04e+00,3.68e+00,
710,1.04e+00,3.56e+00,
711,1.12e+00,3.68e+00,
712,1.04e+00,3.68e+00,
713,1.12e+00,3.56e+00,
714,1.12e+00,3.56e+00,
715,1.08e+00,3.68e+00,
716,1.12e+00,3.56e+00,
717,1.08e+00,3.68e+00,
718,1.12e+00,3.56e+00,
719,1.08e+00,3.68e+00,
720,1.12e+00,3.56e+00,
721,1.08e+00,3.68e+00,
722,1.12e+00,3.68e+00,
723,1.08e+00,3.56e+00,
724,1.12e+00,3.56e+00,
725,1.08e+00,3.68e+00,
726,1.08e+00,3.56e+00,
727,1.12e+00,3.68e+00,
728,1.12e+00,3.56e+00,
729,1.08e+00,3.68e+00,
730,1.12e+00,3.56e+00,
731,1.08e+00,3.68e+00,
732,1.12e+00,3.68e+00,
733,1.04e+00,3.56e+00,
734,1.12e+00,3.56e+00,
735,1.04e+00,3.68e+00,
736,1.12e+00,3.68e+00,
737,1.04e+00,3.56e+00,
738,1.12e+00,3.56e+00,
739,1.04e+00,3.68e+00,
740,1.12e+00,3.56e+00,
741,1.04e+00,3.68e+00,
742,1.04e+00,3.56e+00,
743,1.12e+00,3.64e+00,
744,1.04e+00,3.64e+00,
745,1.12e+00,3.52e+00,
746,1.04e+00,3.64e+00,
747,1.12e+00,3.52e+00,
748,1.08e+00,3.64e+00,
749,1.04e+00,3.52e+00,
750,1.08e+00,3.52e+00,
751,1.00e+00,3.64e+00,
752,1.08e+00,3.52e+00,
753,1.00e+00,3.64e+00,
754,1.00e+00,3.60e+00,
755,1.08e+00,3.52e+00,
756,1.04e+00,3.60e+00,
757,1.00e+00,3.48e+00,
758,1.04e+00,3.48e+00,
759,9.60e-01,3.60e+00,
760,1.04e+00,3.60e+00,
761,9.60e-01,3.44e+00,
762,1.04e+00,3.44e+00,
763,9.60e-01,3.56e+00,
764,1.00e+00,3.56e+00,
765,9.20e-01,3.40e+00,
766,1.00e+00,3.40e+00,
767,9.20e-01,3.56e+00,
768,9.20e-01,3.48e+00,
769,1.00e+00,3.40e+00,
770,9.20e-01,3.48e+00,
771,9.60e-01,3.40e+00,
772,9.60e-01,3.48e+00,
773,8.80e-01,3.36e+00,
774,8.80e-01,3.36e+00,
775,9.60e-01,3.48e+00,
776,9.20e-01,3.48e+00,
777,8.40e-01,3.32e+00,
778,9.20e-01,3.32e+00,
779,8.40e-01,3.44e+00,
780,8.40e-01,3.40e+00,
781,9.20e-01,3.32e+00,
782,8.40e-01,3.40e+00,
783,8.80e-01,3.28e+00,
784,8.80e-01,3.40e+00,
785,7.60e-01,3.28e+00,
786,8.40e-01,3.36e+00,
787,7.60e-01,3.24e+00,
788,8.00e-01,3.36e+00,
789,7.60e-01,3.24e+00,
790,8.00e-01,3.32e+00,
791,7.20e-01,3.24e+00,
792,7.60e-01,3.32e+00,
793,7.20e-01,3.20e+00,
794,7.60e-01,3.20e+00,
795,6.80e-01,3.32e+00,
796,6.80e-01,3.28e+00,
797,7.20e-01,3.16e+00,
798,7.20e-01,3.16e+00,
799,6.40e-01,3.28e+00,
800,6.40e-01,3.24e+00,
801,7.20e-01,3.12e+00,
802,6.80e-01,3.24e+00,
803,6.00e-01,3.08e+00,
804,6.80e-01,3.20e+00,
805,6.00e-01,3.08e+00,
806,6.40e-01,3.16e+00,
807,5.60e-01,3.04e+00,
808,6.40e-01,3.12e+00,
809,5.60e-01,3.00e+00,
810,6.00e-01,3.12e+00,
811,5.20e-01,3.00e+00,
812,6.00e-01,3.08e+00,
813,5.20e-01,3.00e+00,
814,5.60e-01,3.08e+00,
815,4.80e-01,2.96e+00,
816,4.80e-01,3.04e+00,
817,5.60e-01,2.96e+00,
818,5.20e-01,2.92e+00,
819,4.40e-01,3.04e+00,
820,4.40e-01,3.00e+00,
821,5.20e-01,2.88e+00,
822,4.80e-01,3.00e+00,
823,3.60e-01,2.88e+00,
824,4.80e-01,2.96e+00,
825,3.60e-01,2.84e+00,
826,4.00e-01,2.96e+00,
827,3.20e-01,2.84e+00,
828,3.60e-01,2.92e+00,
829,2.80e-01,2.80e+00,
830,3.60e-01,2.88e+00,
831,2.40e-01,2.80e+00,
832,2.40e-01,2.88e+00,
833,3.60e-01,2.76e+00,
834,3.20e-01,2.84e+00,
835,2.40e-01,2.76e+00,
836,2.80e-01,2.80e+00,
837,2.00e-01,2.68e+00,
838,2.00e-01,2.76e+00,
839,2.80e-01,2.68e+00,
840,2.40e-01,2.76e+00,
841,1.60e-01,2.64e+00,
842,2.40e-01,2.72e+00,
843,1.20e-01,2.60e+00,
844,1.20e-01,2.68e+00,
845,2.00e-01,2.60e+00,
846,1.60e-01,2.68e+00,
847,8.00e-02,2.56e+00,
848,8.00e-02,2.56e+00,
849,1.60e-01,2.64e+00,
850,1.20e-01,2.64e+00,
851,4.00e-02,2.52e+00,
852,4.00e-02,2.60e+00,
853,8.00e-02,2.52e+00,
854,8.00e-02,2.60e+00,
855,-4.00e-02,2.48e+00,
856,0.00e+00,2.48e+00,
857,-8.00e-02,2.56e+00,
858,0.00e+00,2.52e+00,
859,-8.00e-02,2.44e+00,
860,-4.00e-02,2.52e+00,
861,-1.20e-01,2.40e+00,
862,-4.00e-02,2.48e+00,
863,-1.20e-01,2.40e+00,
864,-8.00e-02,2.44e+00,
865,-1.60e-01,2.36e+00,
866,-8.00e-02,2.44e+00,
867,-1.60e-01,2.32e+00,
868,-2.00e-01,2.40e+00,
869,-1.20e-01,2.28e+00,
870,-1.60e-01,2.36e+00,
871,-2.40e-01,2.28e+00,
872,-1.60e-01,2.32e+00,
873,-2.40e-01,2.24e+00,
874,-2.00e-01,2.32e+00,
875,-2.80e-01,2.24e+00,
876,-2.80e-01,2.28e+00,
877,-2.00e-01,2.20e+00,
878,-2.40e-01,2.28e+00,
879,-3.20e-01,2.20e+00,
880,-2.40e-01,2.24e+00,
881,-3.20e-01,2.16e+00,
882,-2.80e-01,2.24e+00,
883,-3.60e-01,2.12e+00,
884,-3.60e-01,2.20e+00,
885,-2.80e-01,2.12e+00,
886,-3.20e-01,2.20e+00,
887,-4.40e-01,2.08e+00,
888,-4.40e-01,2.16e+00,
889,-3.60e-01,2.08e+00,
890,-4.00e-01,2.16e+00,
891,-4.80e-01,2.04e+00,
892,-4.00e-01,2.12e+00,
893,-4.80e-01,2.04e+00,
894,-4.40e-01,2.04e+00,
895,-5.20e-01,2.12e+00,
896,-4.40e-01,2.08e+00,
897,-5.20e-01,1.96e+00,
898,-4.80e-01,2.08e+00,
899,-5.60e-01,1.96e+00,
900,-5.60e-01,2.00e+00,
901,-4.80e-01,1.92e+00,
902,-5.20e-01,2.00e+00,
903,-6.00e-01,1.92e+00,
904,-5.20e-01,1.96e+00,
905,-6.00e-01,1.88e+00,
906,-5.60e-01,1.88e+00,
907,-6.40e-01,1.96e+00,
908,-5.60e-01,1.88e+00,
909,-6.40e-01,1.92e+00,
910,-5.60e-01,1.92e+00,
911,-6.40e-01,1.84e+00,
912,-6.00e-01,1.84e+00,
913,-6.80e-01,1.92e+00,
914,-6.80e-01,1.88e+00,
915,-6.00e-01,1.80e+00,
916,-6.40e-01,1.88e+00,
917,-7.20e-01,1.80e+00,
918,-7.20e-01,1.84e+00,
919,-6.40e-01,1.80e+00,
920,-7.20e-01,1.84e+00,
921,-6.40e-01,1.76e+00,
922,-6.80e-01,1.84e+00,
923,-7.60e-01,1.76e+00,
924,-7.60e-01,1.80e+00,
925,-6.80e-01,1.72e+00,
926,-7.60e-01,1.80e+00,
927,-6.80e-01,1.72e+00,
928,-7.60e-01,1.72e+00,
929,-8.40e-01,1.80e+00,
930,-7.60e-01,1.72e+00,
931,-8.40e-01,1.76e+00,
932,-7.60e-01,1.76e+00,
933,-8.40e-01,1.68e+00,
934,-8.00e-01,1.68e+00,
935,-8.80e-01,1.76e+00,
936,-8.00e-01,1.72e+00,
937,-8.80e-01,1.68e+00,
938,-8.00e-01,1.72e+00,
939,-8.80e-01,1.64e+00,
940,-8.00e-01,1.72e+00,
941,-8.80e-01,1.64e+00,
942,-8.80e-01,1.64e+00,
943,-8.40e-01,1.72e+00,
944,-9.20e-01,1.64e+00,
945,-8.40e-01,1.72e+00,
946,-9.20e-01,1.64e+00,
947,-8.40e-01,1.68e+00,
948,-8.40e-01,1.64e+00,
949,-9.20e-01,1.68e+00,
950,-9.20e-01,1.68e+00,
951,-8.40e-01,1.60e+00,
952,-8.80e-01,1.56e+00,
953,-9.20e-01,1.68e+00,
954,-8.80e-01,1.64e+00,
955,-9.60e-01,1.56e+00,
956,-8.80e-01,1.64e+00,
957,-9.60e-01,1.56e+00,
958,-8.80e-01,1.64e+00,
959,-9.60e-01,1.56e+00,
960,-8.80e-01,1.60e+00,
961,-9.60e-01,1.56e+00,
962,-9.60e-01,1.60e+00,
963,-8.80e-01,1.56e+00,
964,-8.80e-01,1.56e+00,
965,-9.60e-01,1.60e+00,
966,-8.80e-01,1.60e+00,
967,-9.60e-01,1.56e+00,
968,-9.60e-01,1.60e+00,
969,-8.80e-01,1.52e+00,
970,-8.80e-01,1.60e+00,
971,-9.60e-01,1.56e+00,
972,-9.60e-01,1.60e+00,
973,-8.80e-01,1.56e+00,
974,-9.60e-01,1.60e+00,
975,-8.80e-01,1.56e+00,
976,-8.80e-01,1.60e+00,
977,-9.60e-01,1.56e+00,
978,-8.80e-01,1.60e+00,
979,-9.60e-01,1.56e+00,
980,-9.60e-01,1.56e+00,
981,-8.80e-01,1.64e+00,
982,-8.80e-01,1.60e+00,
983,-9.60e-01,1.56e+00,
984,-8.80e-01,1.60e+00,
985,-9.60e-01,1.56e+00,
986,-9.60e-01,1.56e+00,
987,-8.80e-01,1.64e+00,
988,-8.80e-01,1.64e+00,
989,-9.60e-01,1.56e+00,
990,-8.80e-01,1.56e+00,
991,-9.60e-01,1.68e+00,
992,-8.80e-01,1.56e+00,
993,-9.60e-01,1.68e+00,
994,-9.20e-01,1.56e+00,
995,-8.80e-01,1.68e+00,
996,-9.20e-01,1.56e+00,
997,-8.40e-01,1.68e+00,
998,-9.20e-01,1.68e+00,
999,-8.40e-01,1.60e+00,
1000,-8.40e-01,1.64e+00,
1001,-9.20e-01,1.72e+00,
1002,-8.40e-01,1.64e+00,
1003,-9.20e-01,1.72e+00,
1004,-8.40e-01,1.72e+00,
1005,-9.20e-01,1.64e+00,
1006,-8.80e-01,1.64e+00,
1007,-8.00e-01,1.72e+00,
1008,-8.00e-01,1.72e+00,
1009,-8.80e-01,1.68e+00,
1010,-8.80e-01,1.68e+00,
1011,-8.00e-01,1.76e+00,
1012,-8.00e-01,1.68e+00,
1013,-8.80e-01,1.76e+00,
1014,-8.40e-01,1.68e+00,
1015,-7.60e-01,1.76e+00,
1016,-7.60e-01,1.72e+00,
1017,-8.40e-01,1.76e+00,
1018,-7.60e-01,1.72e+00,
1019,-8.40e-01,1.80e+00,
1020,-7.60e-01,1.72e+00,
1021,-8.00e-01,1.80e+00,
1022,-6.80e-01,1.80e+00,
1023,-8.00e-01,1.76e+00,
1024,-8.00e-01,1.76e+00,
1025,-6.80e-01,1.84e+00,
1026,-6.80e-01,1.76e+00,
1027,-7.20e-01,1.84e+00,
1028,-7.20e-01,1.80e+00,
1029,-6.40e-01,1.88e+00,
1030,-7.20e-01,1.80e+00,
1031,-6.40e-01,1.88e+00,
1032,-6.80e-01,1.88e+00,
1033,-6.00e-01,1.80e+00,
1034,-6.80e-01,1.84e+00,
1035,-6.00e-01,1.92e+00,
1036,-6.80e-01,1.92e+00,
1037,-6.00e-01,1.84e+00,
1038,-6.40e-01,1.88e+00,
1039,-5.60e-01,1.96e+00,
1040,-6.40e-01,1.88e+00,
1041,-5.60e-01,1.96e+00,
1042,-6.00e-01,1.96e+00,
1043,-5.20e-01,1.88e+00,
1044,-6.00e-01,1.92e+00,
1045,-5.20e-01,2.00e+00,
1046,-5.60e-01,2.00e+00,
1047,-4.80e-01,1.92e+00,
1048,-5.60e-01,1.96e+00,
1049,-4.80e-01,2.08e+00,
1050,-5.20e-01,2.00e+00,
1051,-4.80e-01,2.08e+00,
1052,-5.20e-01,2.04e+00,
1053,-4.40e-01,2.12e+00,
1054,-4.40e-01,2.04e+00,
1055,-4.80e-01,2.12e+00,
1056,-4.00e-01,2.08e+00,
1057,-4.80e-01,2.16e+00,
1058,-4.80e-01,2.08e+00,
1059,-3.60e-01,2.16e+00,
1060,-4.40e-01,2.12e+00,
1061,-3.60e-01,2.20e+00,
1062,-4.00e-01,2.12e+00,
1063,-3.20e-01,2.20e+00,
1064,-3.60e-01,2.12e+00,
1065,-2.80e-01,2.24e+00,
1066,-3.60e-01,2.24e+00,
1067,-2.40e-01,2.16e+00,
1068,-2.40e-01,2.20e+00,
1069,-3.20e-01,2.28e+00,
1070,-2.80e-01,2.28e+00,
1071,-2.00e-01,2.20e+00,
1072,-2.80e-01,2.24e+00,
1073,-2.00e-01,2.32e+00,
1074,-2.40e-01,2.24e+00,
1075,-1.60e-01,2.36e+00,
1076,-1.60e-01,2.28e+00,
1077,-2.40e-01,2.36e+00,
1078,-2.00e-01,2.28e+00,
1079,-1.20e-01,2.40e+00,
1080,-2.00e-01,2.32e+00,
1081,-1.20e-01,2.44e+00,
1082,-1.60e-01,2.32e+00,
1083,-8.00e-02,2.48e+00,
1084,-1.60e-01,2.40e+00,
1085,-4.00e-02,2.48e+00,
1086,-4.00e-02,2.40e+00,
1087,-1.20e-01,2.52e+00,
1088,-8.00e-02,2.44e+00,
1089,0.00e+00,2.52e+00,
1090,0.00e+00,2.48e+00,
1091,-8.00e-02,2.56e+00,
1092,-4.00e-02,2.48e+00,
1093,4.00e-02,2.60e+00,
1094,-4.00e-02,2.52e+00,
1095,8.00e-02,2.60e+00,
1096,4.00e-02,2.60e+00,
1097,1.20e-01,2.52e+00,
1098,4.00e-02,2.56e+00,
1099,1.20e-01,2.64e+00,
1100,8.00e-02,2.68e+00,
1101,1.60e-01,2.56e+00,
1102,1.20e-01,2.68e+00,
1103,2.00e-01,2.60e+00,
1104,1.20e-01,2.72e+00,
1105,2.00e-01,2.60e+00,
1106,1.60e-01,2.64e+00,
1107,2.40e-01,2.76e+00,
1108,1.60e-01,2.68e+00,
1109,2.40e-01,2.76e+00,
1110,2.00e-01,2.72e+00,
1111,2.80e-01,2.84e+00,
1112,2.80e-01,2.76e+00,
1113,2.00e-01,2.84e+00,
1114,2.40e-01,2.76e+00,
1115,3.20e-01,2.88e+00,
1116,2.80e-01,2.80e+00,
1117,3.60e-01,2.88e+00,
1118,3.60e-01,2.80e+00,
1119,2.80e-01,2.92e+00,
1120,3.20e-01,2.84e+00,
1121,4.00e-01,2.92e+00,
1122,3.20e-01,2.96e+00,
1123,4.00e-01,2.84e+00,
1124,3.60e-01,2.88e+00,
1125,4.40e-01,3.00e+00,
1126,4.00e-01,3.00e+00,
1127,4.80e-01,2.88e+00,
1128,4.40e-01,2.92e+00,
1129,5.20e-01,3.04e+00,
1130,5.20e-01,3.04e+00,
1131,4.40e-01,2.92e+00,
1132,4.80e-01,2.96e+00,
1133,5.60e-01,3.08e+00,
1134,5.60e-01,3.00e+00,
1135,5.20e-01,3.08e+00,
1136,5.20e-01,3.00e+00,
1137,6.00e-01,3.12e+00,
1138,6.00e-01,3.04e+00,
1139,5.60e-01,3.12e+00,
1140,5.60e-01,3.04e+00,
1141,6.40e-01,3.16e+00,
1142,6.40e-01,3.12e+00,
1143,6.00e-01,3.20e+00,
1144,6.00e-01,3.12e+00,
1145,6.80e-01,3.20e+00,
1146,6.80e-01,3.16e+00,
1147,6.40e-01,3.24e+00,
1148,6.40e-01,3.16e+00,
1149,7.20e-01,3.24e+00,
1150,6.80e-01,3.16e+00,
1151,7.20e-01,3.28e+00,
1152,6.80e-01,3.20e+00,
1153,7.60e-01,3.32e+00,
1154,7.60e-01,3.32e+00,
1155,6.80e-01,3.20e+00,
1156,7.20e-01,3.24e+00,
1157,8.00e-01,3.32e+00,
1158,8.00e-01,3.28e+00,
1159,7.20e-01,3.36e+00,
1160,7.60e-01,3.36e+00,
1161,8.40e-01,3.24e+00,
1162,7.60e-01,3.28e+00,
1163,8.80e-01,3.40e+00,
1164,8.00e-01,3.40e+00,
1165,8.80e-01,3.28e+00,
1166,8.40e-01,3.32e+00,
1167,9.20e-01,3.44e+00,
1168,9.20e-01,3.32e+00,
1169,8.40e-01,3.44e+00,
1170,8.80e-01,3.36e+00,
1171,9.20e-01,3.44e+00,
1172,8.80e-01,3.36e+00,
1173,9.60e-01,3.48e+00,
1174,9.60e-01,3.48e+00,
1175,8.80e-01,3.36e+00,
1176,9.20e-01,3.48e+00,
1177,9.60e-01,3.36e+00,
1178,9.20e-01,3.40e+00,
1179,1.00e+00,3.56e+00,
1180,9.20e-01,3.40e+00,
1181,1.00e+00,3.52e+00,
1182,9.60e-01,3.44e+00,
1183,1.00e+00,3.56e+00,
1184,1.00e+00,3.44e+00,
1185,9.60e-01,3.56e+00,
1186,9.60e-01,3.48e+00,
1187,1.04e+00,3.56e+00,
1188,1.04e+00,3.60e+00,
1189,9.60e-01,3.48e+00,
1190,1.04e+00,3.48e+00,
1191,1.00e+00,3.60e+00,
1192,1.00e+00,3.52e+00,
1193,1.08e+00,3.60e+00,
1194,1.00e+00,3.52e+00,
1195,1.08e+00,3.64e+00,
1196,1.08e+00,3.52e+00,
1197,1.00e+00,3.64e+00,
1198,1.08e+00,3.52e+00,
1199,1.00e+00,3.64e+00,
