X,CH1,CH2,Start,Increment,
Sequence,Volt,Volt,-6.000000e-04,1.000000e-06
0,-2.80e-01,-1.60e-02,
1,-2.48e-01,-4.00e-03,
2,-2.64e-01,-1.60e-02,
3,-2.32e-01,-4.00e-03,
4,-2.56e-01,-1.20e-02,
5,-2.16e-01,0.00e+00,
6,-2.40e-01,-1.20e-02,
7,-2.08e-01,0.00e+00,
8,-2.32e-01,-1.20e-02,
9,-1.92e-01,0.00e+00,
10,-2.64e-01,-1.60e-02,
11,-1.36e-01,8.00e-03,
12,-1.60e-01,-1.60e-02,
13,-2.72e-01,8.00e-03,
14,-1.92e-01,-8.00e-03,
15,-1.60e-01,4.00e-03,
16,-1.84e-01,-8.00e-03,
17,-1.52e-01,4.00e-03,
18,-1.76e-01,-8.00e-03,
19,-1.28e-01,4.00e-03,
20,-1.60e-01,4.00e-03,
21,-1.28e-01,-8.00e-03,
22,-1.44e-01,-8.00e-03,
23,-1.12e-01,8.00e-03,
24,-1.44e-01,-4.00e-03,
25,-7.20e-02,8.00e-03,
26,-1.12e-01,-4.00e-03,
27,-8.80e-02,8.00e-03,
28,-1.04e-01,-4.00e-03,
29,-7.20e-02,8.00e-03,
30,-8.80e-02,-4.00e-03,
31,-4.80e-02,8.00e-03,
32,-8.80e-02,-4.00e-03,
33,-4.80e-02,8.00e-03,
34,-4.00e-02,0.00e+00,
35,-7.20e-02,1.20e-02,
36,-5.60e-02,0.00e+00,
37,-1.60e-02,1.20e-02,
38,-5.60e-02,0.00e+00,
39,1.60e-02,1.20e-02,
40,-2.40e-02,0.00e+00,
41,0.00e+00,1.20e-02,
42,-3.20e-02,-4.00e-03,
43,4.80e-02,1.60e-02,
44,-4.80e-02,-4.00e-03,
45,8.00e-02,2.40e-02,
46,1.60e-02,4.00e-03,
47,4.80e-02,1.60e-02,
48,2.40e-02,1.60e-02,
49,5.60e-02,4.00e-03,
50,8.00e-02,1.60e-02,
51,3.20e-02,4.00e-03,
52,4.00e-02,4.00e-03,
53,1.04e-01,2.00e-02,
54,6.40e-02,8.00e-03,
55,9.60e-02,2.00e-02,
56,7.20e-02,8.00e-03,
57,1.12e-01,2.00e-02,
58,8.80e-02,8.00e-03,
59,1.20e-01,2.00e-02,
60,9.60e-02,8.00e-03,
61,1.28e-01,2.40e-02,
62,1.12e-01,2.00e-02,
63,1.44e-01,1.20e-02,
64,1.20e-01,1.20e-02,
65,1.68e-01,2.40e-02,
66,1.36e-01,1.20e-02,
67,1.76e-01,2.40e-02,
68,1.36e-01,2.40e-02,
69,2.00e-01,1.20e-02,
70,1.68e-01,2.40e-02,
71,1.92e-01,1.20e-02,
72,1.76e-01,2.40e-02,
73,2.08e-01,1.60e-02,
74,2.24e-01,1.60e-02,
75,1.84e-01,2.80e-02,
76,1.52e-01,3.20e-02,
77,2.80e-01,8.00e-03,
78,1.60e-01,8.00e-03,
79,2.88e-01,3.60e-02,
80,2.24e-01,2.80e-02,
81,2.56e-01,1.60e-02,
82,2.24e-01,1.60e-02,
83,2.72e-01,3.20e-02,
84,2.48e-01,2.00e-02,
85,2.72e-01,3.20e-02,
86,2.56e-01,2.00e-02,
87,2.88e-01,3.20e-02,
88,2.72e-01,3.20e-02,
89,3.04e-01,2.00e-02,
90,2.80e-01,3.20e-02,
91,3.12e-01,2.00e-02,
92,2.96e-01,3.20e-02,
93,3.20e-01,2.00e-02,
94,2.96e-01,2.40e-02,
95,3.36e-01,3.60e-02,
96,2.96e-01,2.40e-02,
97,3.60e-01,3.60e-02,
98,3.52e-01,3.60e-02,
99,3.12e-01,2.40e-02,
100,3.28e-01,3.60e-02,
101,3.68e-01,2.40e-02,
102,3.44e-01,3.60e-02,
103,3.68e-01,2.40e-02,
104,3.52e-01,3.60e-02,
105,3.84e-01,2.80e-02,
106,3.60e-01,2.80e-02,
107,3.84e-01,4.00e-02,
108,3.60e-01,2.80e-02,
109,4.08e-01,4.00e-02,
110,4.56e-01,5.20e-02,
111,3.28e-01,2.00e-02,
112,3.92e-01,2.80e-02,
113,4.16e-01,4.00e-02,
114,4.00e-01,2.80e-02,
115,4.24e-01,4.00e-02,
116,4.08e-01,4.00e-02,
117,4.32e-01,3.20e-02,
118,4.40e-01,4.00e-02,
119,4.08e-01,3.20e-02,
120,4.16e-01,3.20e-02,
121,4.48e-01,4.40e-02,
122,4.24e-01,3.20e-02,
123,4.56e-01,4.40e-02,
124,4.72e-01,3.20e-02,
125,4.16e-01,4.40e-02,
126,4.40e-01,4.40e-02,
127,4.72e-01,3.20e-02,
128,4.48e-01,4.40e-02,
129,4.72e-01,3.20e-02,
130,4.56e-01,4.40e-02,
131,4.80e-01,3.20e-02,
132,4.80e-01,4.40e-02,
133,4.56e-01,3.20e-02,
134,4.64e-01,4.40e-02,
135,4.88e-01,3.20e-02,
136,4.72e-01,4.40e-02,
137,4.96e-01,3.20e-02,
138,5.04e-01,4.40e-02,
139,4.72e-01,3.60e-02,
140,4.64e-01,4.40e-02,
141,5.36e-01,3.20e-02,
142,4.88e-01,4.40e-02,
143,5.12e-01,3.60e-02,
144,4.80e-01,4.40e-02,
145,5.12e-01,3.60e-02,
146,5.12e-01,3.60e-02,
147,4.88e-01,4.80e-02,
148,5.20e-01,3.60e-02,
149,4.96e-01,4.80e-02,
150,4.88e-01,5.20e-02,
151,5.28e-01,3.20e-02,
152,5.36e-01,3.60e-02,
153,4.88e-01,4.80e-02,
154,4.88e-01,3.60e-02,
155,5.44e-01,5.20e-02,
156,5.28e-01,5.20e-02,
157,5.04e-01,3.60e-02,
158,5.36e-01,5.20e-02,
159,5.04e-01,3.60e-02,
160,5.36e-01,5.20e-02,
161,5.04e-01,3.60e-02,
162,5.04e-01,3.60e-02,
163,5.36e-01,5.20e-02,
164,5.12e-01,3.60e-02,
165,5.44e-01,5.20e-02,
166,5.36e-01,3.60e-02,
167,5.04e-01,5.20e-02,
168,4.88e-01,4.80e-02,
169,5.52e-01,3.60e-02,
170,5.44e-01,3.60e-02,
171,5.04e-01,5.20e-02,
172,5.36e-01,3.60e-02,
173,5.04e-01,5.20e-02,
174,5.36e-01,4.80e-02,
175,5.04e-01,3.60e-02,
176,5.04e-01,3.60e-02,
177,5.36e-01,5.20e-02,
178,5.04e-01,4.80e-02,
179,5.36e-01,3.60e-02,
180,5.44e-01,4.80e-02,
181,4.96e-01,3.60e-02,
182,5.44e-01,3.20e-02,
183,4.88e-01,5.20e-02,
184,5.20e-01,3.60e-02,
185,4.96e-01,4.80e-02,
186,5.20e-01,4.80e-02,
187,4.96e-01,3.60e-02,
188,5.20e-01,3.60e-02,
189,4.88e-01,4.80e-02,
190,5.12e-01,4.80e-02,
191,4.88e-01,3.60e-02,
192,5.12e-01,3.60e-02,
193,4.88e-01,4.80e-02,
194,5.04e-01,3.60e-02,
195,4.80e-01,4.80e-02,
196,4.56e-01,4.40e-02,
197,5.20e-01,3.60e-02,
198,5.04e-01,4.40e-02,
199,4.72e-01,3.60e-02,
200,4.96e-01,4.40e-02,
201,4.64e-01,3.60e-02,
202,4.88e-01,4.40e-02,
203,4.64e-01,3.20e-02,
204,4.56e-01,4.40e-02,
205,4.88e-01,3.20e-02,
206,4.80e-01,4.40e-02,
207,4.48e-01,3.20e-02,
208,4.72e-01,4.40e-02,
209,4.48e-01,3.20e-02,
210,4.40e-01,4.40e-02,
211,4.72e-01,3.20e-02,
212,4.16e-01,4.40e-02,
213,4.72e-01,3.20e-02,
214,4.56e-01,4.40e-02,
215,4.24e-01,3.20e-02,
216,4.48e-01,3.20e-02,
217,4.16e-01,4.40e-02,
218,4.40e-01,4.40e-02,
219,4.08e-01,2.80e-02,
220,4.08e-01,4.40e-02,
221,4.32e-01,2.80e-02,
222,4.24e-01,4.00e-02,
223,3.92e-01,2.80e-02,
224,4.16e-01,4.00e-02,
225,3.76e-01,2.80e-02,
226,3.60e-01,4.00e-02,
227,4.24e-01,2.80e-02,
228,3.92e-01,4.00e-02,
229,3.68e-01,2.80e-02,
230,3.60e-01,4.00e-02,
231,3.92e-01,2.80e-02,
232,3.76e-01,3.60e-02,
233,3.52e-01,2.80e-02,
234,3.68e-01,3.60e-02,
235,3.36e-01,2.40e-02,
236,3.60e-01,2.40e-02,
237,3.28e-01,4.00e-02,
238,3.52e-01,3.60e-02,
239,3.12e-01,2.40e-02,
240,2.88e-01,3.60e-02,
241,3.52e-01,2.40e-02,
242,3.28e-01,3.60e-02,
243,2.96e-01,2.40e-02,
244,3.20e-01,3.20e-02,
245,2.88e-01,2.40e-02,
246,3.12e-01,2.40e-02,
247,2.80e-01,3.60e-02,
248,2.96e-01,3.20e-02,
249,2.72e-01,2.00e-02,
250,2.88e-01,3.20e-02,
251,2.56e-01,2.00e-02,
252,2.72e-01,3.20e-02,
253,2.40e-01,2.00e-02,
254,2.08e-01,2.00e-02,
255,2.80e-01,3.20e-02,
256,2.48e-01,2.00e-02,
257,2.16e-01,2.80e-02,
258,2.40e-01,2.80e-02,
259,2.08e-01,1.60e-02,
260,2.24e-01,2.80e-02,
261,2.00e-01,1.60e-02,
262,2.24e-01,2.80e-02,
263,1.84e-01,1.60e-02,
264,2.00e-01,1.60e-02,
265,1.76e-01,2.80e-02,
266,1.92e-01,1.60e-02,
267,1.60e-01,2.40e-02,
268,1.92e-01,1.20e-02,
269,1.44e-01,2.80e-02,
270,1.28e-01,1.20e-02,
271,1.92e-01,2.40e-02,
272,1.60e-01,2.40e-02,
273,1.20e-01,1.20e-02,
274,1.36e-01,1.20e-02,
275,1.12e-01,2.40e-02,
276,1.28e-01,2.00e-02,
277,9.60e-02,8.00e-03,
278,1.12e-01,2.00e-02,
279,8.80e-02,8.00e-03,
280,1.12e-01,8.00e-03,
281,7.20e-02,2.00e-02,
282,5.60e-02,8.00e-03,
283,9.60e-02,2.00e-02,
284,3.20e-02,2.00e-02,
285,9.60e-02,4.00e-03,
286,6.40e-02,4.00e-03,
287,3.20e-02,2.00e-02,
288,5.60e-02,1.60e-02,
289,2.40e-02,4.00e-03,
290,4.00e-02,4.00e-03,
291,8.00e-03,1.60e-02,
292,2.40e-02,4.00e-03,
293,-8.00e-03,1.60e-02,
294,8.00e-03,0.00e+00,
295,-2.40e-02,1.60e-02,
296,8.00e-03,1.20e-02,
297,-3.20e-02,0.00e+00,
298,-6.40e-02,1.20e-02,
299,8.00e-03,0.00e+00,
300,-2.40e-02,0.00e+00,
301,-5.60e-02,1.20e-02,
302,-4.00e-02,1.20e-02,
303,-7.20e-02,0.00e+00,
304,-5.60e-02,8.00e-03,
305,-8.00e-02,-4.00e-03,
306,-6.40e-02,-4.00e-03,
307,-9.60e-02,8.00e-03,
308,-7.20e-02,-4.00e-03,
309,-1.04e-01,8.00e-03,
310,-8.80e-02,-4.00e-03,
311,-1.28e-01,8.00e-03,
312,-7.20e-02,8.00e-03,
313,-1.68e-01,-1.20e-02,
314,-8.00e-02,1.20e-02,
315,-2.00e-01,-1.20e-02,
316,-1.04e-01,-1.20e-02,
317,-2.00e-01,8.00e-03,
318,-1.04e-01,-1.20e-02,
319,-1.92e-01,4.00e-03,
320,-1.52e-01,-8.00e-03,
321,-1.84e-01,4.00e-03,
322,-1.68e-01,4.00e-03,
323,-2.00e-01,-1.20e-02,
324,-1.76e-01,4.00e-03,
325,-2.16e-01,-1.20e-02,
326,-1.84e-01,0.00e+00,
327,-2.32e-01,-1.20e-02,
328,-1.92e-01,-1.20e-02,
329,-2.40e-01,0.00e+00,
330,-2.00e-01,0.00e+00,
331,-2.48e-01,-1.60e-02,
332,-2.24e-01,0.00e+00,
333,-2.56e-01,-1.60e-02,
334,-2.40e-01,-4.00e-03,
335,-2.64e-01,-1.60e-02,
336,-2.48e-01,-1.60e-02,
337,-2.80e-01,0.00e+00,
338,-2.56e-01,-1.60e-02,
339,-2.96e-01,-4.00e-03,
340,-2.64e-01,-1.60e-02,
341,-3.12e-01,-4.00e-03,
342,-3.12e-01,-1.60e-02,
343,-2.56e-01,-4.00e-03,
344,-2.88e-01,-2.00e-02,
345,-3.20e-01,-4.00e-03,
346,-2.64e-01,-2.40e-02,
347,-3.76e-01,0.00e+00,
348,-2.72e-01,-4.00e-03,
349,-3.76e-01,-2.40e-02,
350,-2.80e-01,-4.00e-03,
351,-3.92e-01,-2.80e-02,
352,-3.28e-01,-2.00e-02,
353,-3.60e-01,-8.00e-03,
354,-3.36e-01,-2.00e-02,
355,-3.76e-01,-8.00e-03,
356,-3.92e-01,-1.20e-02,
357,-3.36e-01,-2.40e-02,
358,-3.60e-01,-1.20e-02,
359,-4.00e-01,-2.40e-02,
360,-4.00e-01,-1.20e-02,
361,-3.60e-01,-2.40e-02,
362,-3.68e-01,-1.20e-02,
363,-4.24e-01,-2.40e-02,
364,-3.76e-01,-2.40e-02,
365,-4.24e-01,-1.20e-02,
366,-3.92e-01,-2.40e-02,
367,-4.24e-01,-1.20e-02,
368,-4.00e-01,-1.20e-02,
369,-4.40e-01,-2.80e-02,
370,-4.56e-01,-1.20e-02,
371,-3.84e-01,-3.20e-02,
372,-4.16e-01,-1.60e-02,
373,-4.48e-01,-2.80e-02,
374,-4.24e-01,-1.60e-02,
375,-4.48e-01,-2.80e-02,
376,-4.32e-01,-1.60e-02,
377,-4.56e-01,-3.20e-02,
378,-4.00e-01,-3.60e-02,
379,-5.04e-01,-8.00e-03,
380,-4.00e-01,-1.60e-02,
381,-5.12e-01,-3.60e-02,
382,-4.08e-01,-4.00e-02,
383,-5.20e-01,-1.20e-02,
384,-4.16e-01,-1.60e-02,
385,-5.20e-01,-3.60e-02,
386,-4.56e-01,-2.00e-02,
387,-4.88e-01,-3.20e-02,
388,-4.88e-01,-2.00e-02,
389,-4.64e-01,-3.20e-02,
390,-4.96e-01,-3.20e-02,
391,-4.64e-01,-1.60e-02,
392,-4.72e-01,-3.20e-02,
393,-5.12e-01,-1.60e-02,
394,-5.12e-01,-2.40e-02,
395,-4.64e-01,-3.20e-02,
396,-5.28e-01,-2.00e-02,
397,-4.64e-01,-3.20e-02,
398,-5.28e-01,-3.20e-02,
399,-4.64e-01,-2.00e-02,
400,-4.80e-01,-3.60e-02,
401,-5.20e-01,-2.40e-02,
402,-4.88e-01,-2.40e-02,
403,-5.20e-01,-3.60e-02,
404,-5.20e-01,-2.40e-02,
405,-4.88e-01,-3.60e-02,
406,-4.96e-01,-2.40e-02,
407,-5.28e-01,-3.60e-02,
408,-5.28e-01,-2.40e-02,
409,-4.96e-01,-3.60e-02,
410,-5.28e-01,-2.40e-02,
411,-4.96e-01,-3.60e-02,
412,-4.64e-01,-4.00e-02,
413,-5.76e-01,-2.00e-02,
414,-5.84e-01,-4.00e-02,
415,-4.56e-01,-1.60e-02,
416,-5.68e-01,-2.00e-02,
417,-4.56e-01,-4.00e-02,
418,-5.68e-01,-3.60e-02,
419,-4.88e-01,-2.00e-02,
420,-5.04e-01,-2.40e-02,
421,-5.28e-01,-3.60e-02,
422,-5.28e-01,-2.40e-02,
423,-4.96e-01,-3.60e-02,
424,-5.28e-01,-2.40e-02,
425,-4.96e-01,-3.60e-02,
426,-4.88e-01,-2.40e-02,
427,-5.36e-01,-3.60e-02,
428,-5.44e-01,-2.40e-02,
429,-4.80e-01,-3.60e-02,
430,-4.88e-01,-2.40e-02,
431,-5.36e-01,-3.60e-02,
432,-4.88e-01,-2.40e-02,
433,-5.28e-01,-3.60e-02,
434,-4.88e-01,-2.40e-02,
435,-5.28e-01,-3.60e-02,
436,-4.88e-01,-3.60e-02,
437,-5.20e-01,-2.40e-02,
438,-4.80e-01,-2.40e-02,
439,-5.20e-01,-3.60e-02,
440,-5.12e-01,-2.40e-02,
441,-4.72e-01,-3.20e-02,
442,-5.28e-01,-2.00e-02,
443,-4.56e-01,-3.60e-02,
444,-4.32e-01,-3.60e-02,
445,-5.28e-01,-1.60e-02,
446,-5.44e-01,-1.20e-02,
447,-4.24e-01,-4.00e-02,
448,-5.36e-01,-3.60e-02,
449,-4.24e-01,-1.60e-02,
450,-4.16e-01,-3.60e-02,
451,-5.28e-01,-1.60e-02,
452,-4.80e-01,-1.60e-02,
453,-4.48e-01,-3.20e-02,
454,-4.24e-01,-1.60e-02,
455,-4.88e-01,-3.20e-02,
456,-4.88e-01,-1.60e-02,
457,-4.24e-01,-3.20e-02,
458,-4.24e-01,-1.60e-02,
459,-4.72e-01,-3.20e-02,
460,-4.72e-01,-1.60e-02,
461,-4.08e-01,-3.20e-02,
462,-4.08e-01,-2.80e-02,
463,-4.56e-01,-1.20e-02,
464,-4.48e-01,-1.60e-02,
465,-4.08e-01,-2.80e-02,
466,-4.32e-01,-2.40e-02,
467,-4.08e-01,-1.60e-02,
468,-4.32e-01,-2.40e-02,
469,-4.00e-01,-1.20e-02,
470,-4.40e-01,-2.40e-02,
471,-3.68e-01,-1.20e-02,
472,-3.60e-01,-1.20e-02,
473,-4.24e-01,-2.40e-02,
474,-4.08e-01,-1.20e-02,
475,-3.76e-01,-2.40e-02,
476,-4.00e-01,-2.40e-02,
477,-3.68e-01,-1.20e-02,
478,-4.24e-01,-2.80e-02,
479,-3.12e-01,-4.00e-03,
480,-4.16e-01,-4.00e-03,
481,-3.04e-01,-3.20e-02,
482,-4.08e-01,-2.80e-02,
483,-2.96e-01,-4.00e-03,
484,-3.04e-01,-2.40e-02,
485,-4.00e-01,-8.00e-03,
486,-3.68e-01,-2.00e-02,
487,-3.12e-01,-8.00e-03,
488,-3.36e-01,-2.00e-02,
489,-3.12e-01,-8.00e-03,
490,-3.28e-01,-2.00e-02,
491,-2.96e-01,-8.00e-03,
492,-3.28e-01,-2.00e-02,
493,-2.72e-01,-4.00e-03,
494,-3.20e-01,-2.00e-02,
495,-2.64e-01,-4.00e-03,
496,-3.12e-01,-1.60e-02,
497,-2.56e-01,-4.00e-03,
498,-2.88e-01,-4.00e-03,
499,-2.56e-01,-1.60e-02,
500,-2.88e-01,-4.00e-03,
501,-2.24e-01,-1.60e-02,
502,-2.40e-01,-4.00e-03,
503,-2.64e-01,-1.20e-02,
504,-2.56e-01,-1.20e-02,
505,-2.16e-01,0.00e+00,
506,-2.40e-01,-1.20e-02,
507,-2.08e-01,0.00e+00,
508,-2.32e-01,0.00e+00,
509,-1.92e-01,-1.20e-02,
510,-1.84e-01,-1.20e-02,
511,-2.24e-01,0.00e+00,
512,-2.56e-01,-1.60e-02,
513,-1.36e-01,4.00e-03,
514,-2.32e-01,-1.60e-02,
515,-1.20e-01,8.00e-03,
516,-2.32e-01,8.00e-03,
517,-1.12e-01,-1.60e-02,
518,-1.68e-01,-8.00e-03,
519,-1.36e-01,4.00e-03,
520,-1.60e-01,-8.00e-03,
521,-1.28e-01,4.00e-03,
522,-1.44e-01,4.00e-03,
523,-1.12e-01,-8.00e-03,
524,-1.36e-01,-8.00e-03,
525,-8.80e-02,8.00e-03,
526,-1.28e-01,-8.00e-03,
527,-7.20e-02,8.00e-03,
528,-1.20e-01,8.00e-03,
529,-4.80e-02,-8.00e-03,
530,-5.60e-02,8.00e-03,
531,-1.04e-01,-8.00e-03,
532,-8.00e-02,8.00e-03,
533,-4.80e-02,-4.00e-03,
534,-6.40e-02,8.00e-03,
535,-3.20e-02,0.00e+00,
536,-5.60e-02,0.00e+00,
537,-2.40e-02,1.20e-02,
538,-4.00e-02,1.20e-02,
539,-8.00e-03,0.00e+00,
540,-3.20e-02,0.00e+00,
541,0.00e+00,1.20e-02,
542,-2.40e-02,1.20e-02,
543,3.20e-02,0.00e+00,
544,-4.00e-02,-4.00e-03,
545,7.20e-02,2.00e-02,
546,-4.00e-02,0.00e+00,
547,8.00e-02,2.00e-02,
548,-1.60e-02,0.00e+00,
549,9.60e-02,2.40e-02,
550,-8.00e-03,0.00e+00,
551,1.04e-01,2.00e-02,
552,5.60e-02,1.60e-02,
553,8.00e-02,4.00e-03,
554,6.40e-02,8.00e-03,
555,9.60e-02,2.00e-02,
556,7.20e-02,2.00e-02,
557,1.12e-01,8.00e-03,
558,8.00e-02,8.00e-03,
559,1.36e-01,2.00e-02,
560,8.80e-02,8.00e-03,
561,1.44e-01,2.00e-02,
562,1.04e-01,8.00e-03,
563,1.52e-01,2.40e-02,
564,1.28e-01,1.20e-02,
565,1.60e-01,2.40e-02,
566,1.44e-01,1.20e-02,
567,1.68e-01,2.40e-02,
568,1.60e-01,2.40e-02,
569,1.84e-01,1.20e-02,
570,1.92e-01,1.20e-02,
571,1.60e-01,2.40e-02,
572,1.60e-01,1.20e-02,
573,2.32e-01,2.80e-02,
574,1.92e-01,1.60e-02,
575,2.16e-01,2.80e-02,
576,2.00e-01,1.60e-02,
577,2.32e-01,2.80e-02,
578,1.68e-01,3.20e-02,
579,2.80e-01,8.00e-03,
580,1.68e-01,1.20e-02,
581,3.04e-01,3.20e-02,
582,1.92e-01,3.60e-02,
583,3.04e-01,1.20e-02,
584,2.48e-01,2.00e-02,
585,2.88e-01,3.20e-02,
586,3.04e-01,2.00e-02,
587,2.48e-01,3.20e-02,
588,2.72e-01,2.00e-02,
589,3.04e-01,3.20e-02,
590,2.72e-01,3.20e-02,
591,3.28e-01,2.00e-02,
592,2.80e-01,2.00e-02,
593,3.36e-01,3.60e-02,
594,2.96e-01,2.40e-02,
595,3.44e-01,3.60e-02,
596,3.52e-01,2.40e-02,
597,3.04e-01,3.60e-02,
598,3.68e-01,2.40e-02,
599,3.20e-01,3.60e-02,
600,3.28e-01,3.60e-02,
601,3.84e-01,2.40e-02,
602,3.44e-01,3.60e-02,
603,3.68e-01,2.40e-02,
604,3.44e-01,3.60e-02,
605,3.84e-01,2.40e-02,
606,3.92e-01,2.80e-02,
607,3.52e-01,4.00e-02,
608,3.68e-01,2.80e-02,
609,4.00e-01,4.00e-02,
610,4.48e-01,2.00e-02,
611,3.36e-01,5.20e-02,
612,3.36e-01,4.40e-02,
613,4.56e-01,2.40e-02,
614,3.60e-01,2.40e-02,
615,4.64e-01,4.80e-02,
616,4.56e-01,4.40e-02,
617,3.60e-01,2.40e-02,
618,4.16e-01,4.00e-02,
619,4.40e-01,3.20e-02,
620,4.48e-01,3.20e-02,
621,4.16e-01,4.40e-02,
622,4.56e-01,3.20e-02,
623,4.24e-01,4.40e-02,
624,4.24e-01,3.20e-02,
625,4.80e-01,4.40e-02,
626,4.80e-01,4.40e-02,
627,4.32e-01,3.20e-02,
628,4.88e-01,4.40e-02,
629,4.32e-01,3.20e-02,
630,4.32e-01,4.40e-02,
631,4.96e-01,3.20e-02,
632,4.56e-01,3.20e-02,
633,4.88e-01,4.40e-02,
634,4.88e-01,4.40e-02,
635,4.64e-01,3.20e-02,
636,4.64e-01,4.40e-02,
637,5.04e-01,3.60e-02,
638,4.72e-01,3.60e-02,
639,5.12e-01,4.80e-02,
640,4.80e-01,3.60e-02,
641,5.12e-01,5.20e-02,
642,4.72e-01,4.80e-02,
643,5.12e-01,3.60e-02,
644,5.60e-01,5.60e-02,
645,4.48e-01,2.80e-02,
646,5.60e-01,5.20e-02,
647,4.48e-01,2.80e-02,
648,5.60e-01,2.80e-02,
649,4.48e-01,5.60e-02,
650,5.20e-01,4.00e-02,
651,4.96e-01,5.20e-02,
652,4.96e-01,5.20e-02,
653,5.28e-01,3.60e-02,
654,5.04e-01,3.60e-02,
655,5.28e-01,5.20e-02,
656,4.96e-01,3.60e-02,
657,5.52e-01,5.20e-02,
658,5.52e-01,3.60e-02,
659,4.80e-01,5.20e-02,
660,4.96e-01,5.20e-02,
661,5.52e-01,3.60e-02,
662,5.52e-01,5.20e-02,
663,5.04e-01,3.60e-02,
664,5.36e-01,3.60e-02,
665,5.04e-01,5.20e-02,
666,5.36e-01,5.20e-02,
667,5.12e-01,3.60e-02,
668,5.36e-01,5.20e-02,
669,5.12e-01,3.60e-02,
670,5.44e-01,3.60e-02,
671,5.04e-01,5.20e-02,
672,4.88e-01,5.20e-02,
673,5.68e-01,3.60e-02,
674,5.04e-01,4.80e-02,
675,5.36e-01,3.60e-02,
676,5.68e-01,3.60e-02,
677,4.56e-01,5.60e-02,
678,5.76e-01,5.20e-02,
679,4.64e-01,3.20e-02,
680,5.60e-01,3.20e-02,
681,4.64e-01,5.60e-02,
682,5.28e-01,3.60e-02,
683,4.96e-01,5.20e-02,
684,4.96e-01,3.60e-02,
685,5.20e-01,4.80e-02,
686,4.88e-01,3.60e-02,
687,5.28e-01,4.80e-02,
688,4.80e-01,4.80e-02,
689,5.44e-01,3.60e-02,
690,5.36e-01,4.80e-02,
691,4.72e-01,3.20e-02,
692,5.28e-01,3.60e-02,
693,4.80e-01,4.80e-02,
694,5.20e-01,3.60e-02,
695,4.72e-01,5.20e-02,
696,4.80e-01,4.40e-02,
697,5.04e-01,3.20e-02,
698,4.96e-01,4.40e-02,
699,4.72e-01,3.20e-02,
700,4.96e-01,4.40e-02,
701,4.64e-01,3.20e-02,
702,4.56e-01,4.40e-02,
703,5.12e-01,3.20e-02,
704,4.88e-01,4.40e-02,
705,4.56e-01,3.20e-02,
706,4.80e-01,4.40e-02,
707,4.48e-01,3.20e-02,
708,4.72e-01,3.20e-02,
709,4.40e-01,4.40e-02,
710,4.96e-01,4.40e-02,
711,4.00e-01,2.80e-02,
712,4.56e-01,4.40e-02,
713,4.32e-01,3.20e-02,
714,4.56e-01,3.20e-02,
715,4.16e-01,4.40e-02,
716,4.56e-01,3.20e-02,
717,4.00e-01,4.40e-02,
718,4.40e-01,4.00e-02,
719,4.08e-01,3.20e-02,
720,4.08e-01,4.00e-02,
721,4.32e-01,2.80e-02,
722,4.24e-01,4.00e-02,
723,4.00e-01,2.80e-02,
724,4.32e-01,4.00e-02,
725,3.76e-01,2.80e-02,
726,4.08e-01,4.00e-02,
727,3.76e-01,2.80e-02,
728,4.00e-01,4.00e-02,
729,3.60e-01,2.80e-02,
730,3.44e-01,2.80e-02,
731,4.00e-01,4.00e-02,
732,3.76e-01,3.60e-02,
733,3.52e-01,2.40e-02,
734,3.68e-01,3.60e-02,
735,3.36e-01,2.40e-02,
736,3.60e-01,3.60e-02,
737,3.28e-01,2.40e-02,
738,3.52e-01,3.60e-02,
739,3.12e-01,2.40e-02,
740,3.36e-01,2.40e-02,
741,3.04e-01,3.60e-02,
742,3.28e-01,2.40e-02,
743,2.96e-01,3.20e-02,
744,3.52e-01,3.60e-02,
745,2.56e-01,2.00e-02,
746,3.36e-01,3.20e-02,
747,2.72e-01,2.00e-02,
748,2.96e-01,3.20e-02,
749,2.72e-01,2.00e-02,
750,2.88e-01,3.20e-02,
751,2.56e-01,2.00e-02,
752,2.72e-01,2.00e-02,
753,2.40e-01,3.20e-02,
754,2.56e-01,2.00e-02,
755,2.32e-01,3.20e-02,
756,2.56e-01,3.20e-02,
757,2.16e-01,1.60e-02,
758,2.00e-01,2.80e-02,
759,2.48e-01,1.60e-02,
760,1.76e-01,2.80e-02,
761,2.48e-01,1.60e-02,
762,2.16e-01,1.60e-02,
763,1.84e-01,2.80e-02,
764,2.00e-01,2.40e-02,
765,1.76e-01,1.60e-02,
766,1.92e-01,2.40e-02,
767,1.60e-01,1.20e-02,
768,1.84e-01,2.40e-02,
769,1.44e-01,1.20e-02,
770,1.68e-01,2.40e-02,
771,1.36e-01,1.20e-02,
772,1.68e-01,2.40e-02,
773,1.20e-01,8.00e-03,
774,8.80e-02,1.20e-02,
775,1.52e-01,2.40e-02,
776,1.52e-01,8.00e-03,
777,6.40e-02,2.80e-02,
778,1.12e-01,2.00e-02,
779,8.00e-02,8.00e-03,
780,1.04e-01,8.00e-03,
781,7.20e-02,2.00e-02,
782,8.80e-02,8.00e-03,
783,5.60e-02,2.00e-02,
784,8.00e-02,1.60e-02,
785,4.80e-02,4.00e-03,
786,6.40e-02,1.60e-02,
787,2.40e-02,4.00e-03,
788,5.60e-02,1.60e-02,
789,0.00e+00,4.00e-03,
790,4.00e-02,1.60e-02,
791,0.00e+00,4.00e-03,
792,3.20e-02,1.60e-02,
793,-8.00e-03,0.00e+00,
794,8.00e-03,4.00e-03,
795,-2.40e-02,1.60e-02,
796,0.00e+00,1.20e-02,
797,-3.20e-02,0.00e+00,
798,-1.60e-02,0.00e+00,
799,-4.80e-02,1.20e-02,
800,-3.20e-02,0.00e+00,
801,-7.20e-02,1.20e-02,
802,-9.60e-02,-4.00e-03,
803,-2.40e-02,1.20e-02,
804,-4.80e-02,0.00e+00,
805,-8.80e-02,1.20e-02,
806,-5.60e-02,8.00e-03,
807,-9.60e-02,-4.00e-03,
808,-7.20e-02,8.00e-03,
809,-1.12e-01,-4.00e-03,
810,-8.80e-02,8.00e-03,
811,-1.28e-01,-8.00e-03,
812,-1.04e-01,4.00e-03,
813,-1.36e-01,-8.00e-03,
814,-1.20e-01,4.00e-03,
815,-1.52e-01,-8.00e-03,
816,-1.20e-01,-8.00e-03,
817,-1.68e-01,4.00e-03,
818,-1.84e-01,4.00e-03,
819,-1.12e-01,-8.00e-03,
820,-1.52e-01,-8.00e-03,
821,-1.92e-01,4.00e-03,
822,-1.68e-01,4.00e-03,
823,-2.00e-01,-1.20e-02,
824,-1.76e-01,0.00e+00,
825,-2.16e-01,-1.20e-02,
826,-1.92e-01,0.00e+00,
827,-2.16e-01,-1.20e-02,
828,-2.00e-01,-1.20e-02,
829,-2.32e-01,0.00e+00,
830,-2.48e-01,-1.20e-02,
831,-2.00e-01,0.00e+00,
832,-2.80e-01,0.00e+00,
833,-2.08e-01,-1.60e-02,
834,-2.40e-01,-4.00e-03,
835,-2.72e-01,-1.20e-02,
836,-2.48e-01,-4.00e-03,
837,-2.88e-01,-1.60e-02,
838,-2.56e-01,-1.60e-02,
839,-2.96e-01,0.00e+00,
840,-2.72e-01,-1.60e-02,
841,-3.04e-01,-4.00e-03,
842,-2.72e-01,-1.60e-02,
843,-3.12e-01,-4.00e-03,
844,-2.96e-01,-1.60e-02,
845,-3.28e-01,-8.00e-03,
846,-3.36e-01,-2.00e-02,
847,-2.88e-01,-4.00e-03,
848,-3.12e-01,-8.00e-03,
849,-3.44e-01,-2.00e-02,
850,-3.20e-01,-2.00e-02,
851,-3.60e-01,-8.00e-03,
852,-3.36e-01,-2.00e-02,
853,-3.60e-01,-8.00e-03,
854,-3.36e-01,-2.00e-02,
855,-3.68e-01,-8.00e-03,
856,-3.52e-01,-1.20e-02,
857,-3.84e-01,-2.40e-02,
858,-3.60e-01,-1.20e-02,
859,-3.92e-01,-2.40e-02,
860,-4.16e-01,-1.20e-02,
861,-3.60e-01,-2.40e-02,
862,-3.76e-01,-1.20e-02,
863,-4.08e-01,-2.40e-02,
864,-3.84e-01,-2.40e-02,
865,-4.16e-01,-1.20e-02,
866,-3.92e-01,-2.40e-02,
867,-4.24e-01,-1.20e-02,
868,-3.92e-01,-2.40e-02,
869,-4.32e-01,-1.60e-02,
870,-4.08e-01,-1.20e-02,
871,-4.48e-01,-2.80e-02,
872,-4.08e-01,-2.80e-02,
873,-4.56e-01,-1.60e-02,
874,-4.16e-01,-1.20e-02,
875,-4.72e-01,-3.20e-02,
876,-4.32e-01,-2.80e-02,
877,-4.56e-01,-1.60e-02,
878,-4.40e-01,-1.60e-02,
879,-4.64e-01,-3.20e-02,
880,-4.40e-01,-1.60e-02,
881,-4.72e-01,-3.20e-02,
882,-4.48e-01,-1.60e-02,
883,-4.72e-01,-3.20e-02,
884,-4.56e-01,-1.60e-02,
885,-4.80e-01,-3.20e-02,
886,-4.56e-01,-3.20e-02,
887,-4.88e-01,-2.00e-02,
888,-4.56e-01,-3.20e-02,
889,-4.96e-01,-1.60e-02,
890,-5.20e-01,-2.00e-02,
891,-4.56e-01,-3.20e-02,
892,-4.72e-01,-2.00e-02,
893,-5.04e-01,-3.20e-02,
894,-4.72e-01,-3.20e-02,
895,-5.12e-01,-2.00e-02,
896,-5.12e-01,-2.40e-02,
897,-4.80e-01,-3.20e-02,
898,-5.12e-01,-2.40e-02,
899,-4.80e-01,-3.20e-02,
900,-5.20e-01,-2.40e-02,
901,-4.80e-01,-3.20e-02,
902,-5.20e-01,-2.40e-02,
903,-4.80e-01,-3.60e-02,
904,-4.80e-01,-3.60e-02,
905,-5.44e-01,-2.00e-02,
906,-4.96e-01,-2.40e-02,
907,-5.28e-01,-3.60e-02,
908,-4.96e-01,-3.60e-02,
909,-5.28e-01,-2.00e-02,
910,-5.04e-01,-2.40e-02,
911,-5.36e-01,-3.60e-02,
912,-5.04e-01,-2.40e-02,
913,-5.28e-01,-3.60e-02,
914,-5.28e-01,-2.40e-02,
915,-4.96e-01,-3.60e-02,
916,-4.96e-01,-2.40e-02,
917,-5.36e-01,-3.60e-02,
918,-5.52e-01,-2.40e-02,
919,-4.88e-01,-3.60e-02,
920,-5.04e-01,-2.40e-02,
921,-5.36e-01,-3.60e-02,
922,-5.04e-01,-2.40e-02,
923,-5.28e-01,-3.60e-02,
924,-5.28e-01,-2.40e-02,
925,-4.96e-01,-3.60e-02,
926,-5.04e-01,-2.40e-02,
927,-5.28e-01,-3.60e-02,
928,-5.28e-01,-2.40e-02,
929,-4.96e-01,-3.60e-02,
930,-5.36e-01,-2.40e-02,
931,-4.80e-01,-3.60e-02,
932,-5.44e-01,-3.60e-02,
933,-4.72e-01,-2.00e-02,
934,-5.36e-01,-1.60e-02,
935,-4.56e-01,-3.60e-02,
936,-4.48e-01,-2.00e-02,
937,-5.60e-01,-4.00e-02,
938,-4.80e-01,-3.60e-02,
939,-5.12e-01,-2.40e-02,
940,-5.12e-01,-3.60e-02,
941,-4.72e-01,-2.00e-02,
942,-5.04e-01,-2.40e-02,
943,-4.72e-01,-3.20e-02,
944,-4.64e-01,-3.20e-02,
945,-5.04e-01,-2.00e-02,
946,-4.56e-01,-1.60e-02,
947,-5.28e-01,-3.60e-02,
948,-4.96e-01,-1.60e-02,
949,-4.56e-01,-3.20e-02,
950,-4.88e-01,-3.20e-02,
951,-4.56e-01,-1.60e-02,
952,-4.80e-01,-1.60e-02,
953,-4.48e-01,-3.20e-02,
954,-4.72e-01,-2.80e-02,
955,-4.48e-01,-1.60e-02,
956,-4.72e-01,-1.60e-02,
957,-4.32e-01,-3.20e-02,
958,-4.32e-01,-1.60e-02,
959,-4.64e-01,-3.20e-02,
960,-4.64e-01,-3.20e-02,
961,-4.16e-01,-1.60e-02,
962,-4.08e-01,-2.80e-02,
963,-4.72e-01,-1.20e-02,
964,-4.40e-01,-1.60e-02,
965,-4.16e-01,-2.80e-02,
966,-4.40e-01,-2.40e-02,
967,-4.08e-01,-1.20e-02,
968,-3.68e-01,-1.20e-02,
969,-4.64e-01,-3.20e-02,
970,-3.60e-01,-3.60e-02,
971,-4.64e-01,-1.20e-02,
972,-4.08e-01,-2.40e-02,
973,-3.84e-01,-1.20e-02,
974,-4.08e-01,-2.40e-02,
975,-3.68e-01,-1.20e-02,
976,-3.52e-01,-2.40e-02,
977,-4.16e-01,-1.20e-02,
978,-3.52e-01,-2.40e-02,
979,-3.92e-01,-1.20e-02,
980,-3.76e-01,-1.20e-02,
981,-3.44e-01,-2.40e-02,
982,-3.68e-01,-2.00e-02,
983,-3.36e-01,-8.00e-03,
984,-3.52e-01,-2.00e-02,
985,-3.28e-01,-1.20e-02,
986,-3.44e-01,-2.00e-02,
987,-3.20e-01,-8.00e-03,
988,-3.44e-01,-2.00e-02,
989,-2.96e-01,-8.00e-03,
990,-2.72e-01,-2.00e-02,
991,-3.68e-01,-8.00e-03,
992,-3.20e-01,-8.00e-03,
993,-2.88e-01,-2.00e-02,
994,-3.12e-01,-1.60e-02,
995,-2.80e-01,-4.00e-03,
996,-2.96e-01,-1.60e-02,
997,-2.64e-01,-4.00e-03,
998,-2.88e-01,-1.60e-02,
999,-2.56e-01,-4.00e-03,
1000,-2.08e-01,-4.00e-03,
1001,-3.04e-01,-2.00e-02,
1002,-2.00e-01,-2.00e-02,
1003,-2.96e-01,0.00e+00,
1004,-2.72e-01,-1.60e-02,
1005,-2.00e-01,0.00e+00,
1006,-2.40e-01,-1.20e-02,
1007,-2.08e-01,0.00e+00,
1008,-2.24e-01,-1.20e-02,
1009,-2.00e-01,0.00e+00,
1010,-2.16e-01,-1.20e-02,
1011,-1.84e-01,0.00e+00,
1012,-2.00e-01,-1.20e-02,
1013,-1.76e-01,4.00e-03,
1014,-1.92e-01,-1.20e-02,
1015,-1.60e-01,4.00e-03,
1016,-1.76e-01,-8.00e-03,
1017,-1.52e-01,4.00e-03,
1018,-1.92e-01,-8.00e-03,
1019,-1.20e-01,4.00e-03,
1020,-1.68e-01,-8.00e-03,
1021,-1.28e-01,8.00e-03,
1022,-1.44e-01,4.00e-03,
1023,-1.12e-01,-8.00e-03,
1024,-1.36e-01,4.00e-03,
1025,-9.60e-02,-8.00e-03,
1026,-1.12e-01,-4.00e-03,
1027,-8.80e-02,8.00e-03,
1028,-1.04e-01,-4.00e-03,
1029,-7.20e-02,8.00e-03,
1030,-8.80e-02,-4.00e-03,
1031,-6.40e-02,8.00e-03,
1032,-8.80e-02,8.00e-03,
1033,-3.20e-02,-4.00e-03,
1034,0.00e+00,1.60e-02,
1035,-1.04e-01,-8.00e-03,
1036,-8.80e-02,1.60e-02,
1037,1.60e-02,-8.00e-03,
1038,-4.00e-02,0.00e+00,
1039,-8.00e-03,1.20e-02,
1040,-3.20e-02,1.20e-02,
1041,0.00e+00,0.00e+00,
1042,-1.60e-02,1.20e-02,
1043,1.60e-02,0.00e+00,
1044,-8.00e-03,4.00e-03,
1045,3.20e-02,1.60e-02,
1046,8.00e-03,4.00e-03,
1047,4.80e-02,1.60e-02,
1048,0.00e+00,4.00e-03,
1049,7.20e-02,1.60e-02,
1050,4.00e-02,1.60e-02,
1051,7.20e-02,4.00e-03,
1052,5.60e-02,1.60e-02,
1053,8.00e-02,4.00e-03,
1054,6.40e-02,8.00e-03,
1055,9.60e-02,2.00e-02,
1056,8.00e-02,8.00e-03,
1057,1.12e-01,2.00e-02,
1058,8.80e-02,2.00e-02,
1059,1.20e-01,8.00e-03,
1060,1.36e-01,2.00e-02,
1061,9.60e-02,8.00e-03,
1062,9.60e-02,1.20e-02,
1063,1.60e-01,2.40e-02,
1064,1.28e-01,1.20e-02,
1065,1.60e-01,2.40e-02,
1066,2.08e-01,1.20e-02,
1067,1.12e-01,2.80e-02,
1068,1.12e-01,4.00e-03,
1069,2.24e-01,3.20e-02,
1070,1.36e-01,2.80e-02,
1071,2.32e-01,8.00e-03,
1072,1.76e-01,2.40e-02,
1073,2.08e-01,1.20e-02,
1074,2.32e-01,1.60e-02,
1075,1.84e-01,2.80e-02,
1076,1.68e-01,1.60e-02,
1077,2.56e-01,2.80e-02,
1078,2.16e-01,1.60e-02,
1079,2.40e-01,2.80e-02,
1080,2.24e-01,2.80e-02,
1081,2.56e-01,1.60e-02,
1082,2.32e-01,1.60e-02,
1083,2.64e-01,3.20e-02,
1084,2.40e-01,3.20e-02,
1085,2.80e-01,1.60e-02,
1086,2.56e-01,3.20e-02,
1087,2.88e-01,2.00e-02,
1088,2.72e-01,2.00e-02,
1089,3.04e-01,3.20e-02,
1090,2.72e-01,3.20e-02,
1091,3.20e-01,2.00e-02,
1092,2.72e-01,3.20e-02,
1093,3.36e-01,2.00e-02,
1094,3.04e-01,2.00e-02,
1095,3.28e-01,3.60e-02,
1096,3.12e-01,3.20e-02,
1097,3.44e-01,2.40e-02,
1098,3.20e-01,2.40e-02,
1099,3.52e-01,3.60e-02,
1100,3.04e-01,1.60e-02,
1101,4.00e-01,4.40e-02,
1102,3.04e-01,4.40e-02,
1103,4.08e-01,1.60e-02,
1104,3.84e-01,3.60e-02,
1105,3.44e-01,2.40e-02,
1106,3.28e-01,3.60e-02,
1107,4.00e-01,2.40e-02,
1108,3.68e-01,4.00e-02,
1109,3.92e-01,2.80e-02,
1110,4.16e-01,4.00e-02,
1111,3.76e-01,2.40e-02,
1112,3.92e-01,2.80e-02,
1113,4.16e-01,4.00e-02,
1114,4.00e-01,2.80e-02,
1115,4.24e-01,4.00e-02,
1116,4.08e-01,4.00e-02,
1117,4.32e-01,2.80e-02,
1118,4.08e-01,4.00e-02,
1119,4.48e-01,2.80e-02,
1120,4.08e-01,3.20e-02,
1121,4.72e-01,4.40e-02,
1122,4.64e-01,3.20e-02,
1123,4.24e-01,4.40e-02,
1124,4.40e-01,4.40e-02,
1125,4.64e-01,3.20e-02,
1126,4.40e-01,3.20e-02,
1127,4.72e-01,4.40e-02,
1128,4.48e-01,4.40e-02,
1129,4.72e-01,3.20e-02,
1130,4.56e-01,4.40e-02,
1131,4.80e-01,3.20e-02,
1132,5.20e-01,4.40e-02,
1133,4.16e-01,2.80e-02,
1134,4.24e-01,5.20e-02,
1135,5.36e-01,2.80e-02,
1136,5.28e-01,2.80e-02,
1137,4.24e-01,5.20e-02,
1138,4.72e-01,3.60e-02,
1139,5.04e-01,4.40e-02,
1140,4.80e-01,4.40e-02,
1141,5.04e-01,3.20e-02,
1142,4.80e-01,4.40e-02,
1143,5.20e-01,3.60e-02,
1144,4.88e-01,3.60e-02,
1145,5.12e-01,4.80e-02,
1146,4.88e-01,3.60e-02,
1147,5.36e-01,4.80e-02,
1148,4.64e-01,3.60e-02,
1149,5.44e-01,5.20e-02,
1150,5.20e-01,4.80e-02,
1151,4.96e-01,3.60e-02,
1152,4.96e-01,4.00e-02,
1153,5.28e-01,4.80e-02,
1154,5.04e-01,3.60e-02,
1155,5.28e-01,5.20e-02,
1156,4.96e-01,4.80e-02,
1157,5.36e-01,3.60e-02,
1158,5.04e-01,3.60e-02,
1159,5.36e-01,5.20e-02,
1160,5.12e-01,5.20e-02,
1161,5.36e-01,3.60e-02,
1162,5.44e-01,3.60e-02,
1163,5.04e-01,5.20e-02,
1164,5.52e-01,5.20e-02,
1165,4.72e-01,3.60e-02,
1166,5.68e-01,3.20e-02,
1167,4.72e-01,5.60e-02,
1168,4.64e-01,5.60e-02,
1169,5.76e-01,3.20e-02,
1170,5.12e-01,3.60e-02,
1171,5.36e-01,5.20e-02,
1172,5.36e-01,4.80e-02,
1173,5.12e-01,3.60e-02,
1174,5.36e-01,3.60e-02,
1175,5.12e-01,5.20e-02,
1176,5.44e-01,4.80e-02,
1177,4.96e-01,3.60e-02,
1178,5.52e-01,3.60e-02,
1179,4.80e-01,5.20e-02,
1180,5.04e-01,3.60e-02,
1181,5.36e-01,5.20e-02,
1182,5.04e-01,4.80e-02,
1183,5.36e-01,3.60e-02,
1184,5.20e-01,3.60e-02,
1185,5.04e-01,4.80e-02,
1186,5.20e-01,3.60e-02,
1187,4.96e-01,5.20e-02,
1188,5.20e-01,3.60e-02,
1189,4.88e-01,4.80e-02,
1190,5.20e-01,3.60e-02,
1191,4.80e-01,4.80e-02,
1192,4.64e-01,3.60e-02,
1193,5.28e-01,4.80e-02,
1194,5.04e-01,4.40e-02,
1195,4.80e-01,3.60e-02,
1196,4.80e-01,4.40e-02,
1197,5.04e-01,3.20e-02,
1198,5.44e-01,3.20e-02,
1199,4.32e-01,4.80e-02,
