X,CH1,CH2,Start,Increment,
Sequence,Volt,Volt,-2.980000e-01,5.000000e-04
0,1.60e+00,1.52e+00,
1,2.00e+00,1.92e+00,
2,1.84e+00,1.84e+00,
3,2.24e+00,2.24e+00,
4,2.16e+00,2.16e+00,
5,2.56e+00,2.48e+00,
6,2.48e+00,2.40e+00,
7,2.80e+00,2.80e+00,
8,2.72e+00,2.72e+00,
9,3.04e+00,3.04e+00,
10,2.96e+00,2.88e+00,
11,3.36e+00,3.20e+00,
12,3.28e+00,3.12e+00,
13,3.60e+00,3.52e+00,
14,3.44e+00,3.36e+00,
15,3.76e+00,3.68e+00,
16,3.68e+00,3.60e+00,
17,4.00e+00,3.84e+00,
18,3.84e+00,3.76e+00,
19,4.24e+00,4.08e+00,
20,4.16e+00,4.00e+00,
21,4.40e+00,4.24e+00,
22,4.24e+00,4.16e+00,
23,4.56e+00,4.40e+00,
24,4.40e+00,4.32e+00,
25,4.64e+00,4.56e+00,
26,4.56e+00,4.40e+00,
27,4.80e+00,4.64e+00,
28,4.72e+00,4.56e+00,
29,4.96e+00,4.72e+00,
30,4.80e+00,4.64e+00,
31,5.04e+00,4.88e+00,
32,4.88e+00,4.80e+00,
33,5.12e+00,4.96e+00,
34,5.12e+00,4.80e+00,
35,4.96e+00,4.96e+00,
36,5.04e+00,4.88e+00,
37,5.12e+00,5.04e+00,
38,5.04e+00,4.88e+00,
39,5.12e+00,5.04e+00,
40,5.12e+00,4.88e+00,
41,5.04e+00,5.04e+00,
42,5.04e+00,4.88e+00,
43,5.12e+00,4.96e+00,
44,5.12e+00,4.80e+00,
45,4.96e+00,4.96e+00,
46,5.04e+00,4.88e+00,
47,4.88e+00,4.64e+00,
48,4.96e+00,4.88e+00,
49,4.80e+00,4.56e+00,
50,4.88e+00,4.72e+00,
51,4.64e+00,4.48e+00,
52,4.72e+00,4.56e+00,
53,4.48e+00,4.40e+00,
54,4.64e+00,4.48e+00,
55,4.32e+00,4.24e+00,
56,4.48e+00,4.32e+00,
57,4.24e+00,4.08e+00,
58,4.32e+00,4.24e+00,
59,4.08e+00,3.84e+00,
60,4.16e+00,4.00e+00,
61,3.84e+00,3.68e+00,
62,3.92e+00,3.84e+00,
63,3.60e+00,3.52e+00,
64,3.68e+00,3.60e+00,
65,3.36e+00,3.28e+00,
66,3.52e+00,3.44e+00,
67,3.20e+00,3.04e+00,
68,3.20e+00,3.12e+00,
69,2.88e+00,2.80e+00,
70,2.96e+00,2.88e+00,
71,2.64e+00,2.56e+00,
72,2.72e+00,2.64e+00,
73,2.40e+00,2.24e+00,
74,2.40e+00,2.32e+00,
75,2.08e+00,2.00e+00,
76,2.16e+00,2.08e+00,
77,1.76e+00,1.76e+00,
78,1.84e+00,1.76e+00,
79,1.44e+00,1.44e+00,
80,1.52e+00,1.52e+00,
81,1.12e+00,1.12e+00,
82,1.20e+00,1.28e+00,
83,8.80e-01,8.00e-01,
84,8.80e-01,8.80e-01,
85,4.80e-01,5.60e-01,
86,5.60e-01,6.40e-01,
87,1.60e-01,1.60e-01,
88,3.20e-01,2.40e-01,
89,-1.60e-01,-8.00e-02,
90,-8.00e-02,0.00e+00,
91,-4.80e-01,-4.00e-01,
92,-4.00e-01,-4.00e-01,
93,-7.20e-01,-7.20e-01,
94,-7.20e-01,-6.40e-01,
95,-1.12e+00,-1.04e+00,
96,-1.04e+00,-8.80e-01,
97,-1.36e+00,-1.36e+00,
98,-1.28e+00,-1.28e+00,
99,-1.76e+00,-1.60e+00,
100,-1.68e+00,-1.52e+00,
101,-2.00e+00,-1.92e+00,
102,-1.92e+00,-1.84e+00,
103,-2.32e+00,-2.24e+00,
104,-2.16e+00,-2.08e+00,
105,-2.64e+00,-2.48e+00,
106,-2.56e+00,-2.40e+00,
107,-2.88e+00,-2.72e+00,
108,-2.80e+00,-2.56e+00,
109,-3.12e+00,-3.04e+00,
110,-3.12e+00,-2.88e+00,
111,-3.44e+00,-3.20e+00,
112,-3.28e+00,-3.12e+00,
113,-3.60e+00,-3.44e+00,
114,-3.52e+00,-3.36e+00,
115,-3.84e+00,-3.68e+00,
116,-3.76e+00,-3.60e+00,
117,-4.08e+00,-3.84e+00,
118,-4.00e+00,-3.76e+00,
119,-4.24e+00,-4.08e+00,
120,-4.16e+00,-3.92e+00,
121,-4.40e+00,-4.16e+00,
122,-4.32e+00,-4.08e+00,
123,-4.56e+00,-4.40e+00,
124,-4.48e+00,-4.32e+00,
125,-4.80e+00,-4.56e+00,
126,-4.64e+00,-4.40e+00,
127,-4.88e+00,-4.64e+00,
128,-4.80e+00,-4.48e+00,
129,-4.96e+00,-4.72e+00,
130,-4.88e+00,-4.64e+00,
131,-5.04e+00,-4.80e+00,
132,-4.96e+00,-4.64e+00,
133,-5.12e+00,-4.88e+00,
134,-5.04e+00,-4.88e+00,
135,-5.20e+00,-4.72e+00,
136,-5.04e+00,-4.88e+00,
137,-5.20e+00,-4.80e+00,
138,-5.20e+00,-4.96e+00,
139,-5.04e+00,-4.80e+00,
140,-5.20e+00,-5.04e+00,
141,-5.04e+00,-4.80e+00,
142,-5.20e+00,-4.88e+00,
143,-5.04e+00,-4.72e+00,
144,-5.12e+00,-4.72e+00,
145,-4.96e+00,-4.88e+00,
146,-4.96e+00,-4.80e+00,
147,-5.12e+00,-4.64e+00,
148,-5.04e+00,-4.80e+00,
149,-4.80e+00,-4.56e+00,
150,-4.96e+00,-4.72e+00,
151,-4.72e+00,-4.48e+00,
152,-4.88e+00,-4.56e+00,
153,-4.56e+00,-4.32e+00,
154,-4.64e+00,-4.48e+00,
155,-4.40e+00,-4.24e+00,
156,-4.48e+00,-4.32e+00,
157,-4.24e+00,-4.00e+00,
158,-4.40e+00,-4.16e+00,
159,-4.08e+00,-3.84e+00,
160,-4.16e+00,-4.00e+00,
161,-3.92e+00,-3.68e+00,
162,-3.92e+00,-3.76e+00,
163,-3.60e+00,-3.52e+00,
164,-3.76e+00,-3.60e+00,
165,-3.44e+00,-3.20e+00,
166,-3.52e+00,-3.36e+00,
167,-3.20e+00,-3.04e+00,
168,-3.28e+00,-3.12e+00,
169,-2.88e+00,-2.80e+00,
170,-3.04e+00,-2.88e+00,
171,-2.64e+00,-2.48e+00,
172,-2.80e+00,-2.56e+00,
173,-2.40e+00,-2.24e+00,
174,-2.48e+00,-2.32e+00,
175,-2.08e+00,-2.00e+00,
176,-2.16e+00,-2.08e+00,
177,-1.84e+00,-1.68e+00,
178,-1.92e+00,-1.76e+00,
179,-1.52e+00,-1.44e+00,
180,-1.52e+00,-1.52e+00,
181,-1.12e+00,-1.12e+00,
182,-1.28e+00,-1.12e+00,
183,-8.80e-01,-8.00e-01,
184,-9.60e-01,-8.80e-01,
185,-5.60e-01,-4.80e-01,
186,-6.40e-01,-6.40e-01,
187,-2.40e-01,-1.60e-01,
188,-3.20e-01,-2.40e-01,
189,8.00e-02,8.00e-02,
190,0.00e+00,0.00e+00,
191,4.00e-01,4.80e-01,
192,3.20e-01,4.00e-01,
193,7.20e-01,7.20e-01,
194,6.40e-01,6.40e-01,
195,1.04e+00,1.04e+00,
196,9.60e-01,1.04e+00,
197,1.36e+00,1.36e+00,
198,1.28e+00,1.28e+00,
199,1.60e+00,1.60e+00,
200,1.60e+00,1.52e+00,
201,2.00e+00,1.92e+00,
202,1.84e+00,1.84e+00,
203,2.24e+00,2.24e+00,
204,2.16e+00,2.08e+00,
205,2.56e+00,2.48e+00,
206,2.48e+00,2.40e+00,
207,2.80e+00,2.80e+00,
208,2.72e+00,2.64e+00,
209,3.04e+00,2.96e+00,
210,2.96e+00,2.88e+00,
211,3.36e+00,3.20e+00,
212,3.28e+00,3.12e+00,
213,3.60e+00,3.52e+00,
214,3.44e+00,3.36e+00,
215,3.76e+00,3.68e+00,
216,3.68e+00,3.60e+00,
217,4.00e+00,3.84e+00,
218,3.84e+00,3.76e+00,
219,4.24e+00,4.08e+00,
220,4.16e+00,4.00e+00,
221,4.40e+00,4.24e+00,
222,4.32e+00,4.16e+00,
223,4.56e+00,4.40e+00,
224,4.40e+00,4.32e+00,
225,4.64e+00,4.56e+00,
226,4.56e+00,4.40e+00,
227,4.88e+00,4.64e+00,
228,4.64e+00,4.48e+00,
229,4.96e+00,4.72e+00,
230,4.80e+00,4.64e+00,
231,5.04e+00,4.80e+00,
232,4.88e+00,4.72e+00,
233,5.12e+00,4.96e+00,
234,5.12e+00,4.80e+00,
235,4.96e+00,4.96e+00,
236,5.04e+00,4.88e+00,
237,5.20e+00,4.96e+00,
238,5.20e+00,4.88e+00,
239,5.04e+00,5.04e+00,
240,5.20e+00,4.88e+00,
241,5.04e+00,5.04e+00,
242,5.04e+00,4.96e+00,
243,5.12e+00,4.80e+00,
244,5.12e+00,4.80e+00,
245,4.96e+00,4.96e+00,
246,5.04e+00,4.88e+00,
247,4.88e+00,4.64e+00,
248,4.96e+00,4.88e+00,
249,4.80e+00,4.56e+00,
250,4.88e+00,4.72e+00,
251,4.64e+00,4.48e+00,
252,4.72e+00,4.64e+00,
253,4.48e+00,4.40e+00,
254,4.64e+00,4.48e+00,
255,4.40e+00,4.24e+00,
256,4.48e+00,4.32e+00,
257,4.24e+00,4.08e+00,
258,4.32e+00,4.24e+00,
259,4.08e+00,3.84e+00,
260,4.08e+00,4.00e+00,
261,3.76e+00,3.68e+00,
262,3.92e+00,3.84e+00,
263,3.60e+00,3.52e+00,
264,3.68e+00,3.60e+00,
265,3.36e+00,3.28e+00,
266,3.52e+00,3.36e+00,
267,3.20e+00,3.04e+00,
268,3.20e+00,3.12e+00,
269,2.88e+00,2.80e+00,
270,2.96e+00,2.88e+00,
271,2.64e+00,2.56e+00,
272,2.72e+00,2.72e+00,
273,2.40e+00,2.24e+00,
274,2.40e+00,2.32e+00,
275,2.00e+00,2.00e+00,
276,2.16e+00,2.08e+00,
277,1.76e+00,1.76e+00,
278,1.84e+00,1.76e+00,
279,1.44e+00,1.44e+00,
280,1.52e+00,1.52e+00,
281,1.12e+00,1.12e+00,
282,1.20e+00,1.28e+00,
283,8.80e-01,8.00e-01,
284,9.60e-01,8.80e-01,
285,4.80e-01,5.60e-01,
286,5.60e-01,6.40e-01,
287,1.60e-01,1.60e-01,
288,2.40e-01,2.40e-01,
289,-1.60e-01,-8.00e-02,
290,-8.00e-02,0.00e+00,
291,-4.80e-01,-4.00e-01,
292,-4.00e-01,-3.20e-01,
293,-7.20e-01,-7.20e-01,
294,-7.20e-01,-6.40e-01,
295,-1.12e+00,-1.04e+00,
296,-1.04e+00,-8.80e-01,
297,-1.36e+00,-1.36e+00,
298,-1.28e+00,-1.28e+00,
299,-1.76e+00,-1.60e+00,
300,-1.68e+00,-1.52e+00,
301,-2.00e+00,-1.92e+00,
302,-1.92e+00,-1.76e+00,
303,-2.32e+00,-2.16e+00,
304,-2.16e+00,-2.08e+00,
305,-2.64e+00,-2.48e+00,
306,-2.48e+00,-2.32e+00,
307,-2.88e+00,-2.72e+00,
308,-2.80e+00,-2.64e+00,
309,-3.12e+00,-3.04e+00,
310,-3.04e+00,-2.88e+00,
311,-3.44e+00,-3.20e+00,
312,-3.28e+00,-3.12e+00,
313,-3.60e+00,-3.44e+00,
314,-3.52e+00,-3.28e+00,
315,-3.84e+00,-3.68e+00,
316,-3.76e+00,-3.60e+00,
317,-4.08e+00,-3.92e+00,
318,-4.00e+00,-3.76e+00,
319,-4.24e+00,-4.08e+00,
320,-4.16e+00,-3.92e+00,
321,-4.48e+00,-4.24e+00,
322,-4.32e+00,-4.08e+00,
323,-4.56e+00,-4.40e+00,
324,-4.48e+00,-4.32e+00,
325,-4.80e+00,-4.56e+00,
326,-4.72e+00,-4.40e+00,
327,-4.88e+00,-4.64e+00,
328,-4.80e+00,-4.56e+00,
329,-4.96e+00,-4.72e+00,
330,-4.88e+00,-4.64e+00,
331,-5.04e+00,-4.80e+00,
332,-4.96e+00,-4.64e+00,
333,-5.12e+00,-4.88e+00,
334,-5.04e+00,-4.88e+00,
335,-5.20e+00,-4.72e+00,
336,-5.20e+00,-4.80e+00,
337,-5.04e+00,-4.96e+00,
338,-5.20e+00,-4.80e+00,
339,-5.04e+00,-5.04e+00,
340,-5.20e+00,-4.96e+00,
341,-5.04e+00,-4.80e+00,
342,-5.04e+00,-4.88e+00,
343,-5.20e+00,-4.72e+00,
344,-5.12e+00,-4.72e+00,
345,-4.96e+00,-4.88e+00,
346,-5.12e+00,-4.80e+00,
347,-4.96e+00,-4.64e+00,
348,-5.04e+00,-4.80e+00,
349,-4.88e+00,-4.56e+00,
350,-4.96e+00,-4.72e+00,
351,-4.72e+00,-4.48e+00,
352,-4.88e+00,-4.56e+00,
353,-4.56e+00,-4.40e+00,
354,-4.64e+00,-4.48e+00,
355,-4.40e+00,-4.24e+00,
356,-4.48e+00,-4.32e+00,
357,-4.24e+00,-4.00e+00,
358,-4.40e+00,-4.16e+00,
359,-4.08e+00,-3.84e+00,
360,-4.16e+00,-4.00e+00,
361,-3.92e+00,-3.68e+00,
362,-4.00e+00,-3.76e+00,
363,-3.60e+00,-3.52e+00,
364,-3.76e+00,-3.60e+00,
365,-3.44e+00,-3.20e+00,
366,-3.52e+00,-3.36e+00,
367,-3.20e+00,-3.04e+00,
368,-3.28e+00,-3.12e+00,
369,-2.88e+00,-2.80e+00,
370,-3.04e+00,-2.88e+00,
371,-2.64e+00,-2.48e+00,
372,-2.80e+00,-2.56e+00,
373,-2.40e+00,-2.24e+00,
374,-2.48e+00,-2.32e+00,
375,-2.08e+00,-2.00e+00,
376,-2.16e+00,-2.08e+00,
377,-1.76e+00,-1.68e+00,
378,-1.92e+00,-1.76e+00,
379,-1.52e+00,-1.36e+00,
380,-1.60e+00,-1.52e+00,
381,-1.20e+00,-1.04e+00,
382,-1.28e+00,-1.20e+00,
383,-8.80e-01,-8.00e-01,
384,-9.60e-01,-8.80e-01,
385,-6.40e-01,-4.80e-01,
386,-6.40e-01,-5.60e-01,
387,-2.40e-01,-1.60e-01,
388,-3.20e-01,-2.40e-01,
389,8.00e-02,8.00e-02,
390,0.00e+00,0.00e+00,
391,4.00e-01,4.80e-01,
392,3.20e-01,4.00e-01,
393,7.20e-01,7.20e-01,
394,6.40e-01,6.40e-01,
395,1.04e+00,1.04e+00,
396,9.60e-01,9.60e-01,
397,1.36e+00,1.36e+00,
398,1.28e+00,1.28e+00,
399,1.60e+00,1.60e+00,
400,1.60e+00,1.52e+00,
401,2.00e+00,1.92e+00,
402,1.84e+00,1.84e+00,
403,2.24e+00,2.24e+00,
404,2.16e+00,2.16e+00,
405,2.56e+00,2.48e+00,
406,2.48e+00,2.40e+00,
407,2.80e+00,2.80e+00,
408,2.72e+00,2.64e+00,
409,3.04e+00,3.04e+00,
410,2.96e+00,2.88e+00,
411,3.36e+00,3.20e+00,
412,3.28e+00,3.12e+00,
413,3.60e+00,3.52e+00,
414,3.44e+00,3.36e+00,
415,3.76e+00,3.68e+00,
416,3.68e+00,3.60e+00,
417,4.00e+00,3.84e+00,
418,3.84e+00,3.76e+00,
419,4.24e+00,4.08e+00,
420,4.16e+00,3.92e+00,
421,4.40e+00,4.24e+00,
422,4.32e+00,4.16e+00,
423,4.56e+00,4.40e+00,
424,4.40e+00,4.32e+00,
425,4.64e+00,4.56e+00,
426,4.56e+00,4.40e+00,
427,4.80e+00,4.64e+00,
428,4.64e+00,4.56e+00,
429,4.96e+00,4.72e+00,
430,4.88e+00,4.64e+00,
431,5.04e+00,4.88e+00,
432,4.88e+00,4.72e+00,
433,5.12e+00,4.96e+00,
434,4.96e+00,4.80e+00,
435,5.12e+00,4.96e+00,
436,5.04e+00,4.96e+00,
437,5.12e+00,4.88e+00,
438,5.04e+00,4.88e+00,
439,5.20e+00,5.04e+00,
440,5.04e+00,5.04e+00,
441,5.12e+00,4.88e+00,
442,5.12e+00,4.96e+00,
443,4.96e+00,4.80e+00,
444,5.12e+00,4.96e+00,
445,4.96e+00,4.80e+00,
446,5.04e+00,4.88e+00,
447,4.88e+00,4.64e+00,
448,4.96e+00,4.88e+00,
449,4.80e+00,4.56e+00,
450,4.88e+00,4.72e+00,
451,4.64e+00,4.48e+00,
452,4.72e+00,4.56e+00,
453,4.48e+00,4.40e+00,
454,4.64e+00,4.48e+00,
455,4.40e+00,4.24e+00,
456,4.48e+00,4.32e+00,
457,4.24e+00,4.08e+00,
458,4.32e+00,4.24e+00,
459,4.08e+00,3.84e+00,
460,4.16e+00,4.00e+00,
461,3.76e+00,3.68e+00,
462,3.92e+00,3.84e+00,
463,3.60e+00,3.52e+00,
464,3.68e+00,3.60e+00,
465,3.36e+00,3.28e+00,
466,3.52e+00,3.36e+00,
467,3.20e+00,3.04e+00,
468,3.20e+00,3.12e+00,
469,2.88e+00,2.80e+00,
470,2.96e+00,2.88e+00,
471,2.64e+00,2.56e+00,
472,2.72e+00,2.64e+00,
473,2.32e+00,2.32e+00,
474,2.40e+00,2.40e+00,
475,2.00e+00,2.00e+00,
476,2.16e+00,2.08e+00,
477,1.76e+00,1.76e+00,
478,1.84e+00,1.76e+00,
479,1.44e+00,1.44e+00,
480,1.52e+00,1.52e+00,
481,1.12e+00,1.12e+00,
482,1.28e+00,1.28e+00,
483,8.80e-01,8.00e-01,
484,8.80e-01,8.80e-01,
485,4.80e-01,5.60e-01,
486,5.60e-01,6.40e-01,
487,1.60e-01,2.40e-01,
488,2.40e-01,2.40e-01,
489,-1.60e-01,-8.00e-02,
490,-8.00e-02,0.00e+00,
491,-4.80e-01,-4.00e-01,
492,-3.20e-01,-3.20e-01,
493,-7.20e-01,-7.20e-01,
494,-7.20e-01,-6.40e-01,
495,-1.12e+00,-1.04e+00,
496,-1.04e+00,-8.80e-01,
497,-1.36e+00,-1.36e+00,
498,-1.28e+00,-1.28e+00,
499,-1.76e+00,-1.60e+00,
500,-1.68e+00,-1.52e+00,
501,-2.08e+00,-1.92e+00,
502,-1.92e+00,-1.76e+00,
503,-2.32e+00,-2.24e+00,
504,-2.24e+00,-2.08e+00,
505,-2.64e+00,-2.48e+00,
506,-2.56e+00,-2.40e+00,
507,-2.88e+00,-2.72e+00,
508,-2.80e+00,-2.64e+00,
509,-3.20e+00,-3.04e+00,
510,-3.12e+00,-2.88e+00,
511,-3.44e+00,-3.20e+00,
512,-3.28e+00,-3.12e+00,
513,-3.60e+00,-3.44e+00,
514,-3.52e+00,-3.44e+00,
515,-3.84e+00,-3.68e+00,
516,-3.76e+00,-3.60e+00,
517,-4.08e+00,-3.92e+00,
518,-4.00e+00,-3.76e+00,
519,-4.24e+00,-4.08e+00,
520,-4.16e+00,-3.92e+00,
521,-4.48e+00,-4.16e+00,
522,-4.32e+00,-4.16e+00,
523,-4.56e+00,-4.40e+00,
524,-4.48e+00,-4.32e+00,
525,-4.80e+00,-4.56e+00,
526,-4.64e+00,-4.40e+00,
527,-4.88e+00,-4.64e+00,
528,-4.80e+00,-4.48e+00,
529,-4.96e+00,-4.72e+00,
530,-4.88e+00,-4.64e+00,
531,-5.04e+00,-4.80e+00,
532,-4.96e+00,-4.72e+00,
533,-5.12e+00,-4.88e+00,
534,-5.04e+00,-4.88e+00,
535,-5.20e+00,-4.72e+00,
536,-5.04e+00,-4.80e+00,
537,-5.20e+00,-4.96e+00,
538,-5.20e+00,-4.80e+00,
539,-5.12e+00,-5.04e+00,
540,-5.20e+00,-4.80e+00,
541,-5.04e+00,-4.96e+00,
542,-5.20e+00,-4.88e+00,
543,-5.04e+00,-4.72e+00,
544,-5.20e+00,-4.72e+00,
545,-4.96e+00,-4.88e+00,
546,-5.12e+00,-4.80e+00,
547,-4.96e+00,-4.64e+00,
548,-5.04e+00,-4.80e+00,
549,-4.80e+00,-4.56e+00,
550,-4.96e+00,-4.72e+00,
551,-4.72e+00,-4.48e+00,
552,-4.88e+00,-4.56e+00,
553,-4.64e+00,-4.32e+00,
554,-4.64e+00,-4.48e+00,
555,-4.40e+00,-4.24e+00,
556,-4.56e+00,-4.32e+00,
557,-4.24e+00,-4.00e+00,
558,-4.40e+00,-4.16e+00,
559,-4.08e+00,-3.84e+00,
560,-4.24e+00,-4.00e+00,
561,-3.92e+00,-3.68e+00,
562,-4.00e+00,-3.76e+00,
563,-3.68e+00,-3.52e+00,
564,-3.76e+00,-3.60e+00,
565,-3.44e+00,-3.20e+00,
566,-3.52e+00,-3.36e+00,
567,-3.20e+00,-3.04e+00,
568,-3.28e+00,-3.12e+00,
569,-2.96e+00,-2.80e+00,
570,-3.04e+00,-2.88e+00,
571,-2.64e+00,-2.48e+00,
572,-2.80e+00,-2.56e+00,
573,-2.40e+00,-2.24e+00,
574,-2.48e+00,-2.32e+00,
575,-2.08e+00,-2.00e+00,
576,-2.16e+00,-2.08e+00,
577,-1.84e+00,-1.68e+00,
578,-1.92e+00,-1.76e+00,
579,-1.52e+00,-1.44e+00,
580,-1.52e+00,-1.52e+00,
581,-1.20e+00,-1.04e+00,
582,-1.28e+00,-1.20e+00,
583,-8.80e-01,-8.00e-01,
584,-9.60e-01,-8.80e-01,
585,-5.60e-01,-4.80e-01,
586,-6.40e-01,-5.60e-01,
587,-2.40e-01,-1.60e-01,
588,-3.20e-01,-2.40e-01,
589,8.00e-02,8.00e-02,
590,0.00e+00,0.00e+00,
591,4.00e-01,4.80e-01,
592,3.20e-01,4.00e-01,
593,7.20e-01,7.20e-01,
594,6.40e-01,6.40e-01,
595,1.04e+00,1.04e+00,
596,9.60e-01,9.60e-01,
597,1.36e+00,1.36e+00,
598,1.28e+00,1.28e+00,
599,1.60e+00,1.60e+00,
600,1.52e+00,1.52e+00,
601,2.00e+00,1.92e+00,
602,1.84e+00,1.84e+00,
603,2.24e+00,2.24e+00,
604,2.16e+00,2.16e+00,
605,2.56e+00,2.48e+00,
606,2.48e+00,2.40e+00,
607,2.80e+00,2.80e+00,
608,2.72e+00,2.64e+00,
609,3.04e+00,3.04e+00,
610,2.96e+00,2.88e+00,
611,3.36e+00,3.20e+00,
612,3.28e+00,3.12e+00,
613,3.60e+00,3.52e+00,
614,3.52e+00,3.44e+00,
615,3.76e+00,3.68e+00,
616,3.68e+00,3.60e+00,
617,4.08e+00,3.84e+00,
618,3.84e+00,3.76e+00,
619,4.24e+00,4.08e+00,
620,4.08e+00,4.00e+00,
621,4.40e+00,4.24e+00,
622,4.24e+00,4.16e+00,
623,4.56e+00,4.40e+00,
624,4.40e+00,4.32e+00,
625,4.64e+00,4.56e+00,
626,4.56e+00,4.40e+00,
627,4.88e+00,4.64e+00,
628,4.64e+00,4.56e+00,
629,4.96e+00,4.72e+00,
630,4.80e+00,4.64e+00,
631,5.04e+00,4.80e+00,
632,4.88e+00,4.80e+00,
633,5.12e+00,4.96e+00,
634,5.12e+00,4.80e+00,
635,4.96e+00,4.96e+00,
636,5.04e+00,4.88e+00,
637,5.12e+00,5.04e+00,
638,5.12e+00,4.88e+00,
639,5.04e+00,5.04e+00,
640,5.04e+00,4.88e+00,
641,5.12e+00,5.04e+00,
642,5.04e+00,4.88e+00,
643,5.12e+00,4.96e+00,
644,5.12e+00,4.80e+00,
645,4.96e+00,4.96e+00,
646,5.04e+00,4.96e+00,
647,4.88e+00,4.64e+00,
648,4.96e+00,4.80e+00,
649,4.80e+00,4.56e+00,
650,4.96e+00,4.72e+00,
651,4.64e+00,4.48e+00,
652,4.72e+00,4.56e+00,
653,4.48e+00,4.40e+00,
654,4.64e+00,4.48e+00,
655,4.40e+00,4.24e+00,
656,4.48e+00,4.32e+00,
657,4.24e+00,4.08e+00,
658,4.32e+00,4.16e+00,
659,4.08e+00,3.84e+00,
660,4.16e+00,4.00e+00,
661,3.76e+00,3.68e+00,
662,3.92e+00,3.84e+00,
663,3.60e+00,3.52e+00,
664,3.68e+00,3.60e+00,
665,3.36e+00,3.28e+00,
666,3.52e+00,3.36e+00,
667,3.12e+00,3.04e+00,
668,3.20e+00,3.12e+00,
669,2.88e+00,2.80e+00,
670,2.96e+00,2.88e+00,
671,2.64e+00,2.56e+00,
672,2.72e+00,2.64e+00,
673,2.40e+00,2.24e+00,
674,2.40e+00,2.32e+00,
675,2.08e+00,2.00e+00,
676,2.16e+00,2.08e+00,
677,1.76e+00,1.76e+00,
678,1.84e+00,1.76e+00,
679,1.44e+00,1.44e+00,
680,1.52e+00,1.52e+00,
681,1.12e+00,1.12e+00,
682,1.20e+00,1.20e+00,
683,8.80e-01,8.00e-01,
684,9.60e-01,8.80e-01,
685,4.80e-01,5.60e-01,
686,5.60e-01,6.40e-01,
687,1.60e-01,2.40e-01,
688,3.20e-01,2.40e-01,
689,-1.60e-01,-8.00e-02,
690,-8.00e-02,0.00e+00,
691,-4.80e-01,-4.00e-01,
692,-4.00e-01,-3.20e-01,
693,-7.20e-01,-7.20e-01,
694,-7.20e-01,-6.40e-01,
695,-1.12e+00,-1.04e+00,
696,-1.04e+00,-8.80e-01,
697,-1.36e+00,-1.36e+00,
698,-1.28e+00,-1.28e+00,
699,-1.68e+00,-1.60e+00,
700,-1.68e+00,-1.52e+00,
701,-2.00e+00,-1.92e+00,
702,-1.92e+00,-1.76e+00,
703,-2.32e+00,-2.16e+00,
704,-2.24e+00,-2.08e+00,
705,-2.64e+00,-2.48e+00,
706,-2.56e+00,-2.32e+00,
707,-2.88e+00,-2.72e+00,
708,-2.80e+00,-2.64e+00,
709,-3.20e+00,-3.04e+00,
710,-3.12e+00,-2.88e+00,
711,-3.44e+00,-3.20e+00,
712,-3.28e+00,-3.12e+00,
713,-3.60e+00,-3.44e+00,
714,-3.52e+00,-3.36e+00,
715,-3.84e+00,-3.68e+00,
716,-3.76e+00,-3.60e+00,
717,-4.08e+00,-3.84e+00,
718,-4.00e+00,-3.76e+00,
719,-4.32e+00,-4.08e+00,
720,-4.16e+00,-3.92e+00,
721,-4.40e+00,-4.32e+00,
722,-4.32e+00,-4.08e+00,
723,-4.56e+00,-4.40e+00,
724,-4.48e+00,-4.32e+00,
725,-4.72e+00,-4.56e+00,
726,-4.64e+00,-4.40e+00,
727,-4.88e+00,-4.64e+00,
728,-4.80e+00,-4.48e+00,
729,-5.04e+00,-4.72e+00,
730,-4.88e+00,-4.64e+00,
731,-5.12e+00,-4.80e+00,
732,-4.96e+00,-4.64e+00,
733,-5.12e+00,-4.88e+00,
734,-5.04e+00,-4.88e+00,
735,-5.20e+00,-4.72e+00,
736,-5.20e+00,-4.80e+00,
737,-5.04e+00,-4.96e+00,
738,-5.20e+00,-4.96e+00,
739,-5.04e+00,-4.80e+00,
740,-5.20e+00,-4.80e+00,
741,-5.04e+00,-5.04e+00,
742,-5.20e+00,-4.88e+00,
743,-5.04e+00,-4.72e+00,
744,-5.20e+00,-4.72e+00,
745,-4.96e+00,-4.88e+00,
746,-5.12e+00,-4.80e+00,
747,-4.96e+00,-4.64e+00,
748,-4.88e+00,-4.80e+00,
749,-5.04e+00,-4.56e+00,
750,-4.96e+00,-4.72e+00,
751,-4.72e+00,-4.48e+00,
752,-4.80e+00,-4.56e+00,
753,-4.56e+00,-4.32e+00,
754,-4.64e+00,-4.48e+00,
755,-4.40e+00,-4.24e+00,
756,-4.48e+00,-4.32e+00,
757,-4.24e+00,-4.00e+00,
758,-4.40e+00,-4.16e+00,
759,-4.08e+00,-3.84e+00,
760,-4.24e+00,-4.00e+00,
761,-3.92e+00,-3.68e+00,
762,-4.00e+00,-3.76e+00,
763,-3.60e+00,-3.52e+00,
764,-3.76e+00,-3.60e+00,
765,-3.44e+00,-3.20e+00,
766,-3.52e+00,-3.36e+00,
767,-3.20e+00,-3.04e+00,
768,-3.28e+00,-3.12e+00,
769,-2.88e+00,-2.80e+00,
770,-3.04e+00,-2.80e+00,
771,-2.64e+00,-2.48e+00,
772,-2.72e+00,-2.56e+00,
773,-2.40e+00,-2.24e+00,
774,-2.48e+00,-2.32e+00,
775,-2.08e+00,-2.00e+00,
776,-2.16e+00,-2.08e+00,
777,-1.76e+00,-1.68e+00,
778,-1.92e+00,-1.76e+00,
779,-1.52e+00,-1.36e+00,
780,-1.52e+00,-1.52e+00,
781,-1.20e+00,-1.04e+00,
782,-1.28e+00,-1.12e+00,
783,-8.80e-01,-8.00e-01,
784,-9.60e-01,-8.80e-01,
785,-5.60e-01,-4.80e-01,
786,-6.40e-01,-4.80e-01,
787,-2.40e-01,-1.60e-01,
788,-3.20e-01,-2.40e-01,
789,1.60e-01,8.00e-02,
790,0.00e+00,0.00e+00,
791,4.00e-01,4.00e-01,
792,3.20e-01,4.00e-01,
793,7.20e-01,7.20e-01,
794,6.40e-01,6.40e-01,
795,1.04e+00,1.04e+00,
796,9.60e-01,8.80e-01,
797,1.36e+00,1.36e+00,
798,1.28e+00,1.28e+00,
799,1.68e+00,1.60e+00,
800,1.60e+00,1.52e+00,
801,2.00e+00,2.00e+00,
802,1.84e+00,1.84e+00,
803,2.24e+00,2.24e+00,
804,2.16e+00,2.16e+00,
805,2.56e+00,2.48e+00,
806,2.48e+00,2.40e+00,
807,2.80e+00,2.80e+00,
808,2.72e+00,2.64e+00,
809,3.04e+00,3.04e+00,
810,2.96e+00,2.88e+00,
811,3.36e+00,3.20e+00,
812,3.28e+00,3.20e+00,
813,3.60e+00,3.52e+00,
814,3.44e+00,3.36e+00,
815,3.76e+00,3.68e+00,
816,3.68e+00,3.60e+00,
817,4.00e+00,3.84e+00,
818,3.92e+00,3.76e+00,
819,4.24e+00,4.08e+00,
820,4.16e+00,4.00e+00,
821,4.40e+00,4.24e+00,
822,4.32e+00,4.16e+00,
823,4.56e+00,4.40e+00,
824,4.40e+00,4.32e+00,
825,4.64e+00,4.56e+00,
826,4.56e+00,4.40e+00,
827,4.80e+00,4.64e+00,
828,4.64e+00,4.56e+00,
829,4.96e+00,4.72e+00,
830,4.88e+00,4.64e+00,
831,5.04e+00,4.80e+00,
832,4.88e+00,4.72e+00,
833,5.12e+00,4.96e+00,
834,4.96e+00,4.80e+00,
835,5.12e+00,4.96e+00,
836,5.04e+00,4.88e+00,
837,5.12e+00,5.04e+00,
838,5.12e+00,4.88e+00,
839,5.04e+00,5.04e+00,
840,5.12e+00,4.88e+00,
841,5.04e+00,5.04e+00,
842,5.12e+00,4.96e+00,
843,5.04e+00,4.80e+00,
844,5.12e+00,4.96e+00,
845,4.96e+00,4.80e+00,
846,5.04e+00,4.88e+00,
847,4.88e+00,4.64e+00,
848,4.96e+00,4.80e+00,
849,4.80e+00,4.56e+00,
850,4.88e+00,4.72e+00,
851,4.64e+00,4.48e+00,
852,4.72e+00,4.56e+00,
853,4.48e+00,4.40e+00,
854,4.64e+00,4.48e+00,
855,4.40e+00,4.24e+00,
856,4.48e+00,4.32e+00,
857,4.24e+00,4.08e+00,
858,4.32e+00,4.16e+00,
859,4.08e+00,3.92e+00,
860,4.16e+00,4.00e+00,
861,3.84e+00,3.68e+00,
862,3.92e+00,3.84e+00,
863,3.60e+00,3.52e+00,
864,3.68e+00,3.60e+00,
865,3.36e+00,3.28e+00,
866,3.52e+00,3.44e+00,
867,3.12e+00,3.04e+00,
868,3.20e+00,3.12e+00,
869,2.88e+00,2.80e+00,
870,2.96e+00,2.96e+00,
871,2.64e+00,2.56e+00,
872,2.72e+00,2.72e+00,
873,2.32e+00,2.24e+00,
874,2.40e+00,2.32e+00,
875,2.08e+00,2.00e+00,
876,2.16e+00,2.08e+00,
877,1.76e+00,1.68e+00,
878,1.76e+00,1.76e+00,
879,1.44e+00,1.44e+00,
880,1.52e+00,1.52e+00,
881,1.12e+00,1.12e+00,
882,1.20e+00,1.28e+00,
883,8.80e-01,8.00e-01,
884,8.80e-01,8.80e-01,
885,4.80e-01,5.60e-01,
886,5.60e-01,6.40e-01,
887,2.40e-01,1.60e-01,
888,2.40e-01,2.40e-01,
889,-1.60e-01,-8.00e-02,
890,-8.00e-02,0.00e+00,
891,-4.80e-01,-4.00e-01,
892,-4.00e-01,-3.20e-01,
893,-7.20e-01,-7.20e-01,
894,-7.20e-01,-6.40e-01,
895,-1.12e+00,-1.04e+00,
896,-1.04e+00,-8.80e-01,
897,-1.36e+00,-1.36e+00,
898,-1.28e+00,-1.28e+00,
899,-1.76e+00,-1.60e+00,
900,-1.68e+00,-1.52e+00,
901,-2.00e+00,-1.92e+00,
902,-1.92e+00,-1.84e+00,
903,-2.32e+00,-2.16e+00,
904,-2.24e+00,-2.08e+00,
905,-2.64e+00,-2.48e+00,
906,-2.56e+00,-2.32e+00,
907,-2.88e+00,-2.72e+00,
908,-2.80e+00,-2.56e+00,
909,-3.20e+00,-3.04e+00,
910,-3.12e+00,-2.88e+00,
911,-3.44e+00,-3.20e+00,
912,-3.28e+00,-3.12e+00,
913,-3.60e+00,-3.44e+00,
914,-3.52e+00,-3.28e+00,
915,-3.84e+00,-3.68e+00,
916,-3.84e+00,-3.60e+00,
917,-4.08e+00,-3.92e+00,
918,-4.00e+00,-3.76e+00,
919,-4.24e+00,-4.08e+00,
920,-4.16e+00,-3.92e+00,
921,-4.48e+00,-4.16e+00,
922,-4.32e+00,-4.16e+00,
923,-4.56e+00,-4.40e+00,
924,-4.48e+00,-4.32e+00,
925,-4.80e+00,-4.56e+00,
926,-4.72e+00,-4.40e+00,
927,-4.88e+00,-4.64e+00,
928,-4.80e+00,-4.48e+00,
929,-4.96e+00,-4.72e+00,
930,-4.88e+00,-4.64e+00,
931,-5.04e+00,-4.80e+00,
932,-4.96e+00,-4.72e+00,
933,-5.12e+00,-4.88e+00,
934,-5.04e+00,-4.72e+00,
935,-5.20e+00,-4.88e+00,
936,-5.04e+00,-4.88e+00,
937,-5.20e+00,-4.80e+00,
938,-5.20e+00,-4.96e+00,
939,-5.04e+00,-4.80e+00,
940,-5.20e+00,-5.04e+00,
941,-5.04e+00,-4.80e+00,
942,-5.20e+00,-4.96e+00,
943,-5.04e+00,-4.72e+00,
944,-5.12e+00,-4.72e+00,
945,-4.96e+00,-4.88e+00,
946,-5.12e+00,-4.80e+00,
947,-4.96e+00,-4.64e+00,
948,-5.04e+00,-4.80e+00,
949,-4.80e+00,-4.56e+00,
950,-4.96e+00,-4.72e+00,
951,-4.72e+00,-4.48e+00,
952,-4.88e+00,-4.56e+00,
953,-4.56e+00,-4.32e+00,
954,-4.64e+00,-4.48e+00,
955,-4.40e+00,-4.24e+00,
956,-4.48e+00,-4.32e+00,
957,-4.24e+00,-4.00e+00,
958,-4.40e+00,-4.16e+00,
959,-4.08e+00,-3.84e+00,
960,-4.16e+00,-4.00e+00,
961,-3.92e+00,-3.68e+00,
962,-4.00e+00,-3.76e+00,
963,-3.68e+00,-3.52e+00,
964,-3.76e+00,-3.60e+00,
965,-3.44e+00,-3.20e+00,
966,-3.52e+00,-3.36e+00,
967,-3.20e+00,-3.04e+00,
968,-3.28e+00,-3.12e+00,
969,-2.96e+00,-2.80e+00,
970,-3.04e+00,-2.88e+00,
971,-2.64e+00,-2.48e+00,
972,-2.80e+00,-2.56e+00,
973,-2.40e+00,-2.24e+00,
974,-2.48e+00,-2.32e+00,
975,-2.08e+00,-2.00e+00,
976,-2.16e+00,-2.08e+00,
977,-1.84e+00,-1.68e+00,
978,-1.92e+00,-1.76e+00,
979,-1.52e+00,-1.44e+00,
980,-1.52e+00,-1.52e+00,
981,-1.20e+00,-1.04e+00,
982,-1.28e+00,-1.20e+00,
983,-8.80e-01,-8.00e-01,
984,-9.60e-01,-8.80e-01,
985,-5.60e-01,-4.80e-01,
986,-6.40e-01,-5.60e-01,
987,-2.40e-01,-1.60e-01,
988,-3.20e-01,-2.40e-01,
989,8.00e-02,1.60e-01,
990,0.00e+00,0.00e+00,
991,4.00e-01,4.80e-01,
992,3.20e-01,4.00e-01,
993,7.20e-01,7.20e-01,
994,6.40e-01,6.40e-01,
995,1.04e+00,1.04e+00,
996,9.60e-01,9.60e-01,
997,1.36e+00,1.36e+00,
998,1.28e+00,1.28e+00,
999,1.60e+00,1.60e+00,
1000,1.60e+00,1.52e+00,
1001,2.00e+00,2.00e+00,
1002,1.84e+00,1.84e+00,
1003,2.24e+00,2.24e+00,
1004,2.16e+00,2.16e+00,
1005,2.56e+00,2.48e+00,
1006,2.48e+00,2.40e+00,
1007,2.80e+00,2.80e+00,
1008,2.72e+00,2.64e+00,
1009,3.04e+00,3.04e+00,
1010,2.96e+00,2.88e+00,
1011,3.36e+00,3.20e+00,
1012,3.28e+00,3.12e+00,
1013,3.52e+00,3.52e+00,
1014,3.44e+00,3.36e+00,
1015,3.76e+00,3.68e+00,
1016,3.68e+00,3.60e+00,
1017,4.00e+00,3.84e+00,
1018,3.92e+00,3.76e+00,
1019,4.24e+00,4.08e+00,
1020,4.08e+00,4.00e+00,
1021,4.40e+00,4.24e+00,
1022,4.24e+00,4.16e+00,
1023,4.56e+00,4.40e+00,
1024,4.40e+00,4.32e+00,
1025,4.64e+00,4.56e+00,
1026,4.56e+00,4.40e+00,
1027,4.80e+00,4.64e+00,
1028,4.64e+00,4.56e+00,
1029,4.96e+00,4.72e+00,
1030,4.88e+00,4.64e+00,
1031,5.04e+00,4.80e+00,
1032,4.88e+00,4.80e+00,
1033,5.04e+00,4.96e+00,
1034,4.96e+00,4.80e+00,
1035,5.12e+00,4.96e+00,
1036,5.04e+00,4.88e+00,
1037,5.12e+00,4.96e+00,
1038,5.04e+00,4.88e+00,
1039,5.20e+00,5.04e+00,
1040,5.04e+00,4.88e+00,
1041,5.12e+00,5.04e+00,
1042,5.12e+00,4.88e+00,
1043,4.96e+00,4.96e+00,
1044,5.12e+00,4.96e+00,
1045,4.96e+00,4.80e+00,
1046,5.12e+00,4.88e+00,
1047,4.88e+00,4.64e+00,
1048,4.96e+00,4.80e+00,
1049,4.80e+00,4.56e+00,
1050,4.88e+00,4.72e+00,
1051,4.64e+00,4.48e+00,
1052,4.72e+00,4.56e+00,
1053,4.48e+00,4.40e+00,
1054,4.64e+00,4.48e+00,
1055,4.40e+00,4.24e+00,
1056,4.48e+00,4.32e+00,
1057,4.24e+00,4.08e+00,
1058,4.32e+00,4.24e+00,
1059,4.08e+00,3.84e+00,
1060,4.16e+00,4.00e+00,
1061,3.76e+00,3.68e+00,
1062,3.92e+00,3.84e+00,
1063,3.60e+00,3.52e+00,
1064,3.68e+00,3.60e+00,
1065,3.36e+00,3.28e+00,
1066,3.52e+00,3.36e+00,
1067,3.12e+00,3.04e+00,
1068,3.20e+00,3.12e+00,
1069,2.88e+00,2.80e+00,
1070,2.96e+00,2.88e+00,
1071,2.64e+00,2.56e+00,
1072,2.72e+00,2.64e+00,
1073,2.40e+00,2.24e+00,
1074,2.40e+00,2.32e+00,
1075,2.00e+00,2.00e+00,
1076,2.16e+00,2.08e+00,
1077,1.76e+00,1.76e+00,
1078,1.84e+00,1.76e+00,
1079,1.44e+00,1.44e+00,
1080,1.52e+00,1.52e+00,
1081,1.12e+00,1.12e+00,
1082,1.20e+00,1.28e+00,
1083,8.80e-01,8.00e-01,
1084,9.60e-01,8.80e-01,
1085,4.80e-01,5.60e-01,
1086,5.60e-01,6.40e-01,
1087,1.60e-01,1.60e-01,
1088,3.20e-01,2.40e-01,
1089,-1.60e-01,-8.00e-02,
1090,-8.00e-02,0.00e+00,
1091,-4.80e-01,-4.00e-01,
1092,-4.00e-01,-3.20e-01,
1093,-7.20e-01,-7.20e-01,
1094,-7.20e-01,-6.40e-01,
1095,-1.12e+00,-1.04e+00,
1096,-1.04e+00,-8.80e-01,
1097,-1.36e+00,-1.28e+00,
1098,-1.28e+00,-1.28e+00,
1099,-1.76e+00,-1.60e+00,
1100,-1.68e+00,-1.52e+00,
1101,-2.00e+00,-1.92e+00,
1102,-1.92e+00,-1.76e+00,
1103,-2.32e+00,-2.24e+00,
1104,-2.24e+00,-2.08e+00,
1105,-2.64e+00,-2.48e+00,
1106,-2.56e+00,-2.32e+00,
1107,-2.88e+00,-2.72e+00,
1108,-2.80e+00,-2.56e+00,
1109,-3.20e+00,-3.04e+00,
1110,-3.12e+00,-2.88e+00,
1111,-3.44e+00,-3.20e+00,
1112,-3.28e+00,-3.12e+00,
1113,-3.60e+00,-3.44e+00,
1114,-3.52e+00,-3.36e+00,
1115,-3.84e+00,-3.68e+00,
1116,-3.68e+00,-3.60e+00,
1117,-4.16e+00,-3.92e+00,
1118,-4.00e+00,-3.76e+00,
1119,-4.32e+00,-4.08e+00,
1120,-4.16e+00,-3.92e+00,
1121,-4.48e+00,-4.16e+00,
1122,-4.32e+00,-4.16e+00,
1123,-4.56e+00,-4.40e+00,
1124,-4.48e+00,-4.32e+00,
1125,-4.80e+00,-4.56e+00,
1126,-4.72e+00,-4.40e+00,
1127,-4.88e+00,-4.64e+00,
1128,-4.80e+00,-4.48e+00,
1129,-4.96e+00,-4.72e+00,
1130,-4.88e+00,-4.64e+00,
1131,-5.04e+00,-4.80e+00,
1132,-4.96e+00,-4.64e+00,
1133,-5.12e+00,-4.88e+00,
1134,-5.04e+00,-4.72e+00,
1135,-5.20e+00,-4.88e+00,
1136,-5.20e+00,-4.88e+00,
1137,-5.04e+00,-4.80e+00,
1138,-5.12e+00,-4.80e+00,
1139,-5.20e+00,-5.04e+00,
1140,-5.20e+00,-5.04e+00,
1141,-5.04e+00,-4.80e+00,
1142,-5.20e+00,-4.88e+00,
1143,-5.04e+00,-4.72e+00,
1144,-5.12e+00,-4.72e+00,
1145,-4.96e+00,-4.88e+00,
1146,-4.96e+00,-4.80e+00,
1147,-5.12e+00,-4.64e+00,
1148,-5.04e+00,-4.80e+00,
1149,-4.88e+00,-4.56e+00,
1150,-4.96e+00,-4.72e+00,
1151,-4.72e+00,-4.48e+00,
1152,-4.88e+00,-4.56e+00,
1153,-4.56e+00,-4.32e+00,
1154,-4.64e+00,-4.48e+00,
1155,-4.40e+00,-4.24e+00,
1156,-4.48e+00,-4.32e+00,
1157,-4.24e+00,-4.00e+00,
1158,-4.32e+00,-4.16e+00,
1159,-4.08e+00,-3.84e+00,
1160,-4.16e+00,-4.00e+00,
1161,-3.92e+00,-3.68e+00,
1162,-4.00e+00,-3.76e+00,
1163,-3.68e+00,-3.52e+00,
1164,-3.76e+00,-3.60e+00,
1165,-3.44e+00,-3.20e+00,
1166,-3.52e+00,-3.36e+00,
1167,-3.20e+00,-3.04e+00,
1168,-3.28e+00,-3.12e+00,
1169,-2.88e+00,-2.80e+00,
1170,-3.04e+00,-2.88e+00,
1171,-2.64e+00,-2.56e+00,
1172,-2.80e+00,-2.56e+00,
1173,-2.40e+00,-2.24e+00,
1174,-2.48e+00,-2.32e+00,
1175,-2.08e+00,-2.00e+00,
1176,-2.16e+00,-2.08e+00,
1177,-1.84e+00,-1.68e+00,
1178,-1.92e+00,-1.76e+00,
1179,-1.52e+00,-1.36e+00,
1180,-1.52e+00,-1.52e+00,
1181,-1.20e+00,-1.12e+00,
1182,-1.28e+00,-1.20e+00,
1183,-8.80e-01,-8.00e-01,
1184,-9.60e-01,-8.80e-01,
1185,-5.60e-01,-4.80e-01,
1186,-6.40e-01,-6.40e-01,
1187,-2.40e-01,-1.60e-01,
1188,-3.20e-01,-2.40e-01,
1189,8.00e-02,8.00e-02,
1190,0.00e+00,0.00e+00,
1191,4.00e-01,4.80e-01,
1192,3.20e-01,4.00e-01,
1193,7.20e-01,7.20e-01,
1194,6.40e-01,6.40e-01,
1195,1.04e+00,1.04e+00,
1196,9.60e-01,8.80e-01,
1197,1.36e+00,1.36e+00,
1198,1.28e+00,1.28e+00,
1199,1.60e+00,1.60e+00,
