Version 4
SHEET 1 880 680
WIRE -112 112 -192 112
WIRE 48 112 -32 112
WIRE -336 256 -384 256
WIRE -192 256 -192 112
WIRE -192 256 -256 256
WIRE -96 256 -192 256
WIRE 48 272 48 112
WIRE 48 272 -32 272
WIRE 112 272 48 272
WIRE 128 272 112 272
WIRE -96 288 -256 288
WIRE 592 288 592 224
WIRE 720 288 720 224
WIRE -384 304 -384 256
WIRE 112 304 112 272
WIRE -256 368 -256 288
WIRE 112 448 112 384
WIRE -256 512 -256 448
FLAG 592 288 0
FLAG 720 288 0
FLAG 592 144 Vdd+
FLAG 720 144 Vdd-
FLAG -64 240 Vdd+
FLAG -64 304 Vdd-
FLAG -256 512 0
FLAG -384 304 0
FLAG 128 272 Vout
FLAG 112 448 0
SYMBOL OpAmps\\ADTL082 -64 208 R0
SYMATTR InstName U1
SYMBOL voltage 592 128 R0
SYMATTR InstName Vdd+
SYMATTR Value 15
SYMBOL voltage 720 128 R0
SYMATTR InstName Vdd-
SYMATTR Value -15
SYMBOL voltage -256 352 R0
WINDOW 123 0 0 Left 0
WINDOW 39 0 0 Left 0
SYMATTR InstName V1
SYMATTR Value SINE(0 1.3 2khz)
SYMBOL res -240 240 R90
WINDOW 0 0 56 VBottom 2
WINDOW 3 32 56 VTop 2
SYMATTR InstName R4
SYMATTR Value 22k
SYMBOL res -16 96 R90
WINDOW 0 0 56 VBottom 2
WINDOW 3 32 56 VTop 2
SYMATTR InstName R5
SYMATTR Value 82k
SYMBOL res 96 288 R0
SYMATTR InstName R6
SYMATTR Value 4.7k
TEXT -144 16 Left 2 ;Transconductance Amplifier Iout=Vi/1000
TEXT -408 536 Left 2 !.tran 1md
