SAMPLE,IN,OUT,START,INCREMENT,
Sequence,Volt,Bits,0e+00,1e+00
0,1.16e-02,-1,
1,0.32e+00,0.1,
2,0.646e+00,12,
3,0.943e+00,23,
4,1.274e+00,34,
5,1.592e+00,45,
6,1.934e+00,56,
7,2.27e+00,67,
8,2.524e+00,78,
9,2.851e+00,89,
10,3.156e+00,910,
11,3.513e+00,1011,
12,3.8e+00,1112,
13,4.1518e+00,1213,
14,4.4619e+00,1314,
15,4.78e+00,1415,
16,5e+00,-1,
