X,CH1,CH2,CH3,Start,Increment,
Sequence,Volt,Volt,Volt,-1.200000e-02,2.000000e-05
0,1.80e+00,1.96e+00,5.00e+00,
1,1.92e+00,2.00e+00,5.04e+00,
2,1.80e+00,2.08e+00,5.00e+00,
3,1.92e+00,1.88e+00,-4.00e-02,
4,1.88e+00,2.20e+00,0.00e+00,
5,1.96e+00,1.56e+00,5.12e+00,
6,1.88e+00,1.68e+00,5.04e+00,
7,1.96e+00,1.56e+00,-4.00e-02,
8,1.92e+00,1.40e+00,0.00e+00,
9,2.04e+00,2.08e+00,5.12e+00,
10,2.00e+00,2.00e+00,5.04e+00,
11,2.08e+00,1.96e+00,5.00e+00,
12,2.00e+00,2.08e+00,5.04e+00,
13,2.08e+00,1.92e+00,-1.20e-01,
14,2.04e+00,1.80e+00,0.00e+00,
15,2.16e+00,2.40e+00,5.16e+00,
16,2.16e+00,2.40e+00,5.04e+00,
17,2.04e+00,2.20e+00,-4.00e-02,
18,2.12e+00,2.48e+00,0.00e+00,
19,2.20e+00,1.92e+00,5.16e+00,
20,2.16e+00,1.92e+00,5.00e+00,
21,2.28e+00,2.00e+00,5.04e+00,
22,2.16e+00,2.00e+00,5.04e+00,
23,2.28e+00,1.88e+00,-8.00e-02,
24,2.24e+00,1.96e+00,0.00e+00,
25,2.32e+00,2.40e+00,5.12e+00,
26,2.24e+00,2.32e+00,5.04e+00,
27,2.32e+00,2.20e+00,-4.00e-02,
28,2.28e+00,2.40e+00,-4.00e-02,
29,2.40e+00,1.92e+00,5.16e+00,
30,2.36e+00,2.00e+00,5.04e+00,
31,2.44e+00,1.92e+00,4.96e+00,
32,2.44e+00,1.88e+00,5.04e+00,
33,2.36e+00,2.04e+00,-8.00e-02,
34,2.40e+00,1.96e+00,0.00e+00,
35,2.52e+00,2.40e+00,5.08e+00,
36,2.44e+00,2.40e+00,5.08e+00,
37,2.56e+00,2.24e+00,-8.00e-02,
38,2.48e+00,1.88e+00,-4.00e-02,
39,2.56e+00,2.72e+00,5.16e+00,
40,2.52e+00,2.64e+00,5.04e+00,
41,2.64e+00,2.48e+00,4.96e+00,
42,2.52e+00,2.52e+00,5.04e+00,
43,2.64e+00,2.68e+00,-4.00e-02,
44,2.60e+00,2.44e+00,0.00e+00,
45,2.68e+00,3.00e+00,5.12e+00,
46,2.64e+00,3.00e+00,5.04e+00,
47,2.76e+00,2.80e+00,-4.00e-02,
48,2.76e+00,3.04e+00,0.00e+00,
49,2.64e+00,2.52e+00,5.08e+00,
50,2.72e+00,2.64e+00,5.00e+00,
51,2.80e+00,2.48e+00,5.04e+00,
52,2.76e+00,2.68e+00,5.04e+00,
53,2.88e+00,2.44e+00,-4.00e-02,
54,2.76e+00,2.52e+00,0.00e+00,
55,2.88e+00,3.00e+00,5.12e+00,
56,2.84e+00,3.00e+00,5.04e+00,
57,2.92e+00,2.80e+00,-8.00e-02,
58,2.92e+00,3.04e+00,0.00e+00,
59,2.84e+00,2.52e+00,5.16e+00,
60,2.88e+00,2.52e+00,5.04e+00,
61,3.00e+00,2.64e+00,4.96e+00,
62,2.88e+00,2.72e+00,5.04e+00,
63,3.04e+00,2.44e+00,-4.00e-02,
64,3.04e+00,2.44e+00,0.00e+00,
65,2.96e+00,3.00e+00,5.16e+00,
66,3.00e+00,2.96e+00,5.04e+00,
67,3.12e+00,2.76e+00,-8.00e-02,
68,3.12e+00,2.64e+00,0.00e+00,
69,3.00e+00,3.32e+00,5.16e+00,
70,3.08e+00,3.20e+00,5.00e+00,
71,3.16e+00,3.28e+00,5.04e+00,
72,3.16e+00,3.32e+00,5.04e+00,
73,3.08e+00,3.16e+00,-8.00e-02,
74,3.12e+00,3.48e+00,0.00e+00,
75,3.24e+00,2.84e+00,5.12e+00,
76,3.20e+00,3.00e+00,5.04e+00,
77,3.28e+00,2.80e+00,-1.20e-01,
78,3.28e+00,2.64e+00,0.00e+00,
79,3.20e+00,3.32e+00,5.12e+00,
80,3.24e+00,3.28e+00,5.00e+00,
81,3.36e+00,3.20e+00,5.04e+00,
82,3.36e+00,3.12e+00,5.04e+00,
83,3.24e+00,3.28e+00,-1.20e-01,
84,3.32e+00,3.20e+00,0.00e+00,
85,3.40e+00,3.68e+00,5.16e+00,
86,3.40e+00,3.64e+00,5.04e+00,
87,3.32e+00,3.44e+00,-4.00e-02,
88,3.36e+00,3.64e+00,0.00e+00,
89,3.48e+00,3.16e+00,5.16e+00,
90,3.36e+00,3.20e+00,5.00e+00,
91,3.48e+00,3.28e+00,5.04e+00,
92,3.44e+00,3.12e+00,5.04e+00,
93,3.52e+00,3.28e+00,-1.20e-01,
94,3.44e+00,3.20e+00,0.00e+00,
95,3.52e+00,3.68e+00,5.16e+00,
96,3.48e+00,3.64e+00,5.04e+00,
97,3.60e+00,3.44e+00,-4.00e-02,
98,3.60e+00,3.60e+00,0.00e+00,
99,3.48e+00,3.16e+00,5.08e+00,
100,3.56e+00,3.20e+00,5.00e+00,
101,3.64e+00,3.24e+00,5.04e+00,
102,3.64e+00,3.32e+00,5.04e+00,
103,3.56e+00,3.16e+00,-8.00e-02,
104,3.60e+00,3.16e+00,0.00e+00,
105,3.72e+00,3.68e+00,5.16e+00,
106,3.72e+00,3.52e+00,5.04e+00,
107,3.60e+00,3.64e+00,-8.00e-02,
108,3.68e+00,3.20e+00,0.00e+00,
109,3.72e+00,4.00e+00,5.12e+00,
110,3.68e+00,3.92e+00,5.00e+00,
111,3.76e+00,3.84e+00,5.04e+00,
112,3.68e+00,3.96e+00,5.04e+00,
113,3.76e+00,3.80e+00,-8.00e-02,
114,3.72e+00,4.16e+00,0.00e+00,
115,3.84e+00,3.48e+00,5.12e+00,
116,3.72e+00,3.64e+00,5.04e+00,
117,3.84e+00,3.48e+00,-1.20e-01,
118,3.72e+00,3.20e+00,0.00e+00,
119,3.84e+00,3.92e+00,5.16e+00,
120,3.80e+00,3.92e+00,4.96e+00,
121,3.88e+00,3.84e+00,5.08e+00,
122,3.80e+00,3.92e+00,5.04e+00,
123,3.88e+00,3.80e+00,-4.00e-02,
124,3.88e+00,4.20e+00,0.00e+00,
125,3.80e+00,3.44e+00,5.16e+00,
126,3.84e+00,3.52e+00,5.04e+00,
127,3.88e+00,3.68e+00,-1.20e-01,
128,3.84e+00,3.20e+00,0.00e+00,
129,3.96e+00,4.00e+00,5.16e+00,
130,3.96e+00,3.92e+00,5.04e+00,
131,3.84e+00,3.84e+00,5.00e+00,
132,3.84e+00,3.92e+00,5.04e+00,
133,3.96e+00,3.72e+00,-1.20e-01,
134,3.92e+00,3.72e+00,0.00e+00,
135,3.96e+00,4.28e+00,5.16e+00,
136,4.00e+00,4.28e+00,5.04e+00,
137,3.92e+00,4.08e+00,-1.20e-01,
138,4.00e+00,4.40e+00,0.00e+00,
139,3.92e+00,3.84e+00,5.16e+00,
140,3.92e+00,3.84e+00,5.04e+00,
141,4.00e+00,3.96e+00,5.00e+00,
142,4.00e+00,3.92e+00,5.04e+00,
143,3.96e+00,3.84e+00,-1.20e-01,
144,4.00e+00,3.84e+00,0.00e+00,
145,3.96e+00,4.28e+00,5.12e+00,
146,3.96e+00,4.24e+00,5.04e+00,
147,4.08e+00,4.08e+00,-1.20e-01,
148,3.96e+00,4.24e+00,0.00e+00,
149,4.08e+00,3.84e+00,5.08e+00,
150,3.96e+00,3.96e+00,5.00e+00,
151,4.08e+00,3.80e+00,5.04e+00,
152,4.08e+00,3.92e+00,5.04e+00,
153,3.96e+00,3.80e+00,-4.00e-02,
154,3.96e+00,3.88e+00,0.00e+00,
155,4.08e+00,4.28e+00,5.12e+00,
156,3.96e+00,4.24e+00,5.04e+00,
157,4.08e+00,4.08e+00,-8.00e-02,
158,4.08e+00,4.40e+00,0.00e+00,
159,3.96e+00,3.84e+00,5.16e+00,
160,4.04e+00,3.96e+00,5.00e+00,
161,4.08e+00,3.80e+00,5.04e+00,
162,4.04e+00,3.92e+00,5.04e+00,
163,4.08e+00,3.80e+00,-4.00e-02,
164,4.04e+00,3.76e+00,0.00e+00,
165,4.08e+00,4.32e+00,5.16e+00,
166,4.08e+00,4.16e+00,5.04e+00,
167,4.00e+00,4.28e+00,-1.20e-01,
168,4.08e+00,4.36e+00,0.00e+00,
169,3.96e+00,3.84e+00,5.16e+00,
170,4.08e+00,3.96e+00,5.00e+00,
171,3.96e+00,3.80e+00,5.04e+00,
172,4.08e+00,3.84e+00,5.04e+00,
173,3.96e+00,4.00e+00,-4.00e-02,
174,3.96e+00,3.76e+00,0.00e+00,
175,4.08e+00,4.32e+00,5.08e+00,
176,4.08e+00,4.16e+00,5.04e+00,
177,3.96e+00,4.28e+00,-4.00e-02,
178,3.96e+00,4.36e+00,0.00e+00,
179,4.08e+00,3.84e+00,5.16e+00,
180,4.08e+00,3.96e+00,5.04e+00,
181,3.96e+00,3.84e+00,5.00e+00,
182,4.08e+00,4.00e+00,5.04e+00,
183,3.96e+00,3.80e+00,-4.00e-02,
184,4.00e+00,3.76e+00,0.00e+00,
185,3.96e+00,4.32e+00,5.12e+00,
186,4.00e+00,4.28e+00,5.04e+00,
187,3.96e+00,4.12e+00,-4.00e-02,
188,4.00e+00,4.36e+00,0.00e+00,
189,3.92e+00,3.84e+00,5.16e+00,
190,3.92e+00,3.96e+00,5.04e+00,
191,4.00e+00,3.80e+00,5.00e+00,
192,4.00e+00,4.00e+00,5.04e+00,
193,3.92e+00,3.80e+00,-1.20e-01,
194,3.92e+00,3.76e+00,0.00e+00,
195,3.96e+00,4.28e+00,5.12e+00,
196,3.96e+00,4.28e+00,5.04e+00,
197,3.88e+00,4.12e+00,-8.00e-02,
198,3.96e+00,4.36e+00,0.00e+00,
199,3.84e+00,3.84e+00,5.16e+00,
200,3.96e+00,3.92e+00,5.00e+00,
201,3.84e+00,3.84e+00,5.04e+00,
202,3.92e+00,3.92e+00,5.04e+00,
203,3.84e+00,3.80e+00,-4.00e-02,
204,3.88e+00,3.92e+00,0.00e+00,
205,3.80e+00,3.52e+00,5.16e+00,
206,3.88e+00,3.56e+00,5.04e+00,
207,3.80e+00,3.68e+00,-8.00e-02,
208,3.88e+00,3.24e+00,0.00e+00,
209,3.80e+00,4.00e+00,5.16e+00,
210,3.84e+00,3.88e+00,5.00e+00,
211,3.72e+00,3.96e+00,5.04e+00,
212,3.72e+00,3.92e+00,5.04e+00,
213,3.84e+00,3.80e+00,-4.00e-02,
214,3.72e+00,3.92e+00,0.00e+00,
215,3.84e+00,3.52e+00,5.12e+00,
216,3.76e+00,3.64e+00,5.04e+00,
217,3.68e+00,3.52e+00,-8.00e-02,
218,3.76e+00,3.24e+00,0.00e+00,
219,3.68e+00,4.00e+00,5.12e+00,
220,3.72e+00,3.92e+00,5.00e+00,
221,3.68e+00,3.88e+00,5.04e+00,
222,3.72e+00,3.80e+00,5.04e+00,
223,3.60e+00,3.96e+00,-8.00e-02,
224,3.60e+00,4.20e+00,0.00e+00,
225,3.72e+00,3.52e+00,5.12e+00,
226,3.64e+00,3.68e+00,5.04e+00,
227,3.56e+00,3.52e+00,-8.00e-02,
228,3.56e+00,3.20e+00,0.00e+00,
229,3.64e+00,4.00e+00,5.16e+00,
230,3.60e+00,3.84e+00,5.08e+00,
231,3.48e+00,3.96e+00,4.92e+00,
232,3.60e+00,3.84e+00,5.04e+00,
233,3.48e+00,3.96e+00,-8.00e-02,
234,3.52e+00,4.24e+00,0.00e+00,
235,3.44e+00,3.52e+00,5.16e+00,
236,3.44e+00,3.68e+00,5.04e+00,
237,3.52e+00,3.48e+00,-1.20e-01,
238,3.48e+00,3.72e+00,0.00e+00,
239,3.36e+00,3.20e+00,5.16e+00,
240,3.48e+00,3.28e+00,4.96e+00,
241,3.36e+00,3.20e+00,5.08e+00,
242,3.40e+00,3.36e+00,5.04e+00,
243,3.32e+00,3.12e+00,-8.00e-02,
244,3.32e+00,3.12e+00,0.00e+00,
245,3.40e+00,3.68e+00,5.12e+00,
246,3.36e+00,3.64e+00,5.04e+00,
247,3.24e+00,3.44e+00,-1.20e-01,
248,3.36e+00,3.68e+00,0.00e+00,
249,3.24e+00,3.16e+00,5.16e+00,
250,3.28e+00,3.20e+00,5.00e+00,
251,3.20e+00,3.28e+00,5.04e+00,
252,3.20e+00,3.20e+00,5.04e+00,
253,3.28e+00,3.36e+00,-4.00e-02,
254,3.24e+00,3.48e+00,0.00e+00,
255,3.12e+00,2.84e+00,5.16e+00,
256,3.24e+00,3.00e+00,5.04e+00,
257,3.08e+00,2.84e+00,-1.20e-01,
258,3.16e+00,2.72e+00,0.00e+00,
259,3.08e+00,3.32e+00,5.16e+00,
260,3.12e+00,3.28e+00,5.00e+00,
261,3.00e+00,3.20e+00,5.04e+00,
262,3.12e+00,3.28e+00,5.04e+00,
263,3.00e+00,3.20e+00,-4.00e-02,
264,3.04e+00,3.28e+00,0.00e+00,
265,2.96e+00,2.84e+00,5.12e+00,
266,3.04e+00,2.96e+00,5.04e+00,
267,2.88e+00,2.84e+00,-8.00e-02,
268,3.00e+00,2.64e+00,0.00e+00,
269,2.88e+00,3.36e+00,5.16e+00,
270,2.92e+00,3.20e+00,5.00e+00,
271,2.84e+00,3.28e+00,5.04e+00,
272,2.84e+00,3.28e+00,5.04e+00,
273,2.92e+00,3.16e+00,-8.00e-02,
274,2.88e+00,3.28e+00,0.00e+00,
275,2.76e+00,2.88e+00,5.16e+00,
276,2.88e+00,2.96e+00,5.04e+00,
277,2.72e+00,2.80e+00,-4.00e-02,
278,2.80e+00,2.96e+00,0.00e+00,
279,2.72e+00,2.52e+00,5.12e+00,
280,2.76e+00,2.64e+00,5.00e+00,
281,2.64e+00,2.52e+00,5.04e+00,
282,2.76e+00,2.68e+00,5.04e+00,
283,2.64e+00,2.48e+00,-4.00e-02,
284,2.68e+00,2.52e+00,0.00e+00,
285,2.60e+00,3.00e+00,5.12e+00,
286,2.64e+00,3.04e+00,5.04e+00,
287,2.52e+00,2.80e+00,-1.20e-01,
288,2.52e+00,3.04e+00,0.00e+00,
289,2.64e+00,2.56e+00,5.16e+00,
290,2.56e+00,2.64e+00,5.00e+00,
291,2.48e+00,2.52e+00,5.04e+00,
292,2.48e+00,2.52e+00,5.04e+00,
293,2.56e+00,2.64e+00,-1.20e-01,
294,2.52e+00,3.08e+00,0.00e+00,
295,2.40e+00,2.08e+00,5.16e+00,
296,2.44e+00,2.24e+00,5.04e+00,
297,2.36e+00,2.40e+00,-4.00e-02,
298,2.44e+00,2.68e+00,0.00e+00,
299,2.36e+00,1.96e+00,5.16e+00,
300,2.40e+00,2.56e+00,5.04e+00,
301,2.28e+00,2.64e+00,5.00e+00,
302,2.32e+00,2.56e+00,5.04e+00,
303,2.24e+00,2.64e+00,-1.20e-01,
304,2.24e+00,3.08e+00,0.00e+00,
305,2.32e+00,2.08e+00,5.16e+00,
306,2.28e+00,2.44e+00,5.04e+00,
307,2.16e+00,2.20e+00,-4.00e-02,
308,2.24e+00,2.48e+00,0.00e+00,
309,2.12e+00,1.96e+00,5.12e+00,
310,2.20e+00,1.96e+00,5.04e+00,
311,2.12e+00,2.04e+00,5.00e+00,
312,2.16e+00,2.08e+00,5.04e+00,
313,2.04e+00,1.88e+00,-1.20e-01,
314,2.16e+00,1.88e+00,0.00e+00,
315,2.04e+00,2.40e+00,5.16e+00,
316,2.08e+00,2.40e+00,5.04e+00,
317,2.00e+00,2.20e+00,-4.00e-02,
318,2.08e+00,2.48e+00,0.00e+00,
319,2.00e+00,1.92e+00,5.12e+00,
320,1.92e+00,1.96e+00,5.04e+00,
321,2.04e+00,2.00e+00,5.00e+00,
322,1.96e+00,1.88e+00,5.04e+00,
323,1.88e+00,2.04e+00,-8.00e-02,
324,1.96e+00,2.04e+00,0.00e+00,
325,1.88e+00,1.56e+00,5.12e+00,
326,1.92e+00,1.64e+00,5.04e+00,
327,1.80e+00,1.76e+00,-1.20e-01,
328,1.80e+00,1.40e+00,0.00e+00,
329,1.92e+00,2.08e+00,5.12e+00,
330,1.84e+00,1.96e+00,5.04e+00,
331,1.76e+00,2.04e+00,5.00e+00,
332,1.76e+00,1.96e+00,5.04e+00,
333,1.84e+00,2.08e+00,-4.00e-02,
334,1.80e+00,2.00e+00,0.00e+00,
335,1.68e+00,1.56e+00,5.12e+00,
336,1.76e+00,1.64e+00,5.04e+00,
337,1.68e+00,1.76e+00,-1.20e-01,
338,1.72e+00,1.40e+00,0.00e+00,
339,1.64e+00,2.08e+00,5.08e+00,
340,1.64e+00,2.04e+00,5.04e+00,
341,1.72e+00,1.92e+00,4.96e+00,
342,1.56e+00,1.92e+00,5.04e+00,
343,1.68e+00,2.08e+00,-8.00e-02,
344,1.64e+00,2.24e+00,0.00e+00,
345,1.56e+00,1.56e+00,5.12e+00,
346,1.60e+00,1.76e+00,5.08e+00,
347,1.52e+00,1.56e+00,-4.00e-02,
348,1.60e+00,1.80e+00,0.00e+00,
349,1.44e+00,1.28e+00,5.12e+00,
350,1.56e+00,1.36e+00,5.04e+00,
351,1.44e+00,1.24e+00,4.96e+00,
352,1.56e+00,1.40e+00,5.04e+00,
353,1.44e+00,1.20e+00,-4.00e-02,
354,1.48e+00,1.20e+00,0.00e+00,
355,1.40e+00,1.72e+00,5.16e+00,
356,1.40e+00,1.72e+00,5.04e+00,
357,1.48e+00,1.52e+00,-1.20e-01,
358,1.44e+00,1.76e+00,0.00e+00,
359,1.36e+00,1.28e+00,5.16e+00,
360,1.44e+00,1.28e+00,5.00e+00,
361,1.32e+00,1.36e+00,5.04e+00,
362,1.32e+00,1.44e+00,5.04e+00,
363,1.44e+00,1.20e+00,-8.00e-02,
364,1.36e+00,1.20e+00,0.00e+00,
365,1.28e+00,1.72e+00,5.16e+00,
366,1.36e+00,1.72e+00,5.04e+00,
367,1.28e+00,1.56e+00,-1.20e-01,
368,1.28e+00,1.80e+00,0.00e+00,
369,1.36e+00,1.28e+00,5.16e+00,
370,1.32e+00,1.28e+00,5.04e+00,
371,1.20e+00,1.32e+00,5.00e+00,
372,1.32e+00,1.28e+00,5.04e+00,
373,1.20e+00,1.40e+00,-1.20e-01,
374,1.24e+00,1.64e+00,0.00e+00,
375,1.20e+00,9.20e-01,5.12e+00,
376,1.24e+00,1.08e+00,5.04e+00,
377,1.16e+00,9.20e-01,-1.20e-01,
378,1.16e+00,6.80e-01,0.00e+00,
379,1.24e+00,1.40e+00,5.12e+00,
380,1.24e+00,1.28e+00,5.00e+00,
381,1.16e+00,1.36e+00,5.04e+00,
382,1.16e+00,1.28e+00,5.04e+00,
383,1.20e+00,1.40e+00,-4.00e-02,
384,1.20e+00,1.36e+00,0.00e+00,
385,1.08e+00,9.20e-01,5.12e+00,
386,1.20e+00,1.04e+00,5.04e+00,
387,1.08e+00,9.20e-01,-4.00e-02,
388,1.08e+00,7.20e-01,0.00e+00,
389,1.20e+00,1.40e+00,5.12e+00,
390,1.08e+00,1.28e+00,5.00e+00,
391,1.16e+00,1.36e+00,5.04e+00,
392,1.12e+00,1.28e+00,5.04e+00,
393,1.04e+00,1.40e+00,-1.20e-01,
394,1.12e+00,1.36e+00,0.00e+00,
395,1.04e+00,9.20e-01,5.12e+00,
396,1.04e+00,1.04e+00,5.04e+00,
397,1.12e+00,9.20e-01,-4.00e-02,
398,1.12e+00,6.80e-01,0.00e+00,
399,1.04e+00,1.40e+00,5.12e+00,
400,1.04e+00,1.28e+00,5.04e+00,
401,1.12e+00,1.36e+00,5.00e+00,
402,1.04e+00,1.28e+00,5.04e+00,
403,1.12e+00,1.40e+00,-4.00e-02,
404,1.04e+00,1.68e+00,0.00e+00,
405,1.12e+00,9.20e-01,5.12e+00,
406,1.04e+00,1.08e+00,5.04e+00,
407,1.08e+00,9.20e-01,-4.00e-02,
408,1.04e+00,6.80e-01,0.00e+00,
409,1.08e+00,1.40e+00,5.16e+00,
410,1.04e+00,1.32e+00,5.04e+00,
411,1.08e+00,1.28e+00,5.00e+00,
412,1.04e+00,1.24e+00,5.04e+00,
413,1.08e+00,1.40e+00,-4.00e-02,
414,1.04e+00,1.64e+00,0.00e+00,
415,1.08e+00,9.20e-01,5.12e+00,
416,1.04e+00,1.08e+00,5.04e+00,
417,1.08e+00,8.80e-01,-4.00e-02,
418,1.04e+00,6.80e-01,0.00e+00,
419,1.08e+00,1.40e+00,5.12e+00,
420,1.04e+00,1.28e+00,5.00e+00,
421,1.08e+00,1.36e+00,5.04e+00,
422,1.04e+00,1.28e+00,5.04e+00,
423,1.08e+00,1.40e+00,-4.00e-02,
424,1.04e+00,1.64e+00,0.00e+00,
425,1.12e+00,9.20e-01,5.08e+00,
426,1.04e+00,1.04e+00,5.04e+00,
427,1.12e+00,9.20e-01,-1.20e-01,
428,1.04e+00,6.80e-01,0.00e+00,
429,1.12e+00,1.40e+00,5.16e+00,
430,1.04e+00,1.28e+00,5.04e+00,
431,1.12e+00,1.36e+00,5.00e+00,
432,1.04e+00,1.28e+00,5.04e+00,
433,1.12e+00,1.40e+00,-4.00e-02,
434,1.12e+00,1.36e+00,0.00e+00,
435,1.04e+00,9.20e-01,5.16e+00,
436,1.12e+00,1.08e+00,5.04e+00,
437,1.08e+00,9.20e-01,-4.00e-02,
438,1.12e+00,7.20e-01,0.00e+00,
439,1.08e+00,1.40e+00,5.12e+00,
440,1.08e+00,1.28e+00,5.04e+00,
441,1.20e+00,1.36e+00,5.00e+00,
442,1.08e+00,1.28e+00,5.04e+00,
443,1.20e+00,1.40e+00,-4.00e-02,
444,1.08e+00,1.32e+00,0.00e+00,
445,1.20e+00,9.20e-01,5.12e+00,
446,1.16e+00,1.04e+00,5.04e+00,
447,1.20e+00,9.20e-01,-4.00e-02,
448,1.16e+00,6.80e-01,0.00e+00,
449,1.24e+00,1.44e+00,5.12e+00,
450,1.16e+00,1.28e+00,5.00e+00,
451,1.24e+00,1.36e+00,5.04e+00,
452,1.24e+00,1.28e+00,5.04e+00,
453,1.16e+00,1.44e+00,-4.00e-02,
454,1.20e+00,1.32e+00,0.00e+00,
455,1.28e+00,9.20e-01,5.16e+00,
456,1.20e+00,1.04e+00,5.04e+00,
457,1.32e+00,9.20e-01,-1.20e-01,
458,1.32e+00,6.80e-01,0.00e+00,
459,1.20e+00,1.40e+00,5.16e+00,
460,1.28e+00,1.28e+00,5.04e+00,
461,1.32e+00,1.36e+00,5.00e+00,
462,1.28e+00,1.24e+00,5.04e+00,
463,1.36e+00,1.40e+00,-8.00e-02,
464,1.28e+00,1.64e+00,0.00e+00,
465,1.36e+00,9.20e-01,5.12e+00,
466,1.32e+00,1.08e+00,5.04e+00,
467,1.44e+00,9.20e-01,-8.00e-02,
468,1.44e+00,6.80e-01,0.00e+00,
469,1.32e+00,1.40e+00,5.16e+00,
470,1.32e+00,1.28e+00,5.04e+00,
471,1.48e+00,1.32e+00,5.00e+00,
472,1.40e+00,1.40e+00,5.04e+00,
473,1.48e+00,1.24e+00,-4.00e-02,
474,1.48e+00,1.16e+00,0.00e+00,
475,1.40e+00,1.68e+00,5.16e+00,
476,1.44e+00,1.52e+00,5.04e+00,
477,1.56e+00,1.72e+00,-4.00e-02,
478,1.56e+00,1.80e+00,0.00e+00,
479,1.44e+00,1.24e+00,5.12e+00,
480,1.52e+00,1.24e+00,5.04e+00,
481,1.60e+00,1.36e+00,5.00e+00,
482,1.60e+00,1.40e+00,5.04e+00,
483,1.52e+00,1.20e+00,-4.00e-02,
484,1.56e+00,1.16e+00,0.00e+00,
485,1.64e+00,1.72e+00,5.16e+00,
486,1.56e+00,1.76e+00,5.04e+00,
487,1.68e+00,1.56e+00,-4.00e-02,
488,1.64e+00,1.80e+00,0.00e+00,
489,1.72e+00,1.24e+00,5.12e+00,
490,1.64e+00,1.32e+00,5.04e+00,
491,1.72e+00,1.28e+00,5.00e+00,
492,1.68e+00,1.40e+00,5.04e+00,
493,1.76e+00,1.24e+00,-4.00e-02,
494,1.68e+00,1.16e+00,0.00e+00,
495,1.80e+00,1.68e+00,5.16e+00,
496,1.76e+00,1.68e+00,5.04e+00,
497,1.84e+00,1.56e+00,-8.00e-02,
498,1.76e+00,1.40e+00,0.00e+00,
499,1.84e+00,2.08e+00,5.16e+00,
500,1.80e+00,2.00e+00,5.00e+00,
501,1.92e+00,1.96e+00,5.04e+00,
502,1.80e+00,2.00e+00,5.04e+00,
503,1.92e+00,1.88e+00,-4.00e-02,
504,1.88e+00,2.00e+00,0.00e+00,
505,1.96e+00,1.52e+00,5.12e+00,
506,1.88e+00,1.68e+00,5.04e+00,
507,1.96e+00,1.52e+00,-1.20e-01,
508,1.92e+00,1.40e+00,0.00e+00,
509,2.04e+00,2.08e+00,5.16e+00,
510,2.00e+00,2.04e+00,5.04e+00,
511,2.08e+00,1.92e+00,4.96e+00,
512,2.00e+00,1.88e+00,5.04e+00,
513,2.08e+00,2.04e+00,-8.00e-02,
514,2.04e+00,1.96e+00,0.00e+00,
515,2.16e+00,2.44e+00,5.16e+00,
516,2.04e+00,2.40e+00,5.04e+00,
517,2.16e+00,2.20e+00,-4.00e-02,
518,2.12e+00,2.44e+00,-4.00e-02,
519,2.20e+00,1.88e+00,5.12e+00,
520,2.16e+00,1.92e+00,5.08e+00,
521,2.28e+00,2.04e+00,4.92e+00,
522,2.28e+00,2.04e+00,5.04e+00,
523,2.16e+00,1.88e+00,-8.00e-02,
524,2.24e+00,1.84e+00,0.00e+00,
525,2.32e+00,2.44e+00,5.12e+00,
526,2.24e+00,2.24e+00,5.04e+00,
527,2.40e+00,2.40e+00,-4.00e-02,
528,2.28e+00,2.44e+00,0.00e+00,
529,2.40e+00,1.92e+00,5.12e+00,
530,2.36e+00,2.00e+00,5.00e+00,
531,2.44e+00,1.92e+00,5.04e+00,
532,2.44e+00,2.08e+00,5.04e+00,
533,2.36e+00,1.88e+00,-8.00e-02,
534,2.40e+00,1.84e+00,0.00e+00,
535,2.52e+00,2.36e+00,5.16e+00,
536,2.48e+00,2.28e+00,5.04e+00,
537,2.56e+00,2.36e+00,-1.20e-01,
538,2.56e+00,2.72e+00,0.00e+00,
539,2.48e+00,1.88e+00,5.08e+00,
540,2.52e+00,2.48e+00,5.04e+00,
541,2.64e+00,2.64e+00,4.96e+00,
542,2.64e+00,2.68e+00,5.04e+00,
543,2.52e+00,2.52e+00,-4.00e-02,
544,2.60e+00,2.44e+00,0.00e+00,
545,2.68e+00,3.00e+00,5.16e+00,
546,2.60e+00,3.00e+00,5.04e+00,
547,2.76e+00,2.80e+00,-4.00e-02,
548,2.76e+00,3.04e+00,0.00e+00,
549,2.64e+00,2.52e+00,5.12e+00,
550,2.72e+00,2.68e+00,5.04e+00,
551,2.80e+00,2.48e+00,4.96e+00,
552,2.72e+00,2.68e+00,5.04e+00,
553,2.84e+00,2.48e+00,-4.00e-02,
554,2.76e+00,2.48e+00,0.00e+00,
555,2.88e+00,3.00e+00,5.12e+00,
556,2.84e+00,2.88e+00,5.04e+00,
557,2.92e+00,3.00e+00,-4.00e-02,
558,2.92e+00,3.04e+00,0.00e+00,
559,2.84e+00,2.52e+00,5.12e+00,
560,2.88e+00,2.52e+00,5.00e+00,
561,3.00e+00,2.64e+00,5.04e+00,
562,2.88e+00,2.64e+00,5.04e+00,
563,3.04e+00,2.48e+00,-4.00e-02,
564,3.04e+00,2.56e+00,0.00e+00,
565,2.96e+00,3.00e+00,5.16e+00,
566,3.00e+00,2.96e+00,5.04e+00,
567,3.12e+00,2.84e+00,-8.00e-02,
568,3.12e+00,2.64e+00,0.00e+00,
569,3.00e+00,3.32e+00,5.16e+00,
570,3.08e+00,3.20e+00,5.04e+00,
571,3.16e+00,3.28e+00,5.00e+00,
572,3.08e+00,3.28e+00,5.04e+00,
573,3.20e+00,3.12e+00,-4.00e-02,
574,3.12e+00,3.28e+00,0.00e+00,
575,3.24e+00,2.84e+00,5.16e+00,
576,3.20e+00,2.96e+00,5.04e+00,
577,3.28e+00,2.76e+00,-4.00e-02,
578,3.20e+00,2.64e+00,0.00e+00,
579,3.28e+00,3.32e+00,5.12e+00,
580,3.24e+00,3.20e+00,5.04e+00,
581,3.36e+00,3.28e+00,4.96e+00,
582,3.24e+00,3.32e+00,5.04e+00,
583,3.36e+00,3.16e+00,-4.00e-02,
584,3.32e+00,3.12e+00,0.00e+00,
585,3.40e+00,3.64e+00,5.12e+00,
586,3.32e+00,3.68e+00,5.04e+00,
587,3.40e+00,3.48e+00,-1.20e-01,
588,3.36e+00,3.68e+00,0.00e+00,
589,3.48e+00,3.20e+00,5.12e+00,
590,3.36e+00,3.28e+00,5.04e+00,
591,3.48e+00,3.16e+00,4.92e+00,
592,3.44e+00,3.36e+00,5.04e+00,
593,3.52e+00,3.16e+00,-1.20e-01,
594,3.44e+00,3.12e+00,-8.00e-02,
595,3.52e+00,3.68e+00,5.08e+00,
596,3.48e+00,3.64e+00,5.04e+00,
597,3.60e+00,3.52e+00,-8.00e-02,
598,3.48e+00,3.72e+00,-8.00e-02,
599,3.60e+00,3.16e+00,5.12e+00,
600,3.56e+00,3.28e+00,4.96e+00,
601,3.64e+00,3.16e+00,5.08e+00,
602,3.56e+00,3.36e+00,5.04e+00,
603,3.64e+00,3.12e+00,-8.00e-02,
604,3.60e+00,3.12e+00,0.00e+00,
605,3.72e+00,3.64e+00,5.16e+00,
606,3.60e+00,3.52e+00,5.04e+00,
607,3.72e+00,3.64e+00,-4.00e-02,
608,3.64e+00,3.20e+00,0.00e+00,
609,3.72e+00,4.00e+00,5.16e+00,
610,3.68e+00,3.92e+00,5.04e+00,
611,3.76e+00,3.84e+00,5.00e+00,
612,3.76e+00,3.96e+00,5.04e+00,
613,3.68e+00,3.80e+00,-8.00e-02,
614,3.76e+00,4.20e+00,0.00e+00,
615,3.72e+00,3.48e+00,5.12e+00,
616,3.72e+00,3.68e+00,5.04e+00,
617,3.84e+00,3.44e+00,-4.00e-02,
618,3.84e+00,3.20e+00,0.00e+00,
619,3.72e+00,4.00e+00,5.16e+00,
620,3.84e+00,3.92e+00,5.00e+00,
621,3.80e+00,3.84e+00,5.04e+00,
622,3.80e+00,3.92e+00,5.04e+00,
623,3.88e+00,3.84e+00,-4.00e-02,
624,3.88e+00,3.92e+00,0.00e+00,
625,3.80e+00,3.48e+00,5.12e+00,
626,3.84e+00,3.64e+00,5.04e+00,
627,3.92e+00,3.52e+00,-4.00e-02,
628,3.84e+00,3.24e+00,0.00e+00,
629,3.96e+00,4.00e+00,5.12e+00,
630,3.96e+00,3.84e+00,5.04e+00,
631,3.84e+00,3.96e+00,4.96e+00,
632,3.84e+00,3.92e+00,5.04e+00,
633,3.96e+00,3.80e+00,-4.00e-02,
634,3.92e+00,3.84e+00,0.00e+00,
635,4.00e+00,4.32e+00,5.16e+00,
636,3.92e+00,4.24e+00,5.04e+00,
637,4.00e+00,4.12e+00,-4.00e-02,
638,4.00e+00,4.36e+00,0.00e+00,
639,3.92e+00,3.84e+00,5.16e+00,
640,3.92e+00,3.84e+00,5.04e+00,
641,4.00e+00,3.96e+00,4.96e+00,
642,4.00e+00,3.96e+00,5.04e+00,
643,3.92e+00,3.80e+00,-4.00e-02,
644,4.00e+00,3.76e+00,0.00e+00,
645,3.96e+00,4.28e+00,5.16e+00,
646,3.96e+00,4.16e+00,5.04e+00,
647,4.08e+00,4.28e+00,-4.00e-02,
648,3.96e+00,4.36e+00,0.00e+00,
649,4.08e+00,3.84e+00,5.08e+00,
650,4.08e+00,3.92e+00,5.04e+00,
651,3.96e+00,3.80e+00,4.96e+00,
652,4.08e+00,4.00e+00,5.04e+00,
653,3.96e+00,3.80e+00,-1.20e-01,
654,3.96e+00,3.84e+00,0.00e+00,
655,4.08e+00,4.28e+00,5.12e+00,
656,3.96e+00,4.16e+00,5.04e+00,
657,4.08e+00,4.32e+00,-8.00e-02,
658,4.08e+00,4.40e+00,0.00e+00,
659,3.96e+00,3.84e+00,5.08e+00,
660,4.08e+00,3.92e+00,5.04e+00,
661,3.96e+00,3.80e+00,4.96e+00,
662,4.08e+00,3.84e+00,5.04e+00,
663,3.96e+00,3.96e+00,-8.00e-02,
664,4.08e+00,3.76e+00,0.00e+00,
665,3.96e+00,4.28e+00,5.16e+00,
666,4.08e+00,4.28e+00,5.04e+00,
667,3.96e+00,4.08e+00,-1.20e-01,
668,4.08e+00,4.36e+00,-4.00e-02,
669,3.96e+00,3.84e+00,5.16e+00,
670,4.08e+00,3.96e+00,4.96e+00,
671,3.96e+00,3.80e+00,5.04e+00,
672,4.08e+00,4.00e+00,5.04e+00,
673,3.96e+00,3.76e+00,-1.20e-01,
674,4.08e+00,3.76e+00,0.00e+00,
675,3.96e+00,4.28e+00,5.08e+00,
676,3.96e+00,4.28e+00,5.04e+00,
677,4.08e+00,4.12e+00,-1.20e-01,
678,4.08e+00,4.40e+00,0.00e+00,
679,3.96e+00,3.84e+00,5.12e+00,
680,3.96e+00,3.96e+00,5.00e+00,
681,4.08e+00,3.80e+00,5.04e+00,
682,3.96e+00,3.80e+00,5.04e+00,
683,4.08e+00,3.96e+00,-1.20e-01,
684,4.00e+00,3.88e+00,0.00e+00,
685,3.96e+00,4.32e+00,5.08e+00,
686,4.00e+00,4.28e+00,5.04e+00,
687,3.92e+00,4.12e+00,-4.00e-02,
688,4.00e+00,4.40e+00,-4.00e-02,
689,3.92e+00,3.84e+00,5.08e+00,
690,3.92e+00,3.80e+00,4.96e+00,
691,4.00e+00,3.96e+00,5.08e+00,
692,4.00e+00,3.80e+00,5.04e+00,
693,3.92e+00,3.96e+00,-8.00e-02,
694,3.92e+00,3.84e+00,0.00e+00,
695,3.96e+00,4.32e+00,5.16e+00,
696,3.96e+00,4.24e+00,5.04e+00,
697,3.88e+00,4.12e+00,-8.00e-02,
698,3.96e+00,4.36e+00,0.00e+00,
699,3.84e+00,3.84e+00,5.12e+00,
700,3.96e+00,3.88e+00,5.00e+00,
701,3.84e+00,3.92e+00,5.04e+00,
702,3.84e+00,3.96e+00,5.04e+00,
703,3.92e+00,3.84e+00,-8.00e-02,
704,3.88e+00,4.20e+00,0.00e+00,
705,3.80e+00,3.48e+00,5.12e+00,
706,3.88e+00,3.52e+00,5.08e+00,
707,3.80e+00,3.64e+00,-1.20e-01,
708,3.84e+00,3.24e+00,0.00e+00,
709,3.76e+00,4.00e+00,5.16e+00,
710,3.84e+00,3.84e+00,4.96e+00,
711,3.72e+00,3.96e+00,5.08e+00,
712,3.84e+00,3.84e+00,5.04e+00,
713,3.72e+00,3.96e+00,-1.20e-01,
714,3.72e+00,4.20e+00,-4.00e-02,
715,3.84e+00,3.56e+00,5.12e+00,
716,3.76e+00,3.52e+00,5.08e+00,
717,3.68e+00,3.68e+00,-1.20e-01,
718,3.76e+00,3.24e+00,-4.00e-02,
719,3.68e+00,4.00e+00,5.16e+00,
720,3.76e+00,3.96e+00,5.08e+00,
721,3.60e+00,3.84e+00,4.92e+00,
722,3.72e+00,3.84e+00,5.04e+00,
723,3.60e+00,3.96e+00,-1.20e-01,
724,3.60e+00,4.20e+00,0.00e+00,
725,3.68e+00,3.52e+00,5.16e+00,
726,3.64e+00,3.68e+00,5.04e+00,
727,3.56e+00,3.52e+00,-4.00e-02,
728,3.64e+00,3.24e+00,0.00e+00,
729,3.56e+00,4.00e+00,5.16e+00,
730,3.60e+00,3.92e+00,5.04e+00,
731,3.48e+00,3.88e+00,4.96e+00,
732,3.60e+00,3.96e+00,5.04e+00,
733,3.48e+00,3.80e+00,-1.20e-01,
734,3.52e+00,4.20e+00,0.00e+00,
735,3.44e+00,3.52e+00,5.12e+00,
736,3.52e+00,3.64e+00,5.04e+00,
737,3.44e+00,3.44e+00,-1.20e-01,
738,3.48e+00,3.72e+00,0.00e+00,
739,3.36e+00,3.20e+00,5.08e+00,
740,3.48e+00,3.28e+00,5.04e+00,
741,3.36e+00,3.20e+00,4.96e+00,
742,3.40e+00,3.28e+00,5.04e+00,
743,3.32e+00,3.12e+00,-4.00e-02,
744,3.32e+00,3.20e+00,0.00e+00,
745,3.40e+00,3.68e+00,5.12e+00,
746,3.36e+00,3.64e+00,5.08e+00,
747,3.24e+00,3.48e+00,-1.20e-01,
748,3.36e+00,3.72e+00,-4.00e-02,
749,3.20e+00,3.16e+00,5.12e+00,
750,3.28e+00,3.28e+00,5.04e+00,
751,3.20e+00,3.20e+00,4.92e+00,
752,3.20e+00,3.28e+00,5.04e+00,
753,3.28e+00,3.16e+00,-4.00e-02,
754,3.12e+00,3.28e+00,0.00e+00,
755,3.24e+00,2.84e+00,5.16e+00,
756,3.20e+00,2.96e+00,5.04e+00,
757,3.08e+00,2.84e+00,-8.00e-02,
758,3.08e+00,2.64e+00,-4.00e-02,
759,3.16e+00,3.36e+00,5.16e+00,
760,3.12e+00,3.20e+00,4.96e+00,
761,3.00e+00,3.28e+00,5.08e+00,
762,3.00e+00,3.40e+00,5.04e+00,
763,3.12e+00,3.16e+00,-1.20e-01,
764,3.04e+00,3.48e+00,-8.00e-02,
765,2.96e+00,2.88e+00,5.16e+00,
766,3.04e+00,3.00e+00,5.04e+00,
767,2.88e+00,2.84e+00,-4.00e-02,
768,2.88e+00,2.68e+00,-4.00e-02,
769,3.00e+00,3.32e+00,5.12e+00,
770,2.92e+00,3.28e+00,4.96e+00,
771,2.84e+00,3.16e+00,5.08e+00,
772,2.84e+00,3.20e+00,5.04e+00,
773,2.92e+00,3.32e+00,-1.20e-01,
774,2.88e+00,3.48e+00,0.00e+00,
775,2.76e+00,2.88e+00,5.12e+00,
776,2.80e+00,3.04e+00,5.04e+00,
777,2.72e+00,2.80e+00,-4.00e-02,
778,2.72e+00,3.04e+00,0.00e+00,
779,2.80e+00,2.52e+00,5.08e+00,
780,2.76e+00,2.52e+00,5.04e+00,
781,2.64e+00,2.68e+00,5.00e+00,
782,2.64e+00,2.72e+00,5.04e+00,
783,2.76e+00,2.44e+00,-1.20e-01,
784,2.68e+00,2.52e+00,0.00e+00,
785,2.60e+00,3.00e+00,5.16e+00,
786,2.64e+00,3.04e+00,5.04e+00,
787,2.52e+00,2.80e+00,-1.20e-01,
788,2.64e+00,3.04e+00,0.00e+00,
789,2.52e+00,2.52e+00,5.16e+00,
790,2.56e+00,2.52e+00,5.04e+00,
791,2.48e+00,2.64e+00,5.00e+00,
792,2.56e+00,2.68e+00,5.04e+00,
793,2.44e+00,2.52e+00,-4.00e-02,
794,2.52e+00,3.08e+00,0.00e+00,
795,2.40e+00,2.08e+00,5.16e+00,
796,2.44e+00,2.40e+00,5.04e+00,
797,2.36e+00,2.24e+00,-1.20e-01,
798,2.44e+00,1.88e+00,0.00e+00,
799,2.32e+00,2.72e+00,5.16e+00,
800,2.40e+00,2.56e+00,5.04e+00,
801,2.28e+00,2.68e+00,4.92e+00,
802,2.32e+00,2.72e+00,5.04e+00,
803,2.24e+00,2.52e+00,-8.00e-02,
804,2.24e+00,2.68e+00,-4.00e-02,
805,2.32e+00,2.04e+00,5.16e+00,
806,2.28e+00,2.40e+00,5.08e+00,
807,2.16e+00,2.24e+00,-1.20e-01,
808,2.28e+00,2.44e+00,-4.00e-02,
809,2.12e+00,1.92e+00,5.12e+00,
810,2.20e+00,2.04e+00,5.08e+00,
811,2.12e+00,1.92e+00,4.92e+00,
812,2.20e+00,2.04e+00,5.04e+00,
813,2.04e+00,1.88e+00,-4.00e-02,
814,2.04e+00,1.96e+00,0.00e+00,
815,2.16e+00,2.44e+00,5.16e+00,
816,2.08e+00,2.24e+00,5.04e+00,
817,2.00e+00,2.40e+00,-8.00e-02,
818,2.08e+00,2.48e+00,-4.00e-02,
819,1.92e+00,1.92e+00,5.16e+00,
820,2.04e+00,1.92e+00,5.04e+00,
821,1.92e+00,2.04e+00,4.92e+00,
822,2.00e+00,2.08e+00,5.04e+00,
823,1.88e+00,1.88e+00,-4.00e-02,
824,1.88e+00,2.24e+00,0.00e+00,
825,1.96e+00,1.60e+00,5.12e+00,
826,1.92e+00,1.76e+00,5.04e+00,
827,1.80e+00,1.56e+00,-1.20e-01,
828,1.92e+00,1.40e+00,0.00e+00,
829,1.80e+00,2.04e+00,5.16e+00,
830,1.84e+00,1.96e+00,5.00e+00,
831,1.76e+00,2.04e+00,5.04e+00,
832,1.84e+00,1.96e+00,5.04e+00,
833,1.76e+00,2.08e+00,-4.00e-02,
834,1.68e+00,2.20e+00,0.00e+00,
835,1.80e+00,1.60e+00,5.16e+00,
836,1.68e+00,1.60e+00,5.04e+00,
837,1.72e+00,1.72e+00,-8.00e-02,
838,1.72e+00,1.40e+00,0.00e+00,
839,1.64e+00,2.08e+00,5.12e+00,
840,1.64e+00,1.96e+00,5.04e+00,
841,1.72e+00,2.04e+00,4.96e+00,
842,1.68e+00,1.92e+00,5.04e+00,
843,1.56e+00,2.08e+00,-1.20e-01,
844,1.56e+00,2.16e+00,0.00e+00,
845,1.68e+00,1.60e+00,5.16e+00,
846,1.60e+00,1.76e+00,5.04e+00,
847,1.52e+00,1.56e+00,-4.00e-02,
848,1.56e+00,1.80e+00,0.00e+00,
849,1.52e+00,1.28e+00,5.16e+00,
850,1.56e+00,1.28e+00,5.04e+00,
851,1.44e+00,1.36e+00,4.92e+00,
852,1.56e+00,1.40e+00,5.04e+00,
853,1.44e+00,1.20e+00,-8.00e-02,
854,1.48e+00,1.20e+00,0.00e+00,
855,1.40e+00,1.72e+00,5.16e+00,
856,1.40e+00,1.72e+00,5.04e+00,
857,1.48e+00,1.56e+00,-4.00e-02,
858,1.44e+00,1.80e+00,-8.00e-02,
859,1.32e+00,1.28e+00,5.16e+00,
860,1.44e+00,1.36e+00,5.08e+00,
861,1.32e+00,1.24e+00,4.96e+00,
862,1.32e+00,1.20e+00,5.00e+00,
863,1.44e+00,1.36e+00,-1.20e-01,
864,1.36e+00,1.28e+00,0.00e+00,
865,1.28e+00,1.76e+00,5.16e+00,
866,1.36e+00,1.72e+00,5.04e+00,
867,1.28e+00,1.56e+00,-1.20e-01,
868,1.28e+00,1.80e+00,0.00e+00,
869,1.36e+00,1.28e+00,5.16e+00,
870,1.32e+00,1.28e+00,5.00e+00,
871,1.20e+00,1.36e+00,5.04e+00,
872,1.32e+00,1.28e+00,5.04e+00,
873,1.20e+00,1.40e+00,-4.00e-02,
874,1.20e+00,1.36e+00,0.00e+00,
875,1.28e+00,9.20e-01,5.16e+00,
876,1.24e+00,1.04e+00,5.04e+00,
877,1.16e+00,9.20e-01,-8.00e-02,
878,1.16e+00,6.80e-01,0.00e+00,
879,1.24e+00,1.40e+00,5.12e+00,
880,1.24e+00,1.28e+00,5.00e+00,
881,1.16e+00,1.36e+00,5.04e+00,
882,1.16e+00,1.24e+00,5.04e+00,
883,1.20e+00,1.40e+00,-4.00e-02,
884,1.20e+00,1.64e+00,0.00e+00,
885,1.08e+00,9.20e-01,5.16e+00,
886,1.08e+00,1.04e+00,5.04e+00,
887,1.20e+00,9.20e-01,-1.20e-01,
888,1.20e+00,6.80e-01,0.00e+00,
889,1.08e+00,1.40e+00,5.16e+00,
890,1.12e+00,1.28e+00,5.00e+00,
891,1.08e+00,1.36e+00,5.04e+00,
892,1.12e+00,1.24e+00,5.04e+00,
893,1.04e+00,1.40e+00,-1.20e-01,
894,1.12e+00,1.64e+00,0.00e+00,
895,1.04e+00,9.20e-01,5.12e+00,
896,1.04e+00,1.08e+00,5.04e+00,
897,1.12e+00,9.20e-01,-4.00e-02,
898,1.04e+00,6.80e-01,0.00e+00,
899,1.12e+00,1.40e+00,5.16e+00,
900,1.04e+00,1.28e+00,5.04e+00,
901,1.12e+00,1.36e+00,5.00e+00,
902,1.04e+00,1.28e+00,5.04e+00,
903,1.12e+00,1.44e+00,-4.00e-02,
904,1.04e+00,1.68e+00,0.00e+00,
905,1.08e+00,9.20e-01,5.12e+00,
906,1.04e+00,1.04e+00,5.04e+00,
907,1.08e+00,9.20e-01,-4.00e-02,
908,1.04e+00,6.80e-01,0.00e+00,
909,1.08e+00,1.40e+00,5.16e+00,
910,1.08e+00,1.36e+00,5.04e+00,
911,1.00e+00,1.24e+00,4.96e+00,
912,1.04e+00,1.24e+00,5.04e+00,
913,1.08e+00,1.40e+00,-4.00e-02,
914,1.08e+00,1.64e+00,0.00e+00,
915,9.60e-01,9.20e-01,5.12e+00,
916,1.08e+00,1.08e+00,5.04e+00,
917,9.60e-01,8.40e-01,-1.20e-01,
918,1.08e+00,6.80e-01,0.00e+00,
919,1.04e+00,1.40e+00,5.16e+00,
920,1.04e+00,1.28e+00,5.00e+00,
921,1.08e+00,1.36e+00,5.04e+00,
922,1.08e+00,1.28e+00,5.04e+00,
923,1.04e+00,1.40e+00,-4.00e-02,
924,1.04e+00,1.32e+00,0.00e+00,
925,1.08e+00,9.20e-01,5.12e+00,
926,1.04e+00,1.04e+00,5.04e+00,
927,1.12e+00,9.20e-01,-1.20e-01,
928,1.04e+00,6.80e-01,0.00e+00,
929,1.12e+00,1.40e+00,5.12e+00,
930,1.04e+00,1.28e+00,5.04e+00,
931,1.12e+00,1.36e+00,5.00e+00,
932,1.12e+00,1.28e+00,5.04e+00,
933,1.04e+00,1.40e+00,-1.20e-01,
934,1.04e+00,1.32e+00,0.00e+00,
935,1.12e+00,9.20e-01,5.08e+00,
936,1.08e+00,1.04e+00,5.04e+00,
937,1.12e+00,9.20e-01,-4.00e-02,
938,1.08e+00,6.80e-01,0.00e+00,
939,1.16e+00,1.40e+00,5.16e+00,
940,1.08e+00,1.28e+00,5.04e+00,
941,1.20e+00,1.36e+00,4.96e+00,
942,1.20e+00,1.28e+00,5.04e+00,
943,1.08e+00,1.40e+00,-4.00e-02,
944,1.08e+00,1.64e+00,0.00e+00,
945,1.20e+00,9.20e-01,5.12e+00,
946,1.16e+00,1.04e+00,5.04e+00,
947,1.20e+00,9.20e-01,-4.00e-02,
948,1.16e+00,6.80e-01,0.00e+00,
949,1.24e+00,1.40e+00,5.16e+00,
950,1.24e+00,1.28e+00,5.04e+00,
951,1.16e+00,1.32e+00,5.00e+00,
952,1.16e+00,1.28e+00,5.04e+00,
953,1.24e+00,1.44e+00,-4.00e-02,
954,1.20e+00,1.68e+00,0.00e+00,
955,1.28e+00,9.20e-01,5.16e+00,
956,1.20e+00,1.04e+00,5.04e+00,
957,1.32e+00,9.20e-01,-4.00e-02,
958,1.20e+00,6.80e-01,0.00e+00,
959,1.32e+00,1.40e+00,5.16e+00,
960,1.28e+00,1.36e+00,5.00e+00,
961,1.32e+00,1.24e+00,5.04e+00,
962,1.28e+00,1.24e+00,5.04e+00,
963,1.36e+00,1.40e+00,-1.20e-01,
964,1.28e+00,1.64e+00,0.00e+00,
965,1.36e+00,9.20e-01,5.16e+00,
966,1.32e+00,1.08e+00,5.04e+00,
967,1.44e+00,9.20e-01,-4.00e-02,
968,1.44e+00,6.80e-01,0.00e+00,
969,1.32e+00,1.40e+00,5.12e+00,
970,1.44e+00,1.28e+00,5.04e+00,
971,1.32e+00,1.36e+00,5.00e+00,
972,1.40e+00,1.44e+00,5.04e+00,
973,1.48e+00,1.20e+00,-8.00e-02,
974,1.40e+00,1.20e+00,0.00e+00,
975,1.48e+00,1.76e+00,5.16e+00,
976,1.44e+00,1.76e+00,5.04e+00,
977,1.56e+00,1.56e+00,-8.00e-02,
978,1.44e+00,1.80e+00,0.00e+00,
979,1.56e+00,1.28e+00,5.12e+00,
980,1.52e+00,1.24e+00,5.04e+00,
981,1.60e+00,1.32e+00,5.00e+00,
982,1.52e+00,1.20e+00,5.04e+00,
983,1.60e+00,1.36e+00,-4.00e-02,
984,1.56e+00,1.28e+00,0.00e+00,
985,1.64e+00,1.68e+00,5.16e+00,
986,1.56e+00,1.52e+00,5.04e+00,
987,1.68e+00,1.72e+00,-1.20e-01,
988,1.64e+00,1.80e+00,0.00e+00,
989,1.68e+00,1.24e+00,5.12e+00,
990,1.64e+00,1.36e+00,5.04e+00,
991,1.72e+00,1.24e+00,4.96e+00,
992,1.68e+00,1.20e+00,5.04e+00,
993,1.80e+00,1.36e+00,-1.20e-01,
994,1.68e+00,1.24e+00,-4.00e-02,
995,1.80e+00,1.72e+00,5.16e+00,
996,1.72e+00,1.68e+00,5.04e+00,
997,1.84e+00,1.56e+00,-1.20e-01,
998,1.76e+00,1.44e+00,0.00e+00,
999,1.84e+00,2.08e+00,5.08e+00,
1000,1.80e+00,1.92e+00,4.96e+00,
1001,1.92e+00,2.04e+00,5.08e+00,
1002,1.80e+00,2.08e+00,5.04e+00,
1003,1.92e+00,1.88e+00,-4.00e-02,
1004,1.88e+00,2.16e+00,0.00e+00,
1005,1.96e+00,1.56e+00,5.16e+00,
1006,1.88e+00,1.56e+00,5.04e+00,
1007,1.96e+00,1.72e+00,-1.20e-01,
1008,1.92e+00,1.40e+00,0.00e+00,
1009,2.04e+00,2.08e+00,5.12e+00,
1010,1.92e+00,2.00e+00,5.04e+00,
1011,2.08e+00,1.92e+00,4.96e+00,
1012,2.00e+00,2.08e+00,5.04e+00,
1013,2.08e+00,1.88e+00,-4.00e-02,
1014,2.04e+00,1.84e+00,0.00e+00,
1015,2.16e+00,2.36e+00,5.08e+00,
1016,2.04e+00,2.40e+00,5.04e+00,
1017,2.20e+00,2.20e+00,-4.00e-02,
1018,2.12e+00,2.48e+00,0.00e+00,
1019,2.20e+00,1.92e+00,5.16e+00,
1020,2.16e+00,2.00e+00,5.00e+00,
1021,2.28e+00,1.92e+00,5.04e+00,
1022,2.16e+00,2.08e+00,5.04e+00,
1023,2.28e+00,1.88e+00,-8.00e-02,
1024,2.24e+00,1.84e+00,0.00e+00,
1025,2.32e+00,2.40e+00,5.16e+00,
1026,2.32e+00,2.40e+00,5.04e+00,
1027,2.24e+00,2.24e+00,-4.00e-02,
1028,2.28e+00,2.48e+00,0.00e+00,
1029,2.40e+00,1.92e+00,5.08e+00,
1030,2.32e+00,1.96e+00,5.00e+00,
1031,2.44e+00,2.00e+00,5.04e+00,
1032,2.44e+00,2.08e+00,5.04e+00,
1033,2.36e+00,1.88e+00,-4.00e-02,
1034,2.40e+00,1.84e+00,0.00e+00,
1035,2.52e+00,2.36e+00,5.16e+00,
1036,2.52e+00,2.24e+00,5.04e+00,
1037,2.44e+00,2.36e+00,-4.00e-02,
1038,2.48e+00,1.88e+00,0.00e+00,
1039,2.56e+00,2.72e+00,5.08e+00,
1040,2.52e+00,2.64e+00,5.00e+00,
1041,2.64e+00,2.48e+00,5.04e+00,
1042,2.64e+00,2.52e+00,5.04e+00,
1043,2.52e+00,2.64e+00,-4.00e-02,
1044,2.60e+00,2.52e+00,0.00e+00,
1045,2.68e+00,3.00e+00,5.08e+00,
1046,2.64e+00,2.96e+00,5.04e+00,
1047,2.76e+00,2.80e+00,-1.20e-01,
1048,2.64e+00,3.04e+00,0.00e+00,
1049,2.76e+00,2.48e+00,5.12e+00,
1050,2.72e+00,2.64e+00,5.04e+00,
1051,2.80e+00,2.48e+00,5.00e+00,
1052,2.72e+00,2.44e+00,5.04e+00,
1053,2.84e+00,2.64e+00,-1.20e-01,
1054,2.76e+00,2.52e+00,0.00e+00,
1055,2.88e+00,3.00e+00,5.08e+00,
1056,2.84e+00,2.96e+00,5.04e+00,
1057,2.92e+00,2.80e+00,-1.20e-01,
1058,2.92e+00,3.04e+00,0.00e+00,
1059,2.84e+00,2.52e+00,5.08e+00,
1060,2.88e+00,2.64e+00,5.04e+00,
1061,3.00e+00,2.52e+00,4.96e+00,
1062,2.88e+00,2.72e+00,5.04e+00,
1063,3.04e+00,2.48e+00,-8.00e-02,
1064,3.04e+00,2.52e+00,0.00e+00,
1065,2.96e+00,2.96e+00,5.08e+00,
1066,3.00e+00,3.00e+00,5.04e+00,
1067,3.12e+00,2.80e+00,-4.00e-02,
1068,3.12e+00,2.68e+00,0.00e+00,
1069,3.00e+00,3.32e+00,5.08e+00,
1070,3.08e+00,3.20e+00,5.00e+00,
1071,3.16e+00,3.28e+00,5.04e+00,
1072,3.08e+00,3.32e+00,5.04e+00,
1073,3.20e+00,3.12e+00,-1.20e-01,
1074,3.12e+00,3.48e+00,0.00e+00,
1075,3.24e+00,2.84e+00,5.12e+00,
1076,3.20e+00,3.00e+00,5.04e+00,
1077,3.28e+00,2.84e+00,-8.00e-02,
1078,3.28e+00,2.68e+00,0.00e+00,
1079,3.20e+00,3.32e+00,5.16e+00,
1080,3.24e+00,3.20e+00,5.04e+00,
1081,3.36e+00,3.28e+00,4.96e+00,
1082,3.24e+00,3.32e+00,5.04e+00,
1083,3.36e+00,3.16e+00,-8.00e-02,
1084,3.32e+00,3.12e+00,0.00e+00,
1085,3.40e+00,3.68e+00,5.08e+00,
1086,3.40e+00,3.68e+00,5.04e+00,
1087,3.32e+00,3.48e+00,-1.20e-01,
1088,3.36e+00,3.72e+00,0.00e+00,
1089,3.48e+00,3.16e+00,5.16e+00,
1090,3.36e+00,3.28e+00,5.00e+00,
1091,3.48e+00,3.20e+00,5.04e+00,
1092,3.44e+00,3.32e+00,5.04e+00,
1093,3.52e+00,3.12e+00,-4.00e-02,
1094,3.52e+00,3.12e+00,0.00e+00,
1095,3.44e+00,3.68e+00,5.08e+00,
1096,3.48e+00,3.68e+00,5.04e+00,
1097,3.60e+00,3.48e+00,-8.00e-02,
1098,3.48e+00,3.60e+00,0.00e+00,
1099,3.60e+00,3.16e+00,5.12e+00,
1100,3.56e+00,3.20e+00,5.04e+00,
1101,3.64e+00,3.28e+00,4.96e+00,
1102,3.56e+00,3.28e+00,5.04e+00,
1103,3.64e+00,3.12e+00,-1.20e-01,
1104,3.60e+00,3.20e+00,0.00e+00,
1105,3.72e+00,3.64e+00,5.08e+00,
1106,3.60e+00,3.48e+00,5.04e+00,
1107,3.72e+00,3.68e+00,-4.00e-02,
1108,3.72e+00,3.20e+00,0.00e+00,
1109,3.60e+00,4.00e+00,5.12e+00,
1110,3.68e+00,3.92e+00,5.08e+00,
1111,3.76e+00,3.84e+00,4.96e+00,
1112,3.68e+00,3.92e+00,5.04e+00,
1113,3.76e+00,3.80e+00,-1.20e-01,
1114,3.72e+00,3.92e+00,0.00e+00,
1115,3.80e+00,3.52e+00,5.16e+00,
1116,3.72e+00,3.52e+00,5.04e+00,
1117,3.84e+00,3.68e+00,-4.00e-02,
1118,3.84e+00,3.24e+00,0.00e+00,
1119,3.72e+00,4.00e+00,5.12e+00,
1120,3.80e+00,3.84e+00,5.04e+00,
1121,3.88e+00,3.92e+00,4.96e+00,
1122,3.80e+00,3.96e+00,5.04e+00,
1123,3.88e+00,3.80e+00,-1.20e-01,
1124,3.80e+00,4.20e+00,0.00e+00,
1125,3.88e+00,3.48e+00,5.16e+00,
1126,3.88e+00,3.52e+00,5.04e+00,
1127,3.84e+00,3.68e+00,-4.00e-02,
1128,3.84e+00,3.24e+00,0.00e+00,
1129,3.96e+00,4.00e+00,5.16e+00,
1130,3.84e+00,3.92e+00,5.04e+00,
1131,3.96e+00,3.84e+00,4.96e+00,
1132,3.96e+00,4.00e+00,5.04e+00,
1133,3.88e+00,3.84e+00,-4.00e-02,
1134,3.92e+00,3.76e+00,0.00e+00,
1135,3.96e+00,4.28e+00,5.08e+00,
1136,3.92e+00,4.32e+00,5.04e+00,
1137,4.00e+00,4.08e+00,-4.00e-02,
1138,4.00e+00,4.40e+00,0.00e+00,
1139,3.92e+00,3.84e+00,5.12e+00,
1140,4.00e+00,3.96e+00,5.04e+00,
1141,3.92e+00,3.80e+00,4.96e+00,
1142,4.00e+00,3.92e+00,5.04e+00,
1143,3.96e+00,3.76e+00,-8.00e-02,
1144,3.96e+00,3.76e+00,0.00e+00,
1145,4.00e+00,4.32e+00,5.08e+00,
1146,3.96e+00,4.28e+00,5.04e+00,
1147,4.08e+00,4.12e+00,-1.20e-01,
1148,3.96e+00,4.36e+00,0.00e+00,
1149,4.08e+00,3.84e+00,5.16e+00,
1150,4.08e+00,3.92e+00,5.00e+00,
1151,3.96e+00,3.80e+00,5.04e+00,
1152,3.96e+00,4.00e+00,5.04e+00,
1153,4.08e+00,3.80e+00,-4.00e-02,
1154,3.96e+00,3.76e+00,0.00e+00,
1155,4.08e+00,4.32e+00,5.08e+00,
1156,3.96e+00,4.28e+00,5.04e+00,
1157,4.08e+00,4.12e+00,-1.20e-01,
1158,4.08e+00,4.40e+00,0.00e+00,
1159,3.96e+00,3.84e+00,5.08e+00,
1160,4.08e+00,3.96e+00,5.00e+00,
1161,4.04e+00,3.80e+00,5.04e+00,
1162,4.04e+00,3.92e+00,5.04e+00,
1163,4.08e+00,3.84e+00,-8.00e-02,
1164,4.04e+00,3.84e+00,0.00e+00,
1165,4.08e+00,4.32e+00,5.08e+00,
1166,4.04e+00,4.24e+00,5.04e+00,
1167,4.08e+00,4.16e+00,-1.20e-01,
1168,4.04e+00,4.40e+00,0.00e+00,
1169,4.08e+00,3.84e+00,5.08e+00,
1170,3.96e+00,3.92e+00,5.04e+00,
1171,4.08e+00,3.80e+00,5.00e+00,
1172,4.08e+00,3.92e+00,5.04e+00,
1173,3.96e+00,3.80e+00,-8.00e-02,
1174,3.96e+00,3.88e+00,0.00e+00,
1175,4.08e+00,4.28e+00,5.12e+00,
1176,4.08e+00,4.24e+00,5.04e+00,
1177,3.96e+00,4.12e+00,-1.20e-01,
1178,3.96e+00,4.40e+00,0.00e+00,
1179,4.08e+00,3.84e+00,5.16e+00,
1180,3.96e+00,3.92e+00,5.04e+00,
1181,4.08e+00,3.80e+00,5.00e+00,
1182,3.96e+00,3.96e+00,5.04e+00,
1183,4.08e+00,3.80e+00,-8.00e-02,
1184,4.00e+00,3.76e+00,0.00e+00,
1185,3.96e+00,4.28e+00,5.16e+00,
1186,4.00e+00,4.28e+00,5.04e+00,
1187,3.96e+00,4.12e+00,-8.00e-02,
1188,4.00e+00,4.40e+00,0.00e+00,
1189,3.92e+00,3.84e+00,5.08e+00,
1190,4.00e+00,3.96e+00,5.04e+00,
1191,3.92e+00,3.80e+00,5.00e+00,
1192,3.92e+00,4.00e+00,5.04e+00,
1193,4.00e+00,3.84e+00,-8.00e-02,
1194,3.92e+00,3.76e+00,0.00e+00,
1195,4.00e+00,4.28e+00,5.16e+00,
1196,3.92e+00,4.28e+00,5.04e+00,
1197,3.96e+00,4.12e+00,-4.00e-02,
1198,3.96e+00,4.40e+00,0.00e+00,
1199,3.84e+00,3.84e+00,5.12e+00,
