X,CH1,CH2,CH3,Start,Increment,
Sequence,Volt,Volt,Volt,-1.160000e-02,2.000000e-05
0,2.69e+00,2.64e+00,5.08e+00,
1,2.61e+00,2.44e+00,-8.00e-02,
2,2.69e+00,2.56e+00,-4.00e-02,
3,2.61e+00,2.64e+00,8.00e-02,
4,2.65e+00,2.64e+00,4.00e-02,
5,2.61e+00,2.52e+00,-4.00e-02,
6,2.65e+00,2.48e+00,-4.00e-02,
7,2.53e+00,3.00e+00,5.12e+00,
8,2.65e+00,2.88e+00,5.08e+00,
9,2.53e+00,2.92e+00,4.96e+00,
10,2.57e+00,2.96e+00,5.08e+00,
11,2.53e+00,2.80e+00,-8.00e-02,
12,2.57e+00,2.88e+00,-4.00e-02,
13,2.49e+00,2.96e+00,8.00e-02,
14,2.49e+00,2.88e+00,-4.00e-02,
15,2.57e+00,2.92e+00,8.00e-02,
16,2.49e+00,3.00e+00,-4.00e-02,
17,2.57e+00,2.52e+00,5.12e+00,
18,2.53e+00,2.52e+00,4.96e+00,
19,2.45e+00,2.60e+00,5.08e+00,
20,2.45e+00,2.68e+00,5.08e+00,
21,2.53e+00,2.52e+00,-8.00e-02,
22,2.53e+00,2.60e+00,8.00e-02,
23,2.45e+00,2.52e+00,-4.00e-02,
24,2.49e+00,2.56e+00,-4.00e-02,
25,2.37e+00,2.64e+00,8.00e-02,
26,2.37e+00,3.00e+00,-4.00e-02,
27,2.49e+00,2.08e+00,5.08e+00,
28,2.37e+00,2.32e+00,4.96e+00,
29,2.45e+00,2.24e+00,5.08e+00,
30,2.41e+00,2.36e+00,5.08e+00,
31,2.33e+00,2.24e+00,-8.00e-02,
32,2.41e+00,2.32e+00,-4.00e-02,
33,2.33e+00,2.28e+00,8.00e-02,
34,2.41e+00,2.32e+00,-4.00e-02,
35,2.33e+00,2.24e+00,8.00e-02,
36,2.33e+00,2.20e+00,-4.00e-02,
37,2.37e+00,2.72e+00,5.12e+00,
38,2.24e+00,2.64e+00,5.08e+00,
39,2.37e+00,2.52e+00,4.96e+00,
40,2.37e+00,2.48e+00,5.08e+00,
41,2.24e+00,2.64e+00,-8.00e-02,
42,2.28e+00,2.64e+00,-4.00e-02,
43,2.24e+00,2.52e+00,8.00e-02,
44,2.28e+00,2.56e+00,8.00e-02,
45,2.20e+00,2.64e+00,-4.00e-02,
46,2.20e+00,2.56e+00,-4.00e-02,
47,2.28e+00,2.08e+00,5.12e+00,
48,2.20e+00,2.32e+00,5.08e+00,
49,2.28e+00,2.24e+00,4.96e+00,
50,2.24e+00,2.24e+00,5.08e+00,
51,2.16e+00,2.36e+00,-8.00e-02,
52,2.12e+00,2.32e+00,-4.00e-02,
53,2.24e+00,2.24e+00,8.00e-02,
54,2.12e+00,2.32e+00,-4.00e-02,
55,2.24e+00,2.24e+00,8.00e-02,
56,2.16e+00,2.48e+00,-4.00e-02,
57,2.08e+00,1.92e+00,5.12e+00,
58,2.08e+00,2.00e+00,5.08e+00,
59,2.16e+00,1.92e+00,4.96e+00,
60,2.16e+00,2.04e+00,5.08e+00,
61,2.08e+00,1.88e+00,-8.00e-02,
62,2.08e+00,2.00e+00,-4.00e-02,
63,2.12e+00,1.92e+00,8.00e-02,
64,2.12e+00,2.00e+00,-4.00e-02,
65,2.00e+00,1.96e+00,8.00e-02,
66,2.00e+00,1.84e+00,-4.00e-02,
67,2.12e+00,2.40e+00,5.12e+00,
68,2.00e+00,2.32e+00,5.08e+00,
69,2.08e+00,2.28e+00,4.96e+00,
70,2.04e+00,2.24e+00,5.08e+00,
71,1.96e+00,2.36e+00,-8.00e-02,
72,1.96e+00,2.32e+00,-4.00e-02,
73,2.04e+00,2.24e+00,8.00e-02,
74,1.96e+00,2.32e+00,-4.00e-02,
75,2.04e+00,2.24e+00,8.00e-02,
76,1.96e+00,2.44e+00,-4.00e-02,
77,2.00e+00,1.92e+00,5.12e+00,
78,2.00e+00,2.00e+00,5.08e+00,
79,1.88e+00,1.92e+00,4.96e+00,
80,1.88e+00,2.04e+00,5.08e+00,
81,2.00e+00,1.88e+00,-8.00e-02,
82,1.88e+00,2.00e+00,-4.00e-02,
83,1.96e+00,1.92e+00,8.00e-02,
84,1.92e+00,2.00e+00,-4.00e-02,
85,1.84e+00,1.92e+00,8.00e-02,
86,1.84e+00,2.16e+00,-4.00e-02,
87,1.92e+00,1.52e+00,5.12e+00,
88,1.92e+00,1.68e+00,4.96e+00,
89,1.84e+00,1.60e+00,5.08e+00,
90,1.88e+00,1.68e+00,5.08e+00,
91,1.75e+00,1.52e+00,-8.00e-02,
92,1.88e+00,1.68e+00,8.00e-02,
93,1.75e+00,1.60e+00,-4.00e-02,
94,1.88e+00,1.68e+00,8.00e-02,
95,1.75e+00,1.64e+00,-4.00e-02,
96,1.75e+00,1.40e+00,-4.00e-02,
97,1.88e+00,2.04e+00,5.12e+00,
98,1.80e+00,2.00e+00,5.08e+00,
99,1.71e+00,1.92e+00,4.96e+00,
100,1.71e+00,2.00e+00,5.08e+00,
101,1.80e+00,1.88e+00,-8.00e-02,
102,1.80e+00,2.00e+00,8.00e-02,
103,1.71e+00,1.92e+00,-4.00e-02,
104,1.71e+00,2.00e+00,-4.00e-02,
105,1.75e+00,1.92e+00,8.00e-02,
106,1.75e+00,2.08e+00,-4.00e-02,
107,1.63e+00,1.56e+00,5.12e+00,
108,1.75e+00,1.68e+00,5.08e+00,
109,1.63e+00,1.60e+00,4.96e+00,
110,1.75e+00,1.60e+00,5.08e+00,
111,1.63e+00,1.72e+00,-8.00e-02,
112,1.67e+00,1.72e+00,8.00e-02,
113,1.59e+00,1.56e+00,-4.00e-02,
114,1.67e+00,1.60e+00,-4.00e-02,
115,1.59e+00,1.72e+00,8.00e-02,
116,1.67e+00,1.60e+00,-4.00e-02,
117,1.59e+00,2.04e+00,5.08e+00,
118,1.59e+00,1.92e+00,4.96e+00,
119,1.67e+00,2.04e+00,5.08e+00,
120,1.59e+00,2.04e+00,5.08e+00,
121,1.63e+00,1.88e+00,-4.00e-02,
122,1.63e+00,2.04e+00,8.00e-02,
123,1.51e+00,1.92e+00,-4.00e-02,
124,1.63e+00,1.92e+00,-4.00e-02,
125,1.51e+00,2.04e+00,8.00e-02,
126,1.51e+00,2.16e+00,-4.00e-02,
127,1.63e+00,1.56e+00,5.12e+00,
128,1.55e+00,1.60e+00,5.08e+00,
129,1.47e+00,1.72e+00,4.96e+00,
130,1.55e+00,1.72e+00,5.08e+00,
131,1.47e+00,1.56e+00,-8.00e-02,
132,1.47e+00,1.68e+00,8.00e-02,
133,1.55e+00,1.60e+00,-4.00e-02,
134,1.55e+00,1.68e+00,-4.00e-02,
135,1.47e+00,1.60e+00,8.00e-02,
136,1.47e+00,1.76e+00,-4.00e-02,
137,1.51e+00,1.24e+00,5.12e+00,
138,1.51e+00,1.32e+00,5.08e+00,
139,1.43e+00,1.28e+00,4.96e+00,
140,1.51e+00,1.36e+00,5.08e+00,
141,1.43e+00,1.20e+00,-8.00e-02,
142,1.43e+00,1.24e+00,-4.00e-02,
143,1.51e+00,1.36e+00,8.00e-02,
144,1.51e+00,1.24e+00,-4.00e-02,
145,1.39e+00,1.36e+00,8.00e-02,
146,1.43e+00,1.16e+00,-4.00e-02,
147,1.35e+00,1.72e+00,5.12e+00,
148,1.43e+00,1.60e+00,4.96e+00,
149,1.35e+00,1.72e+00,5.08e+00,
150,1.35e+00,1.72e+00,5.08e+00,
151,1.43e+00,1.56e+00,-8.00e-02,
152,1.43e+00,1.68e+00,8.00e-02,
153,1.35e+00,1.60e+00,-4.00e-02,
154,1.43e+00,1.68e+00,8.00e-02,
155,1.35e+00,1.56e+00,-4.00e-02,
156,1.35e+00,1.80e+00,-4.00e-02,
157,1.39e+00,1.24e+00,5.12e+00,
158,1.39e+00,1.24e+00,4.96e+00,
159,1.31e+00,1.36e+00,5.08e+00,
160,1.31e+00,1.44e+00,5.08e+00,
161,1.39e+00,1.20e+00,-8.00e-02,
162,1.31e+00,1.36e+00,8.00e-02,
163,1.39e+00,1.24e+00,-4.00e-02,
164,1.31e+00,1.32e+00,-4.00e-02,
165,1.39e+00,1.24e+00,8.00e-02,
166,1.31e+00,1.28e+00,-4.00e-02,
167,1.35e+00,1.68e+00,5.12e+00,
168,1.35e+00,1.68e+00,4.96e+00,
169,1.22e+00,1.60e+00,5.08e+00,
170,1.22e+00,1.68e+00,5.08e+00,
171,1.35e+00,1.60e+00,-8.00e-02,
172,1.35e+00,1.60e+00,-4.00e-02,
173,1.22e+00,1.68e+00,8.00e-02,
174,1.22e+00,1.68e+00,-4.00e-02,
175,1.35e+00,1.56e+00,8.00e-02,
176,1.26e+00,1.76e+00,-4.00e-02,
177,1.22e+00,1.24e+00,5.08e+00,
178,1.26e+00,1.32e+00,5.08e+00,
179,1.22e+00,1.24e+00,4.96e+00,
180,1.26e+00,1.24e+00,5.08e+00,
181,1.18e+00,1.36e+00,-4.00e-02,
182,1.18e+00,1.32e+00,-4.00e-02,
183,1.26e+00,1.24e+00,8.00e-02,
184,1.26e+00,1.32e+00,-4.00e-02,
185,1.18e+00,1.28e+00,8.00e-02,
186,1.26e+00,1.60e+00,-4.00e-02,
187,1.18e+00,9.20e-01,5.08e+00,
188,1.18e+00,9.60e-01,4.96e+00,
189,1.22e+00,1.04e+00,5.08e+00,
190,1.22e+00,1.04e+00,5.08e+00,
191,1.10e+00,9.20e-01,-8.00e-02,
192,1.18e+00,1.04e+00,-4.00e-02,
193,1.22e+00,9.60e-01,8.00e-02,
194,1.10e+00,1.04e+00,-4.00e-02,
195,1.22e+00,9.20e-01,8.00e-02,
196,1.10e+00,6.80e-01,-4.00e-02,
197,1.22e+00,1.40e+00,5.12e+00,
198,1.10e+00,1.24e+00,4.96e+00,
199,1.22e+00,1.36e+00,5.08e+00,
200,1.22e+00,1.24e+00,5.08e+00,
201,1.10e+00,1.36e+00,-8.00e-02,
202,1.10e+00,1.24e+00,-4.00e-02,
203,1.22e+00,1.36e+00,8.00e-02,
204,1.10e+00,1.36e+00,8.00e-02,
205,1.22e+00,1.24e+00,-4.00e-02,
206,1.14e+00,1.60e+00,-4.00e-02,
207,1.06e+00,9.20e-01,5.12e+00,
208,1.10e+00,1.04e+00,4.96e+00,
209,1.14e+00,9.20e-01,5.08e+00,
210,1.14e+00,1.08e+00,5.08e+00,
211,1.06e+00,9.20e-01,-8.00e-02,
212,1.14e+00,9.60e-01,-4.00e-02,
213,1.06e+00,1.04e+00,8.00e-02,
214,1.14e+00,9.60e-01,-4.00e-02,
215,1.06e+00,1.04e+00,8.00e-02,
216,1.14e+00,6.80e-01,-4.00e-02,
217,1.06e+00,1.40e+00,5.12e+00,
218,1.14e+00,1.28e+00,5.08e+00,
219,1.06e+00,1.36e+00,4.96e+00,
220,1.06e+00,1.24e+00,5.08e+00,
221,1.14e+00,1.36e+00,-8.00e-02,
222,1.06e+00,1.28e+00,-4.00e-02,
223,1.14e+00,1.32e+00,8.00e-02,
224,1.06e+00,1.32e+00,-4.00e-02,
225,1.14e+00,1.24e+00,8.00e-02,
226,1.06e+00,1.40e+00,-4.00e-02,
227,1.14e+00,9.20e-01,5.12e+00,
228,1.06e+00,9.60e-01,5.08e+00,
229,1.10e+00,1.04e+00,4.96e+00,
230,1.06e+00,1.08e+00,5.08e+00,
231,1.10e+00,9.20e-01,-8.00e-02,
232,1.10e+00,9.60e-01,8.00e-02,
233,1.02e+00,1.04e+00,-4.00e-02,
234,1.10e+00,1.04e+00,-4.00e-02,
235,9.79e-01,9.60e-01,8.00e-02,
236,1.10e+00,6.80e-01,-4.00e-02,
237,9.79e-01,1.36e+00,5.08e+00,
238,9.79e-01,1.24e+00,5.08e+00,
239,1.10e+00,1.36e+00,4.96e+00,
240,1.10e+00,1.36e+00,5.08e+00,
241,9.79e-01,1.24e+00,-8.00e-02,
242,9.79e-01,1.36e+00,-4.00e-02,
243,1.10e+00,1.24e+00,8.00e-02,
244,9.79e-01,1.32e+00,-4.00e-02,
245,1.10e+00,1.28e+00,8.00e-02,
246,9.79e-01,1.64e+00,-4.00e-02,
247,1.10e+00,8.80e-01,5.12e+00,
248,1.10e+00,1.04e+00,5.08e+00,
249,9.79e-01,9.60e-01,4.96e+00,
250,1.10e+00,1.04e+00,5.08e+00,
251,9.79e-01,9.20e-01,-8.00e-02,
252,9.79e-01,1.04e+00,-4.00e-02,
253,1.10e+00,9.60e-01,8.00e-02,
254,1.10e+00,1.04e+00,-4.00e-02,
255,9.79e-01,9.60e-01,8.00e-02,
256,9.79e-01,6.80e-01,-4.00e-02,
257,1.10e+00,1.40e+00,5.12e+00,
258,1.10e+00,1.36e+00,5.08e+00,
259,9.79e-01,1.24e+00,4.96e+00,
260,9.79e-01,1.24e+00,5.08e+00,
261,1.10e+00,1.36e+00,-8.00e-02,
262,9.79e-01,1.24e+00,-4.00e-02,
263,1.10e+00,1.36e+00,8.00e-02,
264,9.79e-01,1.24e+00,-4.00e-02,
265,1.10e+00,1.36e+00,8.00e-02,
266,1.10e+00,1.64e+00,-4.00e-02,
267,9.79e-01,8.80e-01,5.12e+00,
268,1.10e+00,1.04e+00,4.96e+00,
269,9.79e-01,9.20e-01,5.08e+00,
270,1.10e+00,9.20e-01,5.08e+00,
271,9.79e-01,1.08e+00,-8.00e-02,
272,9.79e-01,1.04e+00,-4.00e-02,
273,1.10e+00,9.20e-01,8.00e-02,
274,1.10e+00,9.60e-01,-4.00e-02,
275,9.79e-01,1.04e+00,8.00e-02,
276,1.10e+00,7.20e-01,-4.00e-02,
277,9.79e-01,1.40e+00,5.08e+00,
278,1.10e+00,1.28e+00,5.08e+00,
279,9.79e-01,1.36e+00,4.96e+00,
280,9.79e-01,1.36e+00,5.08e+00,
281,1.10e+00,1.24e+00,-8.00e-02,
282,1.10e+00,1.32e+00,8.00e-02,
283,9.79e-01,1.28e+00,-4.00e-02,
284,9.79e-01,1.36e+00,-4.00e-02,
285,1.10e+00,1.24e+00,8.00e-02,
286,9.79e-01,1.44e+00,-4.00e-02,
287,1.10e+00,9.20e-01,5.12e+00,
288,9.79e-01,1.04e+00,4.96e+00,
289,1.10e+00,9.20e-01,5.08e+00,
290,9.79e-01,9.60e-01,5.08e+00,
291,1.10e+00,1.08e+00,-8.00e-02,
292,9.79e-01,1.04e+00,8.00e-02,
293,1.10e+00,9.60e-01,-4.00e-02,
294,9.79e-01,1.04e+00,-4.00e-02,
295,1.10e+00,9.60e-01,8.00e-02,
296,1.10e+00,9.20e-01,-4.00e-02,
297,9.79e-01,1.36e+00,5.12e+00,
298,1.02e+00,1.32e+00,4.96e+00,
299,1.10e+00,1.28e+00,5.08e+00,
300,1.06e+00,1.36e+00,5.08e+00,
301,1.10e+00,1.24e+00,-8.00e-02,
302,1.06e+00,1.32e+00,-4.00e-02,
303,1.10e+00,1.28e+00,8.00e-02,
304,1.06e+00,1.28e+00,-4.00e-02,
305,1.10e+00,1.32e+00,8.00e-02,
306,1.06e+00,1.64e+00,-4.00e-02,
307,1.14e+00,9.20e-01,5.12e+00,
308,1.06e+00,1.08e+00,4.96e+00,
309,1.14e+00,9.20e-01,5.08e+00,
310,1.06e+00,1.08e+00,5.08e+00,
311,1.14e+00,8.80e-01,-8.00e-02,
312,1.06e+00,9.20e-01,-4.00e-02,
313,1.14e+00,1.08e+00,8.00e-02,
314,1.14e+00,1.04e+00,-4.00e-02,
315,1.06e+00,9.20e-01,8.00e-02,
316,1.14e+00,6.80e-01,-4.00e-02,
317,1.06e+00,1.40e+00,5.12e+00,
318,1.06e+00,1.24e+00,5.08e+00,
319,1.14e+00,1.36e+00,4.96e+00,
320,1.14e+00,1.24e+00,5.08e+00,
321,1.06e+00,1.36e+00,-8.00e-02,
322,1.14e+00,1.36e+00,-4.00e-02,
323,1.06e+00,1.24e+00,8.00e-02,
324,1.10e+00,1.36e+00,-4.00e-02,
325,1.18e+00,1.24e+00,8.00e-02,
326,1.10e+00,1.64e+00,-4.00e-02,
327,1.18e+00,9.20e-01,5.12e+00,
328,1.10e+00,1.04e+00,4.96e+00,
329,1.22e+00,9.20e-01,5.08e+00,
330,1.10e+00,1.08e+00,5.08e+00,
331,1.22e+00,9.20e-01,-8.00e-02,
332,1.22e+00,9.60e-01,-4.00e-02,
333,1.10e+00,1.04e+00,8.00e-02,
334,1.10e+00,9.60e-01,8.00e-02,
335,1.22e+00,1.04e+00,-4.00e-02,
336,1.22e+00,6.80e-01,-4.00e-02,
337,1.10e+00,1.40e+00,5.12e+00,
338,1.18e+00,1.24e+00,5.08e+00,
339,1.22e+00,1.36e+00,4.96e+00,
340,1.18e+00,1.28e+00,5.08e+00,
341,1.22e+00,1.36e+00,-8.00e-02,
342,1.18e+00,1.36e+00,-4.00e-02,
343,1.26e+00,1.24e+00,8.00e-02,
344,1.26e+00,1.36e+00,-4.00e-02,
345,1.18e+00,1.24e+00,8.00e-02,
346,1.26e+00,1.40e+00,-4.00e-02,
347,1.18e+00,9.20e-01,5.12e+00,
348,1.26e+00,1.04e+00,5.08e+00,
349,1.18e+00,9.60e-01,4.96e+00,
350,1.26e+00,9.60e-01,5.08e+00,
351,1.18e+00,1.08e+00,-8.00e-02,
352,1.26e+00,9.60e-01,-4.00e-02,
353,1.22e+00,1.04e+00,8.00e-02,
354,1.22e+00,9.60e-01,-4.00e-02,
355,1.31e+00,1.04e+00,8.00e-02,
356,1.22e+00,6.80e-01,-4.00e-02,
357,1.35e+00,1.36e+00,5.12e+00,
358,1.22e+00,1.28e+00,4.96e+00,
359,1.35e+00,1.36e+00,5.08e+00,
360,1.35e+00,1.24e+00,5.08e+00,
361,1.22e+00,1.40e+00,-8.00e-02,
362,1.35e+00,1.36e+00,8.00e-02,
363,1.26e+00,1.24e+00,-4.00e-02,
364,1.31e+00,1.24e+00,8.00e-02,
365,1.39e+00,1.36e+00,-4.00e-02,
366,1.31e+00,1.64e+00,-4.00e-02,
367,1.39e+00,9.20e-01,5.12e+00,
368,1.39e+00,1.04e+00,4.96e+00,
369,1.31e+00,9.20e-01,5.08e+00,
370,1.31e+00,9.20e-01,5.08e+00,
371,1.39e+00,1.08e+00,-8.00e-02,
372,1.39e+00,9.60e-01,-4.00e-02,
373,1.31e+00,1.08e+00,8.00e-02,
374,1.43e+00,1.04e+00,-4.00e-02,
375,1.31e+00,9.20e-01,8.00e-02,
376,1.35e+00,6.80e-01,-4.00e-02,
377,1.43e+00,1.40e+00,5.12e+00,
378,1.43e+00,1.32e+00,5.08e+00,
379,1.35e+00,1.28e+00,4.96e+00,
380,1.43e+00,1.44e+00,5.08e+00,
381,1.35e+00,1.24e+00,-8.00e-02,
382,1.43e+00,1.32e+00,-4.00e-02,
383,1.39e+00,1.28e+00,8.00e-02,
384,1.43e+00,1.28e+00,-4.00e-02,
385,1.43e+00,1.32e+00,8.00e-02,
386,1.43e+00,1.20e+00,-4.00e-02,
387,1.51e+00,1.72e+00,5.08e+00,
388,1.51e+00,1.64e+00,4.96e+00,
389,1.43e+00,1.68e+00,5.08e+00,
390,1.51e+00,1.68e+00,5.08e+00,
391,1.39e+00,1.52e+00,-8.00e-02,
392,1.51e+00,1.64e+00,-4.00e-02,
393,1.47e+00,1.68e+00,8.00e-02,
394,1.47e+00,1.68e+00,-4.00e-02,
395,1.55e+00,1.60e+00,8.00e-02,
396,1.47e+00,1.80e+00,-4.00e-02,
397,1.55e+00,1.24e+00,5.12e+00,
398,1.55e+00,1.36e+00,4.96e+00,
399,1.47e+00,1.24e+00,5.08e+00,
400,1.55e+00,1.24e+00,5.08e+00,
401,1.47e+00,1.40e+00,-8.00e-02,
402,1.51e+00,1.36e+00,-4.00e-02,
403,1.63e+00,1.24e+00,8.00e-02,
404,1.51e+00,1.36e+00,-4.00e-02,
405,1.63e+00,1.24e+00,8.00e-02,
406,1.63e+00,1.28e+00,-4.00e-02,
407,1.51e+00,1.72e+00,5.12e+00,
408,1.63e+00,1.68e+00,4.96e+00,
409,1.51e+00,1.60e+00,5.08e+00,
410,1.59e+00,1.72e+00,5.08e+00,
411,1.67e+00,1.56e+00,-8.00e-02,
412,1.67e+00,1.72e+00,-4.00e-02,
413,1.59e+00,1.56e+00,8.00e-02,
414,1.67e+00,1.72e+00,-4.00e-02,
415,1.59e+00,1.56e+00,8.00e-02,
416,1.67e+00,1.80e+00,-4.00e-02,
417,1.59e+00,1.24e+00,5.12e+00,
418,1.63e+00,1.36e+00,4.96e+00,
419,1.71e+00,1.24e+00,5.08e+00,
420,1.63e+00,1.40e+00,5.08e+00,
421,1.75e+00,1.20e+00,-8.00e-02,
422,1.63e+00,1.36e+00,-4.00e-02,
423,1.75e+00,1.24e+00,8.00e-02,
424,1.75e+00,1.28e+00,-4.00e-02,
425,1.67e+00,1.36e+00,8.00e-02,
426,1.75e+00,1.20e+00,-4.00e-02,
427,1.71e+00,1.72e+00,5.12e+00,
428,1.71e+00,1.60e+00,5.08e+00,
429,1.80e+00,1.72e+00,4.96e+00,
430,1.71e+00,1.72e+00,5.08e+00,
431,1.80e+00,1.56e+00,-8.00e-02,
432,1.80e+00,1.68e+00,-4.00e-02,
433,1.75e+00,1.60e+00,8.00e-02,
434,1.75e+00,1.64e+00,-4.00e-02,
435,1.88e+00,1.68e+00,8.00e-02,
436,1.88e+00,1.40e+00,-4.00e-02,
437,1.75e+00,2.04e+00,5.12e+00,
438,1.88e+00,2.00e+00,5.08e+00,
439,1.75e+00,1.96e+00,4.96e+00,
440,1.84e+00,2.04e+00,5.08e+00,
441,1.88e+00,1.88e+00,-8.00e-02,
442,1.84e+00,2.00e+00,-4.00e-02,
443,1.92e+00,1.92e+00,8.00e-02,
444,1.92e+00,2.00e+00,8.00e-02,
445,1.84e+00,1.92e+00,-4.00e-02,
446,1.88e+00,2.16e+00,-4.00e-02,
447,1.92e+00,1.56e+00,5.08e+00,
448,1.88e+00,1.68e+00,4.96e+00,
449,2.00e+00,1.60e+00,5.08e+00,
450,2.00e+00,1.68e+00,5.08e+00,
451,1.88e+00,1.56e+00,-8.00e-02,
452,2.00e+00,1.68e+00,-4.00e-02,
453,1.88e+00,1.60e+00,8.00e-02,
454,2.00e+00,1.68e+00,-4.00e-02,
455,1.96e+00,1.60e+00,8.00e-02,
456,1.96e+00,1.40e+00,-4.00e-02,
457,2.04e+00,2.08e+00,5.12e+00,
458,2.04e+00,1.92e+00,4.96e+00,
459,1.96e+00,2.04e+00,5.08e+00,
460,1.96e+00,1.92e+00,5.08e+00,
461,2.08e+00,2.08e+00,-8.00e-02,
462,2.00e+00,1.92e+00,-4.00e-02,
463,2.12e+00,2.04e+00,8.00e-02,
464,2.12e+00,2.04e+00,8.00e-02,
465,2.00e+00,1.92e+00,-4.00e-02,
466,2.00e+00,1.92e+00,-4.00e-02,
467,2.12e+00,2.36e+00,5.12e+00,
468,2.00e+00,2.24e+00,4.96e+00,
469,2.16e+00,2.40e+00,5.08e+00,
470,2.08e+00,2.24e+00,5.08e+00,
471,2.16e+00,2.40e+00,-8.00e-02,
472,2.08e+00,2.24e+00,-4.00e-02,
473,2.16e+00,2.36e+00,8.00e-02,
474,2.16e+00,2.32e+00,-4.00e-02,
475,2.12e+00,2.24e+00,8.00e-02,
476,2.12e+00,2.48e+00,-4.00e-02,
477,2.24e+00,1.92e+00,5.12e+00,
478,2.12e+00,1.92e+00,4.96e+00,
479,2.24e+00,2.00e+00,5.08e+00,
480,2.20e+00,2.00e+00,5.08e+00,
481,2.24e+00,1.88e+00,-8.00e-02,
482,2.20e+00,2.00e+00,-4.00e-02,
483,2.28e+00,1.92e+00,8.00e-02,
484,2.28e+00,1.96e+00,-4.00e-02,
485,2.20e+00,2.00e+00,8.00e-02,
486,2.28e+00,1.84e+00,-4.00e-02,
487,2.20e+00,2.36e+00,5.12e+00,
488,2.24e+00,2.32e+00,4.96e+00,
489,2.33e+00,2.28e+00,5.08e+00,
490,2.37e+00,2.40e+00,5.08e+00,
491,2.24e+00,2.24e+00,-8.00e-02,
492,2.24e+00,2.32e+00,-4.00e-02,
493,2.37e+00,2.28e+00,8.00e-02,
494,2.33e+00,2.32e+00,-4.00e-02,
495,2.37e+00,2.24e+00,8.00e-02,
496,2.33e+00,2.72e+00,-4.00e-02,
497,2.41e+00,1.92e+00,5.12e+00,
498,2.33e+00,2.64e+00,4.96e+00,
499,2.41e+00,2.52e+00,5.08e+00,
500,2.41e+00,2.52e+00,5.08e+00,
501,2.33e+00,2.68e+00,-8.00e-02,
502,2.37e+00,2.64e+00,8.00e-02,
503,2.45e+00,2.52e+00,-4.00e-02,
504,2.49e+00,2.56e+00,8.00e-02,
505,2.37e+00,2.60e+00,-4.00e-02,
506,2.37e+00,3.04e+00,-4.00e-02,
507,2.49e+00,2.08e+00,5.12e+00,
508,2.45e+00,2.32e+00,4.96e+00,
509,2.53e+00,2.24e+00,5.08e+00,
510,2.45e+00,2.24e+00,5.08e+00,
511,2.53e+00,2.36e+00,-8.00e-02,
512,2.45e+00,2.40e+00,-4.00e-02,
513,2.53e+00,2.24e+00,8.00e-02,
514,2.49e+00,2.24e+00,-4.00e-02,
515,2.57e+00,2.36e+00,8.00e-02,
516,2.49e+00,2.72e+00,-4.00e-02,
517,2.57e+00,1.92e+00,5.12e+00,
518,2.49e+00,2.64e+00,5.08e+00,
519,2.57e+00,2.52e+00,4.96e+00,
520,2.53e+00,2.48e+00,5.08e+00,
521,2.65e+00,2.64e+00,-8.00e-02,
522,2.65e+00,2.64e+00,-4.00e-02,
523,2.53e+00,2.48e+00,8.00e-02,
524,2.53e+00,2.64e+00,-4.00e-02,
525,2.65e+00,2.56e+00,8.00e-02,
526,2.61e+00,2.56e+00,-4.00e-02,
527,2.65e+00,2.96e+00,5.12e+00,
528,2.61e+00,2.88e+00,4.96e+00,
529,2.69e+00,2.96e+00,5.08e+00,
530,2.69e+00,2.88e+00,5.08e+00,
531,2.61e+00,3.00e+00,-8.00e-02,
532,2.61e+00,2.88e+00,-4.00e-02,
533,2.69e+00,2.96e+00,8.00e-02,
534,2.65e+00,2.88e+00,-4.00e-02,
535,2.77e+00,2.96e+00,8.00e-02,
536,2.77e+00,3.00e+00,-4.00e-02,
537,2.65e+00,2.48e+00,5.12e+00,
538,2.77e+00,2.56e+00,4.96e+00,
539,2.69e+00,2.64e+00,5.08e+00,
540,2.73e+00,2.64e+00,5.08e+00,
541,2.82e+00,2.48e+00,-8.00e-02,
542,2.82e+00,2.64e+00,-4.00e-02,
543,2.73e+00,2.52e+00,8.00e-02,
544,2.82e+00,2.64e+00,-4.00e-02,
545,2.73e+00,2.52e+00,8.00e-02,
546,2.77e+00,2.44e+00,-4.00e-02,
547,2.90e+00,2.96e+00,5.12e+00,
548,2.77e+00,2.88e+00,5.08e+00,
549,2.90e+00,2.92e+00,4.96e+00,
550,2.90e+00,3.00e+00,5.08e+00,
551,2.77e+00,2.80e+00,-4.00e-02,
552,2.86e+00,2.88e+00,-4.00e-02,
553,2.94e+00,2.92e+00,8.00e-02,
554,2.86e+00,2.88e+00,-4.00e-02,
555,2.94e+00,2.92e+00,8.00e-02,
556,2.94e+00,3.00e+00,-4.00e-02,
557,2.86e+00,2.52e+00,5.12e+00,
558,2.94e+00,2.52e+00,5.08e+00,
559,2.90e+00,2.64e+00,4.96e+00,
560,2.90e+00,2.68e+00,5.08e+00,
561,3.02e+00,2.48e+00,-8.00e-02,
562,3.02e+00,2.60e+00,-4.00e-02,
563,2.90e+00,2.52e+00,8.00e-02,
564,3.02e+00,2.64e+00,-4.00e-02,
565,2.90e+00,2.52e+00,8.00e-02,
566,2.98e+00,2.52e+00,-4.00e-02,
567,3.06e+00,2.96e+00,5.08e+00,
568,3.06e+00,2.92e+00,4.96e+00,
569,2.98e+00,2.88e+00,5.08e+00,
570,2.98e+00,2.84e+00,5.08e+00,
571,3.06e+00,3.00e+00,-8.00e-02,
572,3.06e+00,2.88e+00,-4.00e-02,
573,3.02e+00,2.96e+00,8.00e-02,
574,3.02e+00,2.88e+00,-4.00e-02,
575,3.14e+00,2.96e+00,8.00e-02,
576,3.14e+00,2.80e+00,-4.00e-02,
577,3.02e+00,3.32e+00,5.12e+00,
578,3.10e+00,3.20e+00,4.96e+00,
579,3.14e+00,3.24e+00,5.08e+00,
580,3.10e+00,3.20e+00,5.08e+00,
581,3.18e+00,3.36e+00,-8.00e-02,
582,3.18e+00,3.24e+00,-4.00e-02,
583,3.10e+00,3.20e+00,8.00e-02,
584,3.10e+00,3.24e+00,-4.00e-02,
585,3.18e+00,3.20e+00,8.00e-02,
586,3.18e+00,3.32e+00,-4.00e-02,
587,3.14e+00,2.84e+00,5.12e+00,
588,3.14e+00,2.92e+00,5.08e+00,
589,3.26e+00,2.88e+00,4.96e+00,
590,3.26e+00,2.88e+00,5.08e+00,
591,3.14e+00,3.00e+00,-8.00e-02,
592,3.26e+00,2.88e+00,-4.00e-02,
593,3.18e+00,2.96e+00,8.00e-02,
594,3.22e+00,2.96e+00,-4.00e-02,
595,3.30e+00,2.84e+00,8.00e-02,
596,3.30e+00,2.88e+00,-4.00e-02,
597,3.22e+00,3.32e+00,5.08e+00,
598,3.22e+00,3.28e+00,4.96e+00,
599,3.30e+00,3.16e+00,5.08e+00,
600,3.26e+00,3.32e+00,5.08e+00,
601,3.35e+00,3.12e+00,-8.00e-02,
602,3.26e+00,3.20e+00,-4.00e-02,
603,3.39e+00,3.28e+00,8.00e-02,
604,3.39e+00,3.32e+00,8.00e-02,
605,3.26e+00,3.16e+00,-4.00e-02,
606,3.39e+00,3.12e+00,-4.00e-02,
607,3.26e+00,3.64e+00,5.12e+00,
608,3.35e+00,3.52e+00,4.96e+00,
609,3.39e+00,3.64e+00,5.08e+00,
610,3.35e+00,3.68e+00,5.08e+00,
611,3.43e+00,3.48e+00,-8.00e-02,
612,3.43e+00,3.60e+00,-4.00e-02,
613,3.35e+00,3.52e+00,8.00e-02,
614,3.43e+00,3.60e+00,-4.00e-02,
615,3.35e+00,3.52e+00,8.00e-02,
616,3.39e+00,3.68e+00,-4.00e-02,
617,3.43e+00,3.16e+00,5.08e+00,
618,3.39e+00,3.24e+00,5.08e+00,
619,3.51e+00,3.20e+00,4.96e+00,
620,3.39e+00,3.32e+00,5.08e+00,
621,3.51e+00,3.12e+00,-8.00e-02,
622,3.51e+00,3.24e+00,-4.00e-02,
623,3.39e+00,3.20e+00,8.00e-02,
624,3.47e+00,3.24e+00,-4.00e-02,
625,3.51e+00,3.20e+00,8.00e-02,
626,3.47e+00,3.16e+00,-4.00e-02,
627,3.55e+00,3.60e+00,5.12e+00,
628,3.55e+00,3.56e+00,4.96e+00,
629,3.47e+00,3.60e+00,5.08e+00,
630,3.47e+00,3.64e+00,5.08e+00,
631,3.55e+00,3.48e+00,-8.00e-02,
632,3.55e+00,3.60e+00,-4.00e-02,
633,3.51e+00,3.52e+00,8.00e-02,
634,3.59e+00,3.52e+00,8.00e-02,
635,3.51e+00,3.60e+00,-4.00e-02,
636,3.51e+00,3.64e+00,-4.00e-02,
637,3.63e+00,3.16e+00,5.12e+00,
638,3.51e+00,3.24e+00,5.08e+00,
639,3.59e+00,3.20e+00,4.96e+00,
640,3.51e+00,3.20e+00,5.08e+00,
641,3.63e+00,3.32e+00,-8.00e-02,
642,3.59e+00,3.20e+00,-4.00e-02,
643,3.59e+00,3.28e+00,8.00e-02,
644,3.59e+00,3.20e+00,-4.00e-02,
645,3.67e+00,3.28e+00,8.00e-02,
646,3.59e+00,3.20e+00,-4.00e-02,
647,3.67e+00,3.64e+00,5.12e+00,
648,3.59e+00,3.56e+00,4.96e+00,
649,3.67e+00,3.64e+00,5.08e+00,
650,3.67e+00,3.52e+00,5.08e+00,
651,3.59e+00,3.64e+00,-8.00e-02,
652,3.63e+00,3.52e+00,-4.00e-02,
653,3.71e+00,3.64e+00,8.00e-02,
654,3.71e+00,3.56e+00,-4.00e-02,
655,3.63e+00,3.64e+00,8.00e-02,
656,3.71e+00,3.28e+00,-4.00e-02,
657,3.63e+00,3.96e+00,5.08e+00,
658,3.71e+00,3.84e+00,4.96e+00,
659,3.63e+00,3.92e+00,5.08e+00,
660,3.71e+00,3.84e+00,5.08e+00,
661,3.67e+00,3.96e+00,-8.00e-02,
662,3.79e+00,3.84e+00,8.00e-02,
663,3.67e+00,3.92e+00,-4.00e-02,
664,3.79e+00,3.92e+00,-4.00e-02,
665,3.67e+00,3.84e+00,8.00e-02,
666,3.79e+00,4.20e+00,-4.00e-02,
667,3.67e+00,3.48e+00,5.08e+00,
668,3.79e+00,3.60e+00,5.08e+00,
669,3.71e+00,3.52e+00,4.96e+00,
670,3.75e+00,3.52e+00,5.08e+00,
671,3.79e+00,3.64e+00,-8.00e-02,
672,3.75e+00,3.60e+00,-4.00e-02,
673,3.84e+00,3.52e+00,8.00e-02,
674,3.75e+00,3.56e+00,-4.00e-02,
675,3.84e+00,3.64e+00,8.00e-02,
676,3.84e+00,3.28e+00,-4.00e-02,
677,3.75e+00,3.96e+00,5.12e+00,
678,3.84e+00,3.92e+00,5.08e+00,
679,3.75e+00,3.84e+00,4.96e+00,
680,3.84e+00,3.84e+00,5.08e+00,
681,3.75e+00,3.96e+00,-4.00e-02,
682,3.84e+00,3.92e+00,-4.00e-02,
683,3.79e+00,3.84e+00,8.00e-02,
684,3.84e+00,3.92e+00,-4.00e-02,
685,3.79e+00,3.84e+00,8.00e-02,
686,3.79e+00,4.20e+00,-4.00e-02,
687,3.92e+00,3.48e+00,5.12e+00,
688,3.92e+00,3.60e+00,5.08e+00,
689,3.79e+00,3.52e+00,4.96e+00,
690,3.92e+00,3.52e+00,5.08e+00,
691,3.79e+00,3.64e+00,-8.00e-02,
692,3.79e+00,3.52e+00,8.00e-02,
693,3.92e+00,3.64e+00,-4.00e-02,
694,3.92e+00,3.60e+00,-4.00e-02,
695,3.79e+00,3.52e+00,8.00e-02,
696,3.92e+00,3.28e+00,-4.00e-02,
697,3.88e+00,4.00e+00,5.12e+00,
698,3.88e+00,3.92e+00,5.08e+00,
699,3.92e+00,3.84e+00,4.96e+00,
700,3.88e+00,3.84e+00,5.08e+00,
701,3.96e+00,3.96e+00,-8.00e-02,
702,3.96e+00,3.92e+00,8.00e-02,
703,3.88e+00,3.84e+00,-4.00e-02,
704,3.96e+00,3.84e+00,-4.00e-02,
705,3.88e+00,3.92e+00,8.00e-02,
706,3.96e+00,3.84e+00,-4.00e-02,
707,3.88e+00,4.28e+00,5.12e+00,
708,3.96e+00,4.28e+00,4.96e+00,
709,3.88e+00,4.16e+00,5.08e+00,
710,3.96e+00,4.16e+00,5.08e+00,
711,3.88e+00,4.32e+00,-8.00e-02,
712,3.96e+00,4.28e+00,-4.00e-02,
713,3.88e+00,4.16e+00,8.00e-02,
714,3.96e+00,4.16e+00,-4.00e-02,
715,3.92e+00,4.28e+00,8.00e-02,
716,3.92e+00,4.32e+00,-4.00e-02,
717,4.04e+00,3.80e+00,5.08e+00,
718,3.92e+00,3.84e+00,4.96e+00,
719,4.04e+00,3.92e+00,5.08e+00,
720,4.04e+00,3.80e+00,5.08e+00,
721,3.92e+00,3.96e+00,-8.00e-02,
722,4.04e+00,3.84e+00,-4.00e-02,
723,3.92e+00,3.92e+00,8.00e-02,
724,3.92e+00,3.84e+00,8.00e-02,
725,4.04e+00,3.92e+00,-4.00e-02,
726,4.04e+00,3.76e+00,-4.00e-02,
727,3.92e+00,4.28e+00,5.12e+00,
728,3.92e+00,4.16e+00,5.08e+00,
729,4.04e+00,4.28e+00,4.96e+00,
730,4.04e+00,4.28e+00,5.08e+00,
731,3.92e+00,4.12e+00,-8.00e-02,
732,4.04e+00,4.16e+00,-4.00e-02,
733,3.92e+00,4.28e+00,8.00e-02,
734,3.96e+00,4.16e+00,-4.00e-02,
735,4.04e+00,4.28e+00,8.00e-02,
736,4.00e+00,4.36e+00,-4.00e-02,
737,4.04e+00,3.80e+00,5.12e+00,
738,4.00e+00,3.92e+00,5.08e+00,
739,4.04e+00,3.84e+00,4.96e+00,
740,4.04e+00,3.96e+00,5.08e+00,
741,4.00e+00,3.76e+00,-8.00e-02,
742,4.00e+00,3.92e+00,-4.00e-02,
743,4.04e+00,3.84e+00,8.00e-02,
744,4.00e+00,3.92e+00,-4.00e-02,
745,4.04e+00,3.84e+00,8.00e-02,
746,4.00e+00,3.76e+00,-4.00e-02,
747,4.04e+00,4.28e+00,5.08e+00,
748,4.00e+00,4.28e+00,4.96e+00,
749,4.04e+00,4.16e+00,5.08e+00,
750,4.00e+00,4.28e+00,5.08e+00,
751,4.08e+00,4.12e+00,-8.00e-02,
752,4.00e+00,4.16e+00,-4.00e-02,
753,4.08e+00,4.28e+00,8.00e-02,
754,4.00e+00,4.16e+00,-4.00e-02,
755,4.08e+00,4.28e+00,8.00e-02,
756,4.00e+00,4.32e+00,-4.00e-02,
757,4.08e+00,3.80e+00,5.12e+00,
758,4.08e+00,3.84e+00,5.08e+00,
759,4.00e+00,3.92e+00,4.96e+00,
760,4.08e+00,3.84e+00,5.08e+00,
761,4.00e+00,3.96e+00,-8.00e-02,
762,4.00e+00,3.92e+00,-4.00e-02,
763,4.08e+00,3.84e+00,8.00e-02,
764,4.00e+00,3.84e+00,8.00e-02,
765,4.08e+00,3.92e+00,-4.00e-02,
766,4.00e+00,3.84e+00,-4.00e-02,
767,4.08e+00,4.28e+00,5.12e+00,
768,4.00e+00,4.16e+00,4.96e+00,
769,4.08e+00,4.28e+00,5.08e+00,
770,4.00e+00,4.28e+00,5.08e+00,
771,4.08e+00,4.16e+00,-8.00e-02,
772,4.00e+00,4.28e+00,-4.00e-02,
773,4.08e+00,4.16e+00,8.00e-02,
774,4.00e+00,4.20e+00,-4.00e-02,
775,4.08e+00,4.28e+00,8.00e-02,
776,4.00e+00,4.32e+00,-4.00e-02,
777,4.08e+00,3.80e+00,5.12e+00,
778,4.00e+00,3.92e+00,4.96e+00,
779,4.08e+00,3.84e+00,5.08e+00,
780,4.04e+00,3.92e+00,5.08e+00,
781,4.00e+00,3.76e+00,-8.00e-02,
782,4.04e+00,3.84e+00,-4.00e-02,
783,4.00e+00,3.92e+00,8.00e-02,
784,4.00e+00,3.84e+00,-4.00e-02,
785,4.04e+00,3.92e+00,4.00e-02,
786,4.00e+00,3.76e+00,-4.00e-02,
787,4.04e+00,4.32e+00,5.12e+00,
788,4.00e+00,4.16e+00,5.08e+00,
789,4.04e+00,4.28e+00,4.96e+00,
790,4.00e+00,4.28e+00,5.08e+00,
791,4.04e+00,4.08e+00,-8.00e-02,
792,4.04e+00,4.16e+00,-4.00e-02,
793,4.00e+00,4.28e+00,8.00e-02,
794,4.04e+00,4.16e+00,-4.00e-02,
795,3.92e+00,4.28e+00,8.00e-02,
796,4.04e+00,4.36e+00,-4.00e-02,
797,3.96e+00,3.80e+00,5.12e+00,
798,4.04e+00,3.92e+00,5.08e+00,
799,3.92e+00,3.84e+00,4.96e+00,
800,3.92e+00,3.92e+00,5.08e+00,
801,4.04e+00,3.76e+00,-8.00e-02,
802,3.92e+00,3.92e+00,-4.00e-02,
803,4.04e+00,3.84e+00,8.00e-02,
804,4.04e+00,3.84e+00,-4.00e-02,
805,3.92e+00,3.92e+00,8.00e-02,
806,4.04e+00,3.76e+00,-4.00e-02,
807,3.96e+00,4.28e+00,5.12e+00,
808,4.04e+00,4.16e+00,4.96e+00,
809,3.92e+00,4.28e+00,5.08e+00,
810,3.92e+00,4.28e+00,5.08e+00,
811,4.04e+00,4.08e+00,-8.00e-02,
812,3.92e+00,4.16e+00,-4.00e-02,
813,4.00e+00,4.28e+00,8.00e-02,
814,3.96e+00,4.16e+00,-4.00e-02,
815,3.92e+00,4.28e+00,8.00e-02,
816,3.96e+00,4.32e+00,-4.00e-02,
817,3.92e+00,3.80e+00,5.08e+00,
818,3.96e+00,3.84e+00,5.08e+00,
819,3.88e+00,3.96e+00,4.96e+00,
820,3.96e+00,3.92e+00,5.08e+00,
821,3.88e+00,3.84e+00,-8.00e-02,
822,3.96e+00,3.84e+00,-4.00e-02,
823,3.88e+00,3.92e+00,8.00e-02,
824,3.88e+00,3.92e+00,-4.00e-02,
825,3.96e+00,3.84e+00,8.00e-02,
826,3.96e+00,3.84e+00,-4.00e-02,
827,3.88e+00,4.28e+00,5.12e+00,
828,3.96e+00,4.16e+00,4.96e+00,
829,3.88e+00,4.28e+00,5.08e+00,
830,3.88e+00,4.32e+00,5.08e+00,
831,3.96e+00,4.16e+00,-8.00e-02,
832,3.88e+00,4.16e+00,-4.00e-02,
833,3.92e+00,4.28e+00,8.00e-02,
834,3.88e+00,4.28e+00,-4.00e-02,
835,3.92e+00,4.16e+00,8.00e-02,
836,3.92e+00,4.32e+00,-4.00e-02,
837,3.84e+00,3.84e+00,5.12e+00,
838,3.92e+00,3.92e+00,4.96e+00,
839,3.79e+00,3.84e+00,5.08e+00,
840,3.92e+00,3.96e+00,5.08e+00,
841,3.79e+00,3.80e+00,-8.00e-02,
842,3.79e+00,3.84e+00,-4.00e-02,
843,3.92e+00,3.92e+00,8.00e-02,
844,3.92e+00,3.92e+00,-4.00e-02,
845,3.79e+00,3.84e+00,8.00e-02,
846,3.84e+00,4.20e+00,-4.00e-02,
847,3.79e+00,3.48e+00,5.12e+00,
848,3.84e+00,3.56e+00,5.08e+00,
849,3.79e+00,3.60e+00,4.96e+00,
850,3.84e+00,3.52e+00,5.08e+00,
851,3.75e+00,3.68e+00,-8.00e-02,
852,3.84e+00,3.60e+00,-4.00e-02,
853,3.75e+00,3.56e+00,8.00e-02,
854,3.75e+00,3.56e+00,-4.00e-02,
855,3.84e+00,3.60e+00,8.00e-02,
856,3.84e+00,3.24e+00,-4.00e-02,
857,3.75e+00,4.00e+00,5.12e+00,
858,3.79e+00,3.84e+00,5.08e+00,
859,3.75e+00,3.92e+00,4.96e+00,
860,3.75e+00,3.96e+00,5.08e+00,
861,3.79e+00,3.80e+00,-8.00e-02,
862,3.79e+00,3.92e+00,-4.00e-02,
863,3.67e+00,3.84e+00,8.00e-02,
864,3.67e+00,3.84e+00,-4.00e-02,
865,3.79e+00,3.92e+00,8.00e-02,
866,3.79e+00,4.20e+00,-4.00e-02,
867,3.71e+00,3.44e+00,5.12e+00,
868,3.79e+00,3.60e+00,5.08e+00,
869,3.67e+00,3.56e+00,4.96e+00,
870,3.71e+00,3.52e+00,5.08e+00,
871,3.67e+00,3.68e+00,-8.00e-02,
872,3.71e+00,3.56e+00,8.00e-02,
873,3.63e+00,3.60e+00,-4.00e-02,
874,3.63e+00,3.56e+00,-4.00e-02,
875,3.71e+00,3.60e+00,8.00e-02,
876,3.71e+00,3.24e+00,0.00e+00,
877,3.63e+00,3.92e+00,5.12e+00,
878,3.63e+00,3.92e+00,4.96e+00,
879,3.71e+00,3.84e+00,5.08e+00,
880,3.67e+00,3.84e+00,5.08e+00,
881,3.59e+00,3.96e+00,-8.00e-02,
882,3.67e+00,3.84e+00,8.00e-02,
883,3.59e+00,3.92e+00,-4.00e-02,
884,3.59e+00,3.84e+00,8.00e-02,
885,3.67e+00,3.92e+00,-4.00e-02,
886,3.59e+00,3.92e+00,0.00e+00,
887,3.67e+00,3.48e+00,5.12e+00,
888,3.59e+00,3.60e+00,4.96e+00,
889,3.63e+00,3.56e+00,5.08e+00,
890,3.63e+00,3.68e+00,5.08e+00,
891,3.51e+00,3.52e+00,-8.00e-02,
892,3.59e+00,3.56e+00,-4.00e-02,
893,3.51e+00,3.60e+00,8.00e-02,
894,3.51e+00,3.56e+00,-4.00e-02,
895,3.63e+00,3.60e+00,8.00e-02,
896,3.59e+00,3.24e+00,-4.00e-02,
897,3.51e+00,3.96e+00,5.12e+00,
898,3.51e+00,3.84e+00,4.96e+00,
899,3.55e+00,3.92e+00,5.08e+00,
900,3.55e+00,3.84e+00,5.08e+00,
901,3.47e+00,3.96e+00,-8.00e-02,
902,3.47e+00,3.84e+00,-4.00e-02,
903,3.55e+00,3.92e+00,8.00e-02,
904,3.47e+00,3.84e+00,-4.00e-02,
905,3.55e+00,3.92e+00,8.00e-02,
906,3.47e+00,4.20e+00,-4.00e-02,
907,3.51e+00,3.48e+00,5.12e+00,
908,3.51e+00,3.60e+00,5.08e+00,
909,3.39e+00,3.56e+00,4.96e+00,
910,3.39e+00,3.64e+00,5.08e+00,
911,3.51e+00,3.44e+00,-8.00e-02,
912,3.39e+00,3.60e+00,-4.00e-02,
913,3.51e+00,3.56e+00,8.00e-02,
914,3.39e+00,3.56e+00,-4.00e-02,
915,3.43e+00,3.60e+00,8.00e-02,
916,3.43e+00,3.64e+00,-4.00e-02,
917,3.35e+00,3.16e+00,5.12e+00,
918,3.35e+00,3.24e+00,4.96e+00,
919,3.43e+00,3.20e+00,5.08e+00,
920,3.43e+00,3.32e+00,5.08e+00,
921,3.35e+00,3.16e+00,-8.00e-02,
922,3.35e+00,3.24e+00,-4.00e-02,
923,3.39e+00,3.20e+00,8.00e-02,
924,3.39e+00,3.20e+00,-4.00e-02,
925,3.26e+00,3.28e+00,8.00e-02,
926,3.26e+00,3.12e+00,-4.00e-02,
927,3.39e+00,3.64e+00,5.08e+00,
928,3.26e+00,3.56e+00,5.08e+00,
929,3.39e+00,3.60e+00,4.96e+00,
930,3.30e+00,3.64e+00,5.08e+00,
931,3.22e+00,3.44e+00,-8.00e-02,
932,3.30e+00,3.56e+00,-4.00e-02,
933,3.22e+00,3.60e+00,8.00e-02,
934,3.30e+00,3.56e+00,-4.00e-02,
935,3.22e+00,3.60e+00,8.00e-02,
936,3.22e+00,3.64e+00,0.00e+00,
937,3.30e+00,3.20e+00,5.12e+00,
938,3.26e+00,3.24e+00,5.08e+00,
939,3.14e+00,3.20e+00,4.96e+00,
940,3.14e+00,3.20e+00,5.08e+00,
941,3.26e+00,3.32e+00,-8.00e-02,
942,3.14e+00,3.24e+00,-4.00e-02,
943,3.26e+00,3.20e+00,8.00e-02,
944,3.18e+00,3.24e+00,-4.00e-02,
945,3.14e+00,3.20e+00,8.00e-02,
946,3.18e+00,3.32e+00,-4.00e-02,
947,3.10e+00,2.84e+00,5.12e+00,
948,3.18e+00,2.88e+00,5.08e+00,
949,3.10e+00,2.92e+00,4.96e+00,
950,3.10e+00,2.88e+00,5.08e+00,
951,3.18e+00,2.96e+00,-8.00e-02,
952,3.14e+00,2.88e+00,8.00e-02,
953,3.02e+00,2.96e+00,-4.00e-02,
954,3.14e+00,2.92e+00,-4.00e-02,
955,3.02e+00,2.88e+00,8.00e-02,
956,3.14e+00,2.88e+00,-4.00e-02,
957,3.02e+00,3.36e+00,5.12e+00,
958,3.06e+00,3.20e+00,4.96e+00,
959,2.98e+00,3.28e+00,5.08e+00,
960,3.06e+00,3.32e+00,5.08e+00,
961,2.98e+00,3.16e+00,-8.00e-02,
962,2.98e+00,3.24e+00,-4.00e-02,
963,3.06e+00,3.20e+00,8.00e-02,
964,2.98e+00,3.24e+00,-4.00e-02,
965,3.02e+00,3.20e+00,8.00e-02,
966,3.02e+00,3.44e+00,-4.00e-02,
967,2.90e+00,2.84e+00,5.12e+00,
968,3.02e+00,2.88e+00,5.08e+00,
969,2.90e+00,2.96e+00,4.96e+00,
970,2.90e+00,2.84e+00,5.08e+00,
971,3.02e+00,3.00e+00,-8.00e-02,
972,2.94e+00,2.88e+00,-4.00e-02,
973,2.86e+00,2.96e+00,8.00e-02,
974,2.94e+00,2.88e+00,-4.00e-02,
975,2.86e+00,2.96e+00,8.00e-02,
976,2.86e+00,2.64e+00,-4.00e-02,
977,2.94e+00,3.32e+00,5.08e+00,
978,2.90e+00,3.24e+00,5.08e+00,
979,2.86e+00,3.20e+00,4.96e+00,
980,2.90e+00,3.36e+00,5.08e+00,
981,2.77e+00,3.12e+00,-8.00e-02,
982,2.90e+00,3.24e+00,-4.00e-02,
983,2.77e+00,3.20e+00,8.00e-02,
984,2.77e+00,3.24e+00,-4.00e-02,
985,2.90e+00,3.20e+00,8.00e-02,
986,2.82e+00,3.40e+00,-4.00e-02,
987,2.73e+00,2.84e+00,5.12e+00,
988,2.73e+00,2.88e+00,4.96e+00,
989,2.82e+00,2.92e+00,5.08e+00,
990,2.82e+00,2.96e+00,5.08e+00,
991,2.65e+00,2.80e+00,-8.00e-02,
992,2.77e+00,2.96e+00,8.00e-02,
993,2.65e+00,2.84e+00,-4.00e-02,
994,2.65e+00,2.96e+00,-4.00e-02,
995,2.77e+00,2.84e+00,8.00e-02,
996,2.77e+00,3.00e+00,-4.00e-02,
997,2.65e+00,2.44e+00,5.12e+00,
998,2.69e+00,2.52e+00,4.96e+00,
999,2.61e+00,2.64e+00,5.08e+00,
1000,2.61e+00,2.52e+00,5.08e+00,
1001,2.69e+00,2.64e+00,-8.00e-02,
1002,2.69e+00,2.64e+00,-4.00e-02,
1003,2.61e+00,2.52e+00,8.00e-02,
1004,2.65e+00,2.52e+00,8.00e-02,
1005,2.53e+00,2.64e+00,-4.00e-02,
1006,2.65e+00,2.56e+00,-4.00e-02,
1007,2.53e+00,2.96e+00,5.08e+00,
1008,2.57e+00,2.84e+00,4.96e+00,
1009,2.65e+00,2.96e+00,5.08e+00,
1010,2.57e+00,2.88e+00,5.08e+00,
1011,2.53e+00,3.00e+00,-8.00e-02,
1012,2.57e+00,2.88e+00,-4.00e-02,
1013,2.49e+00,2.96e+00,8.00e-02,
1014,2.57e+00,2.88e+00,-4.00e-02,
1015,2.49e+00,2.96e+00,8.00e-02,
1016,2.49e+00,3.00e+00,-4.00e-02,
1017,2.57e+00,2.52e+00,5.08e+00,
1018,2.53e+00,2.56e+00,4.96e+00,
1019,2.45e+00,2.64e+00,5.08e+00,
1020,2.45e+00,2.52e+00,5.08e+00,
1021,2.53e+00,2.68e+00,-8.00e-02,
1022,2.45e+00,2.64e+00,-4.00e-02,
1023,2.53e+00,2.52e+00,8.00e-02,
1024,2.49e+00,2.64e+00,-4.00e-02,
1025,2.37e+00,2.48e+00,8.00e-02,
1026,2.37e+00,3.04e+00,-4.00e-02,
1027,2.49e+00,2.08e+00,5.12e+00,
1028,2.45e+00,2.32e+00,5.08e+00,
1029,2.37e+00,2.24e+00,4.96e+00,
1030,2.45e+00,2.36e+00,5.08e+00,
1031,2.33e+00,2.24e+00,-8.00e-02,
1032,2.41e+00,2.32e+00,-4.00e-02,
1033,2.33e+00,2.24e+00,8.00e-02,
1034,2.33e+00,2.36e+00,-4.00e-02,
1035,2.41e+00,2.24e+00,8.00e-02,
1036,2.37e+00,2.68e+00,-4.00e-02,
1037,2.28e+00,1.92e+00,5.12e+00,
1038,2.37e+00,2.64e+00,5.08e+00,
1039,2.24e+00,2.52e+00,4.96e+00,
1040,2.37e+00,2.64e+00,5.08e+00,
1041,2.24e+00,2.52e+00,-8.00e-02,
1042,2.28e+00,2.60e+00,-4.00e-02,
1043,2.24e+00,2.52e+00,8.00e-02,
1044,2.28e+00,2.56e+00,8.00e-02,
1045,2.20e+00,2.64e+00,-4.00e-02,
1046,2.20e+00,3.04e+00,-4.00e-02,
1047,2.28e+00,2.08e+00,5.12e+00,
1048,2.20e+00,2.32e+00,4.96e+00,
1049,2.28e+00,2.24e+00,5.08e+00,
1050,2.24e+00,2.36e+00,5.08e+00,
1051,2.12e+00,2.20e+00,-8.00e-02,
1052,2.24e+00,2.32e+00,8.00e-02,
1053,2.12e+00,2.24e+00,-4.00e-02,
1054,2.24e+00,2.32e+00,8.00e-02,
1055,2.12e+00,2.24e+00,-4.00e-02,
1056,2.16e+00,2.40e+00,-4.00e-02,
1057,2.08e+00,1.92e+00,5.12e+00,
1058,2.08e+00,2.00e+00,5.08e+00,
1059,2.16e+00,1.92e+00,4.96e+00,
1060,2.08e+00,1.92e+00,5.08e+00,
1061,2.16e+00,2.04e+00,-8.00e-02,
1062,2.08e+00,1.92e+00,-4.00e-02,
1063,2.12e+00,2.00e+00,8.00e-02,
1064,2.12e+00,1.92e+00,-4.00e-02,
1065,2.00e+00,2.00e+00,8.00e-02,
1066,2.00e+00,1.92e+00,-4.00e-02,
1067,2.12e+00,2.36e+00,5.08e+00,
1068,2.00e+00,2.24e+00,5.08e+00,
1069,2.04e+00,2.36e+00,4.96e+00,
1070,2.04e+00,2.24e+00,5.08e+00,
1071,1.96e+00,2.36e+00,-8.00e-02,
1072,1.96e+00,2.24e+00,-4.00e-02,
1073,2.04e+00,2.40e+00,8.00e-02,
1074,2.04e+00,2.24e+00,8.00e-02,
1075,1.96e+00,2.40e+00,-4.00e-02,
1076,2.00e+00,2.44e+00,-4.00e-02,
1077,1.92e+00,1.92e+00,5.12e+00,
1078,2.00e+00,1.92e+00,4.96e+00,
1079,1.88e+00,2.04e+00,5.08e+00,
1080,2.00e+00,2.04e+00,5.08e+00,
1081,1.88e+00,1.88e+00,-8.00e-02,
1082,1.88e+00,1.92e+00,-4.00e-02,
1083,2.00e+00,2.04e+00,8.00e-02,
1084,1.92e+00,1.92e+00,-4.00e-02,
1085,1.84e+00,2.04e+00,8.00e-02,
1086,1.84e+00,2.20e+00,-4.00e-02,
1087,1.92e+00,1.56e+00,5.12e+00,
1088,1.92e+00,1.64e+00,5.08e+00,
1089,1.84e+00,1.68e+00,4.96e+00,
1090,1.88e+00,1.68e+00,5.08e+00,
1091,1.80e+00,1.56e+00,-8.00e-02,
1092,1.88e+00,1.68e+00,-4.00e-02,
1093,1.75e+00,1.60e+00,8.00e-02,
1094,1.88e+00,1.68e+00,-4.00e-02,
1095,1.75e+00,1.60e+00,8.00e-02,
1096,1.80e+00,1.40e+00,-4.00e-02,
1097,1.75e+00,2.04e+00,5.12e+00,
1098,1.80e+00,1.96e+00,5.08e+00,
1099,1.71e+00,2.00e+00,4.96e+00,
1100,1.71e+00,2.04e+00,5.08e+00,
1101,1.80e+00,1.88e+00,-8.00e-02,
1102,1.80e+00,2.00e+00,-4.00e-02,
1103,1.71e+00,1.92e+00,8.00e-02,
1104,1.71e+00,1.92e+00,-4.00e-02,
1105,1.80e+00,2.04e+00,8.00e-02,
1106,1.75e+00,2.16e+00,-4.00e-02,
1107,1.63e+00,1.56e+00,5.12e+00,
1108,1.75e+00,1.68e+00,5.08e+00,
1109,1.63e+00,1.60e+00,4.96e+00,
1110,1.75e+00,1.68e+00,5.08e+00,
1111,1.63e+00,1.56e+00,-8.00e-02,
1112,1.67e+00,1.68e+00,-4.00e-02,
1113,1.59e+00,1.56e+00,8.00e-02,
1114,1.67e+00,1.60e+00,-4.00e-02,
1115,1.59e+00,1.72e+00,8.00e-02,
1116,1.59e+00,1.40e+00,-4.00e-02,
1117,1.67e+00,2.04e+00,5.12e+00,
1118,1.67e+00,2.00e+00,4.96e+00,
1119,1.59e+00,1.92e+00,5.08e+00,
1120,1.63e+00,1.92e+00,5.08e+00,
1121,1.59e+00,2.04e+00,-8.00e-02,
1122,1.63e+00,2.00e+00,8.00e-02,
1123,1.51e+00,1.92e+00,-4.00e-02,
1124,1.63e+00,1.92e+00,-4.00e-02,
1125,1.51e+00,2.00e+00,8.00e-02,
1126,1.63e+00,2.08e+00,-4.00e-02,
1127,1.51e+00,1.56e+00,5.08e+00,
1128,1.55e+00,1.60e+00,5.08e+00,
1129,1.51e+00,1.68e+00,4.96e+00,
1130,1.55e+00,1.60e+00,5.08e+00,
1131,1.47e+00,1.72e+00,-8.00e-02,
1132,1.47e+00,1.68e+00,8.00e-02,
1133,1.55e+00,1.56e+00,-4.00e-02,
1134,1.55e+00,1.68e+00,-4.00e-02,
1135,1.47e+00,1.60e+00,8.00e-02,
1136,1.47e+00,1.76e+00,-4.00e-02,
1137,1.55e+00,1.24e+00,5.12e+00,
1138,1.51e+00,1.24e+00,5.08e+00,
1139,1.43e+00,1.36e+00,4.96e+00,
1140,1.43e+00,1.40e+00,5.08e+00,
1141,1.51e+00,1.20e+00,-8.00e-02,
1142,1.51e+00,1.24e+00,-4.00e-02,
1143,1.39e+00,1.36e+00,8.00e-02,
1144,1.51e+00,1.36e+00,-4.00e-02,
1145,1.39e+00,1.24e+00,8.00e-02,
1146,1.43e+00,1.20e+00,-4.00e-02,
1147,1.35e+00,1.72e+00,5.12e+00,
1148,1.43e+00,1.72e+00,5.08e+00,
1149,1.35e+00,1.60e+00,4.96e+00,
1150,1.43e+00,1.72e+00,5.08e+00,
1151,1.35e+00,1.52e+00,-8.00e-02,
1152,1.43e+00,1.72e+00,-4.00e-02,
1153,1.35e+00,1.56e+00,8.00e-02,
1154,1.43e+00,1.68e+00,-4.00e-02,
1155,1.35e+00,1.56e+00,8.00e-02,
1156,1.35e+00,1.80e+00,-4.00e-02,
1157,1.39e+00,1.24e+00,5.08e+00,
1158,1.39e+00,1.32e+00,5.08e+00,
1159,1.31e+00,1.28e+00,4.96e+00,
1160,1.31e+00,1.24e+00,5.08e+00,
1161,1.39e+00,1.40e+00,-8.00e-02,
1162,1.39e+00,1.24e+00,-4.00e-02,
1163,1.31e+00,1.36e+00,8.00e-02,
1164,1.31e+00,1.36e+00,8.00e-02,
1165,1.39e+00,1.24e+00,-4.00e-02,
1166,1.35e+00,1.20e+00,-4.00e-02,
1167,1.26e+00,1.72e+00,5.12e+00,
1168,1.35e+00,1.68e+00,4.96e+00,
1169,1.22e+00,1.60e+00,5.08e+00,
1170,1.31e+00,1.72e+00,5.08e+00,
1171,1.22e+00,1.56e+00,-8.00e-02,
1172,1.22e+00,1.68e+00,-4.00e-02,
1173,1.35e+00,1.60e+00,8.00e-02,
1174,1.22e+00,1.60e+00,-4.00e-02,
1175,1.35e+00,1.72e+00,8.00e-02,
1176,1.22e+00,1.80e+00,-4.00e-02,
1177,1.26e+00,1.24e+00,5.12e+00,
1178,1.26e+00,1.32e+00,5.08e+00,
1179,1.18e+00,1.28e+00,4.96e+00,
1180,1.26e+00,1.36e+00,5.08e+00,
1181,1.18e+00,1.24e+00,-8.00e-02,
1182,1.18e+00,1.32e+00,8.00e-02,
1183,1.26e+00,1.28e+00,-4.00e-02,
1184,1.18e+00,1.24e+00,8.00e-02,
1185,1.26e+00,1.36e+00,-4.00e-02,
1186,1.26e+00,1.40e+00,-4.00e-02,
1187,1.18e+00,9.20e-01,5.12e+00,
1188,1.18e+00,1.04e+00,5.08e+00,
1189,1.26e+00,9.20e-01,4.96e+00,
1190,1.18e+00,9.20e-01,5.08e+00,
1191,1.22e+00,1.08e+00,-8.00e-02,
1192,1.22e+00,9.20e-01,8.00e-02,
1193,1.10e+00,1.08e+00,-4.00e-02,
1194,1.22e+00,1.04e+00,-4.00e-02,
1195,1.10e+00,9.20e-01,8.00e-02,
1196,1.10e+00,6.80e-01,-4.00e-02,
1197,1.22e+00,1.44e+00,5.12e+00,
1198,1.10e+00,1.36e+00,4.96e+00,
1199,1.22e+00,1.24e+00,5.08e+00,
