X,CH1,CH2,CH3,Start,Increment,
Sequence,Volt,Volt,Volt,-3.000000e-03,5.000000e-06
0,1.56e+00,1.96e+00,5.04e+00,
1,1.44e+00,2.00e+00,5.00e+00,
2,1.44e+00,2.08e+00,5.04e+00,
3,1.56e+00,1.88e+00,-1.20e-01,
4,1.48e+00,2.00e+00,0.00e+00,
5,1.40e+00,1.96e+00,4.00e-02,
6,1.44e+00,2.00e+00,0.00e+00,
7,1.36e+00,1.96e+00,4.00e-02,
8,1.40e+00,2.00e+00,4.00e-02,
9,1.32e+00,1.96e+00,0.00e+00,
10,1.32e+00,1.96e+00,4.00e-02,
11,1.36e+00,2.00e+00,0.00e+00,
12,1.36e+00,2.16e+00,0.00e+00,
13,1.28e+00,1.60e+00,5.16e+00,
14,1.28e+00,1.64e+00,5.00e+00,
15,1.32e+00,1.68e+00,5.04e+00,
16,1.32e+00,1.64e+00,5.04e+00,
17,1.20e+00,1.68e+00,4.92e+00,
18,1.20e+00,1.64e+00,5.04e+00,
19,1.32e+00,1.68e+00,5.00e+00,
20,1.24e+00,1.64e+00,5.04e+00,
21,1.20e+00,1.68e+00,5.00e+00,
22,1.24e+00,1.76e+00,5.04e+00,
23,1.16e+00,1.56e+00,-1.20e-01,
24,1.24e+00,1.64e+00,4.00e-02,
25,1.16e+00,1.68e+00,0.00e+00,
26,1.16e+00,1.64e+00,0.00e+00,
27,1.20e+00,1.72e+00,4.00e-02,
28,1.20e+00,1.64e+00,0.00e+00,
29,1.08e+00,1.68e+00,4.00e-02,
30,1.08e+00,1.64e+00,4.00e-02,
31,1.20e+00,1.68e+00,0.00e+00,
32,1.08e+00,1.76e+00,0.00e+00,
33,1.12e+00,1.24e+00,5.12e+00,
34,1.08e+00,1.28e+00,4.96e+00,
35,1.12e+00,1.36e+00,5.04e+00,
36,1.12e+00,1.28e+00,5.04e+00,
37,1.04e+00,1.36e+00,5.00e+00,
38,1.04e+00,1.36e+00,5.00e+00,
39,1.12e+00,1.28e+00,5.04e+00,
40,1.04e+00,1.28e+00,5.00e+00,
41,1.12e+00,1.36e+00,5.04e+00,
42,1.12e+00,1.24e+00,5.04e+00,
43,1.04e+00,1.40e+00,-1.20e-01,
44,1.04e+00,1.32e+00,0.00e+00,
45,1.12e+00,1.28e+00,4.00e-02,
46,1.08e+00,1.28e+00,0.00e+00,
47,1.04e+00,1.36e+00,4.00e-02,
48,1.04e+00,1.36e+00,0.00e+00,
49,1.08e+00,1.28e+00,4.00e-02,
50,1.04e+00,1.28e+00,0.00e+00,
51,1.08e+00,1.36e+00,4.00e-02,
52,1.04e+00,1.44e+00,0.00e+00,
53,1.08e+00,9.60e-01,5.12e+00,
54,1.04e+00,1.04e+00,5.04e+00,
55,1.08e+00,9.60e-01,4.96e+00,
56,1.04e+00,9.60e-01,5.00e+00,
57,1.12e+00,1.04e+00,5.04e+00,
58,1.04e+00,1.04e+00,5.04e+00,
59,1.12e+00,9.60e-01,5.00e+00,
60,1.12e+00,1.04e+00,5.00e+00,
61,1.04e+00,9.60e-01,5.04e+00,
62,1.04e+00,1.12e+00,5.04e+00,
63,1.12e+00,9.20e-01,-1.20e-01,
64,1.04e+00,1.04e+00,4.00e-02,
65,1.12e+00,9.60e-01,0.00e+00,
66,1.04e+00,1.04e+00,4.00e-02,
67,1.12e+00,9.60e-01,0.00e+00,
68,1.12e+00,1.00e+00,0.00e+00,
69,1.08e+00,1.04e+00,4.00e-02,
70,1.08e+00,1.04e+00,4.00e-02,
71,1.20e+00,1.00e+00,0.00e+00,
72,1.20e+00,6.80e-01,0.00e+00,
73,1.08e+00,1.40e+00,5.16e+00,
74,1.08e+00,1.36e+00,5.04e+00,
75,1.20e+00,1.28e+00,5.00e+00,
76,1.16e+00,1.36e+00,5.00e+00,
77,1.24e+00,1.28e+00,5.04e+00,
78,1.24e+00,1.36e+00,5.04e+00,
79,1.16e+00,1.28e+00,5.00e+00,
80,1.24e+00,1.28e+00,5.00e+00,
81,1.16e+00,1.36e+00,5.04e+00,
82,1.20e+00,1.40e+00,5.04e+00,
83,1.32e+00,1.24e+00,-1.20e-01,
84,1.32e+00,1.36e+00,0.00e+00,
85,1.20e+00,1.28e+00,4.00e-02,
86,1.28e+00,1.36e+00,0.00e+00,
87,1.32e+00,1.28e+00,4.00e-02,
88,1.28e+00,1.28e+00,0.00e+00,
89,1.36e+00,1.36e+00,4.00e-02,
90,1.28e+00,1.36e+00,0.00e+00,
91,1.36e+00,1.28e+00,4.00e-02,
92,1.32e+00,1.68e+00,0.00e+00,
93,1.40e+00,9.20e-01,5.12e+00,
94,1.32e+00,1.04e+00,5.04e+00,
95,1.44e+00,9.60e-01,4.96e+00,
96,1.40e+00,1.04e+00,5.04e+00,
97,1.48e+00,9.60e-01,4.96e+00,
98,1.48e+00,9.60e-01,5.00e+00,
99,1.40e+00,1.04e+00,5.04e+00,
100,1.44e+00,1.04e+00,5.04e+00,
101,1.56e+00,9.60e-01,5.00e+00,
102,1.48e+00,1.12e+00,5.04e+00,
103,1.56e+00,9.20e-01,-8.00e-02,
104,1.52e+00,1.00e+00,4.00e-02,
105,1.60e+00,1.04e+00,0.00e+00,
106,1.52e+00,1.04e+00,0.00e+00,
107,1.68e+00,1.00e+00,4.00e-02,
108,1.68e+00,1.00e+00,0.00e+00,
109,1.56e+00,1.04e+00,4.00e-02,
110,1.64e+00,1.04e+00,0.00e+00,
111,1.72e+00,9.60e-01,4.00e-02,
112,1.64e+00,7.20e-01,0.00e+00,
113,1.72e+00,1.44e+00,5.16e+00,
114,1.68e+00,1.36e+00,5.00e+00,
115,1.80e+00,1.28e+00,5.04e+00,
116,1.76e+00,1.28e+00,5.00e+00,
117,1.84e+00,1.36e+00,5.04e+00,
118,1.76e+00,1.36e+00,5.00e+00,
119,1.92e+00,1.28e+00,5.04e+00,
120,1.92e+00,1.36e+00,5.00e+00,
121,1.80e+00,1.28e+00,5.04e+00,
122,1.88e+00,1.40e+00,5.04e+00,
123,1.96e+00,1.20e+00,-8.00e-02,
124,1.88e+00,1.36e+00,4.00e-02,
125,2.00e+00,1.28e+00,0.00e+00,
126,2.04e+00,1.36e+00,0.00e+00,
127,1.92e+00,1.28e+00,4.00e-02,
128,2.00e+00,1.36e+00,0.00e+00,
129,2.08e+00,1.28e+00,4.00e-02,
130,2.04e+00,1.36e+00,4.00e-02,
131,2.16e+00,1.28e+00,0.00e+00,
132,2.04e+00,1.20e+00,0.00e+00,
133,2.20e+00,1.76e+00,5.16e+00,
134,2.20e+00,1.64e+00,5.00e+00,
135,2.12e+00,1.72e+00,5.04e+00,
136,2.16e+00,1.64e+00,5.00e+00,
137,2.28e+00,1.72e+00,5.04e+00,
138,2.24e+00,1.64e+00,5.00e+00,
139,2.32e+00,1.72e+00,5.04e+00,
140,2.24e+00,1.72e+00,5.00e+00,
141,2.40e+00,1.64e+00,5.04e+00,
142,2.28e+00,1.72e+00,5.04e+00,
143,2.40e+00,1.56e+00,-1.20e-01,
144,2.36e+00,1.64e+00,4.00e-02,
145,2.44e+00,1.72e+00,0.00e+00,
146,2.40e+00,1.64e+00,0.00e+00,
147,2.52e+00,1.72e+00,4.00e-02,
148,2.44e+00,1.64e+00,0.00e+00,
149,2.56e+00,1.72e+00,4.00e-02,
150,2.48e+00,1.64e+00,4.00e-02,
151,2.56e+00,1.72e+00,0.00e+00,
152,2.52e+00,1.40e+00,0.00e+00,
153,2.64e+00,2.08e+00,5.16e+00,
154,2.60e+00,1.96e+00,5.00e+00,
155,2.68e+00,2.04e+00,5.04e+00,
156,2.64e+00,2.04e+00,5.00e+00,
157,2.72e+00,1.96e+00,5.04e+00,
158,2.68e+00,1.96e+00,5.00e+00,
159,2.80e+00,2.04e+00,5.04e+00,
160,2.80e+00,2.04e+00,5.00e+00,
161,2.72e+00,1.96e+00,5.04e+00,
162,2.76e+00,2.04e+00,5.04e+00,
163,2.88e+00,1.88e+00,-8.00e-02,
164,2.84e+00,1.96e+00,0.00e+00,
165,2.92e+00,2.04e+00,4.00e-02,
166,2.88e+00,1.96e+00,4.00e-02,
167,3.00e+00,2.04e+00,0.00e+00,
168,2.88e+00,1.96e+00,4.00e-02,
169,3.00e+00,2.00e+00,0.00e+00,
170,2.96e+00,1.96e+00,4.00e-02,
171,3.04e+00,2.00e+00,0.00e+00,
172,3.00e+00,1.96e+00,0.00e+00,
173,3.12e+00,2.44e+00,5.16e+00,
174,3.08e+00,2.32e+00,5.00e+00,
175,3.16e+00,2.28e+00,5.04e+00,
176,3.16e+00,2.28e+00,5.04e+00,
177,3.08e+00,2.36e+00,5.00e+00,
178,3.12e+00,2.28e+00,5.00e+00,
179,3.24e+00,2.36e+00,5.04e+00,
180,3.20e+00,2.32e+00,5.00e+00,
181,3.28e+00,2.28e+00,5.04e+00,
182,3.28e+00,2.36e+00,5.04e+00,
183,3.20e+00,2.24e+00,-1.20e-01,
184,3.24e+00,2.28e+00,0.00e+00,
185,3.36e+00,2.36e+00,4.00e-02,
186,3.32e+00,2.32e+00,0.00e+00,
187,3.40e+00,2.28e+00,4.00e-02,
188,3.32e+00,2.32e+00,0.00e+00,
189,3.40e+00,2.28e+00,4.00e-02,
190,3.36e+00,2.32e+00,0.00e+00,
191,3.48e+00,2.28e+00,4.00e-02,
192,3.44e+00,1.88e+00,0.00e+00,
193,3.52e+00,2.72e+00,5.16e+00,
194,3.44e+00,2.64e+00,5.04e+00,
195,3.52e+00,2.56e+00,5.00e+00,
196,3.48e+00,2.64e+00,5.04e+00,
197,3.60e+00,2.52e+00,5.00e+00,
198,3.60e+00,2.64e+00,5.04e+00,
199,3.48e+00,2.52e+00,5.00e+00,
200,3.56e+00,2.56e+00,5.04e+00,
201,3.64e+00,2.64e+00,5.00e+00,
202,3.60e+00,2.52e+00,5.04e+00,
203,3.72e+00,2.68e+00,-1.20e-01,
204,3.60e+00,2.64e+00,0.00e+00,
205,3.72e+00,2.52e+00,4.00e-02,
206,3.68e+00,2.52e+00,0.00e+00,
207,3.76e+00,2.64e+00,4.00e-02,
208,3.76e+00,2.52e+00,4.00e-02,
209,3.68e+00,2.64e+00,0.00e+00,
210,3.72e+00,2.52e+00,0.00e+00,
211,3.84e+00,2.64e+00,4.00e-02,
212,3.84e+00,2.48e+00,0.00e+00,
213,3.72e+00,2.96e+00,5.16e+00,
214,3.72e+00,2.88e+00,5.04e+00,
215,3.84e+00,2.96e+00,4.96e+00,
216,3.80e+00,2.96e+00,5.00e+00,
217,3.88e+00,2.88e+00,5.04e+00,
218,3.80e+00,2.88e+00,5.04e+00,
219,3.88e+00,2.96e+00,5.00e+00,
220,3.84e+00,2.96e+00,5.00e+00,
221,3.92e+00,2.88e+00,5.04e+00,
222,3.96e+00,3.00e+00,5.04e+00,
223,3.84e+00,2.84e+00,-1.20e-01,
224,3.96e+00,2.88e+00,0.00e+00,
225,3.84e+00,2.96e+00,4.00e-02,
226,3.92e+00,2.88e+00,0.00e+00,
227,4.00e+00,2.96e+00,4.00e-02,
228,3.92e+00,2.88e+00,0.00e+00,
229,4.00e+00,2.96e+00,4.00e-02,
230,4.00e+00,2.96e+00,0.00e+00,
231,3.92e+00,2.88e+00,4.00e-02,
232,4.00e+00,2.80e+00,0.00e+00,
233,3.96e+00,3.32e+00,5.16e+00,
234,4.00e+00,3.28e+00,5.04e+00,
235,3.96e+00,3.20e+00,5.00e+00,
236,3.96e+00,3.20e+00,5.04e+00,
237,4.08e+00,3.28e+00,4.96e+00,
238,4.08e+00,3.20e+00,5.00e+00,
239,3.96e+00,3.28e+00,5.04e+00,
240,4.08e+00,3.28e+00,5.04e+00,
241,3.96e+00,3.20e+00,5.00e+00,
242,4.08e+00,3.16e+00,5.04e+00,
243,3.96e+00,3.32e+00,-8.00e-02,
244,3.96e+00,3.20e+00,0.00e+00,
245,4.08e+00,3.28e+00,4.00e-02,
246,4.08e+00,3.20e+00,0.00e+00,
247,3.96e+00,3.28e+00,4.00e-02,
248,4.04e+00,3.20e+00,0.00e+00,
249,4.08e+00,3.28e+00,4.00e-02,
250,4.04e+00,3.20e+00,0.00e+00,
251,4.08e+00,3.28e+00,4.00e-02,
252,4.08e+00,3.12e+00,0.00e+00,
253,4.04e+00,3.68e+00,5.16e+00,
254,4.04e+00,3.56e+00,5.00e+00,
255,4.08e+00,3.64e+00,5.04e+00,
256,4.08e+00,3.56e+00,5.00e+00,
257,4.00e+00,3.64e+00,5.04e+00,
258,4.08e+00,3.56e+00,5.00e+00,
259,4.00e+00,3.60e+00,5.04e+00,
260,4.08e+00,3.56e+00,5.00e+00,
261,3.96e+00,3.60e+00,5.04e+00,
262,3.96e+00,3.52e+00,5.04e+00,
263,4.08e+00,3.64e+00,-8.00e-02,
264,3.96e+00,3.56e+00,0.00e+00,
265,4.08e+00,3.60e+00,4.00e-02,
266,3.96e+00,3.56e+00,0.00e+00,
267,4.04e+00,3.60e+00,4.00e-02,
268,4.00e+00,3.56e+00,4.00e-02,
269,3.96e+00,3.64e+00,0.00e+00,
270,4.00e+00,3.60e+00,0.00e+00,
271,3.92e+00,3.56e+00,4.00e-02,
272,3.92e+00,3.24e+00,0.00e+00,
273,4.00e+00,4.00e+00,5.16e+00,
274,3.92e+00,3.84e+00,5.04e+00,
275,4.00e+00,3.92e+00,4.92e+00,
276,3.96e+00,3.92e+00,5.04e+00,
277,3.92e+00,3.84e+00,4.96e+00,
278,3.96e+00,3.92e+00,5.04e+00,
279,3.84e+00,3.84e+00,5.00e+00,
280,3.96e+00,3.84e+00,5.04e+00,
281,3.84e+00,3.92e+00,5.00e+00,
282,3.88e+00,3.96e+00,5.04e+00,
283,3.80e+00,3.76e+00,-8.00e-02,
284,3.80e+00,3.84e+00,4.00e-02,
285,3.88e+00,3.88e+00,-4.00e-02,
286,3.80e+00,3.92e+00,4.00e-02,
287,3.88e+00,3.84e+00,0.00e+00,
288,3.84e+00,3.92e+00,0.00e+00,
289,3.72e+00,3.84e+00,4.00e-02,
290,3.84e+00,3.84e+00,0.00e+00,
291,3.72e+00,3.96e+00,8.00e-02,
292,3.76e+00,3.92e+00,0.00e+00,
293,3.68e+00,3.44e+00,5.12e+00,
294,3.76e+00,3.60e+00,5.04e+00,
295,3.68e+00,3.52e+00,4.92e+00,
296,3.72e+00,3.64e+00,5.08e+00,
297,3.60e+00,3.52e+00,4.96e+00,
298,3.72e+00,3.56e+00,5.00e+00,
299,3.60e+00,3.60e+00,5.04e+00,
300,3.64e+00,3.56e+00,5.04e+00,
301,3.56e+00,3.60e+00,4.96e+00,
302,3.56e+00,3.64e+00,5.04e+00,
303,3.64e+00,3.48e+00,-1.20e-01,
304,3.60e+00,3.60e+00,0.00e+00,
305,3.48e+00,3.52e+00,4.00e-02,
306,3.60e+00,3.60e+00,0.00e+00,
307,3.44e+00,3.52e+00,4.00e-02,
308,3.44e+00,3.56e+00,0.00e+00,
309,3.52e+00,3.60e+00,4.00e-02,
310,3.48e+00,3.64e+00,8.00e-02,
311,3.36e+00,3.52e+00,-4.00e-02,
312,3.36e+00,3.68e+00,0.00e+00,
313,3.48e+00,3.16e+00,5.16e+00,
314,3.40e+00,3.20e+00,5.04e+00,
315,3.32e+00,3.28e+00,4.92e+00,
316,3.36e+00,3.28e+00,4.96e+00,
317,3.24e+00,3.16e+00,5.08e+00,
318,3.24e+00,3.24e+00,5.04e+00,
319,3.36e+00,3.20e+00,4.96e+00,
320,3.28e+00,3.24e+00,5.00e+00,
321,3.20e+00,3.20e+00,5.04e+00,
322,3.24e+00,3.32e+00,5.04e+00,
323,3.12e+00,3.12e+00,-1.20e-01,
324,3.24e+00,3.24e+00,0.00e+00,
325,3.08e+00,3.16e+00,4.00e-02,
326,3.08e+00,3.24e+00,4.00e-02,
327,3.16e+00,3.20e+00,0.00e+00,
328,3.12e+00,3.20e+00,4.00e-02,
329,3.00e+00,3.28e+00,-4.00e-02,
330,3.08e+00,3.28e+00,4.00e-02,
331,2.96e+00,3.20e+00,-4.00e-02,
332,3.04e+00,3.48e+00,0.00e+00,
333,2.92e+00,2.84e+00,5.16e+00,
334,3.00e+00,2.88e+00,5.04e+00,
335,2.88e+00,2.96e+00,5.00e+00,
336,2.92e+00,2.96e+00,5.04e+00,
337,2.84e+00,2.84e+00,4.96e+00,
338,2.88e+00,2.92e+00,5.00e+00,
339,2.76e+00,2.88e+00,5.04e+00,
340,2.88e+00,2.88e+00,5.00e+00,
341,2.72e+00,2.96e+00,5.04e+00,
342,2.72e+00,2.96e+00,5.04e+00,
343,2.80e+00,2.76e+00,-1.20e-01,
344,2.76e+00,2.88e+00,0.00e+00,
345,2.64e+00,2.96e+00,4.00e-02,
346,2.68e+00,2.88e+00,0.00e+00,
347,2.60e+00,2.96e+00,4.00e-02,
348,2.68e+00,2.96e+00,-4.00e-02,
349,2.52e+00,2.84e+00,8.00e-02,
350,2.52e+00,2.88e+00,0.00e+00,
351,2.60e+00,2.96e+00,4.00e-02,
352,2.56e+00,3.04e+00,0.00e+00,
353,2.48e+00,2.48e+00,5.16e+00,
354,2.52e+00,2.52e+00,5.00e+00,
355,2.40e+00,2.64e+00,5.04e+00,
356,2.44e+00,2.64e+00,5.04e+00,
357,2.36e+00,2.52e+00,4.96e+00,
358,2.44e+00,2.64e+00,5.00e+00,
359,2.28e+00,2.52e+00,5.04e+00,
360,2.40e+00,2.52e+00,5.00e+00,
361,2.28e+00,2.64e+00,5.04e+00,
362,2.32e+00,2.64e+00,5.04e+00,
363,2.24e+00,2.52e+00,-8.00e-02,
364,2.28e+00,2.52e+00,4.00e-02,
365,2.16e+00,2.64e+00,0.00e+00,
366,2.24e+00,2.52e+00,0.00e+00,
367,2.12e+00,2.64e+00,4.00e-02,
368,2.12e+00,2.64e+00,4.00e-02,
369,2.20e+00,2.52e+00,0.00e+00,
370,2.16e+00,2.64e+00,4.00e-02,
371,2.04e+00,2.52e+00,0.00e+00,
372,2.08e+00,3.04e+00,0.00e+00,
373,2.00e+00,2.08e+00,5.08e+00,
374,2.08e+00,2.32e+00,5.00e+00,
375,1.92e+00,2.28e+00,5.04e+00,
376,1.92e+00,2.32e+00,5.04e+00,
377,2.04e+00,2.28e+00,4.96e+00,
378,1.96e+00,2.32e+00,5.04e+00,
379,1.88e+00,2.28e+00,5.00e+00,
380,1.92e+00,2.32e+00,5.04e+00,
381,1.80e+00,2.28e+00,4.96e+00,
382,1.92e+00,2.40e+00,5.04e+00,
383,1.80e+00,2.20e+00,-1.20e-01,
384,1.84e+00,2.32e+00,4.00e-02,
385,1.76e+00,2.28e+00,0.00e+00,
386,1.80e+00,2.32e+00,0.00e+00,
387,1.68e+00,2.28e+00,4.00e-02,
388,1.80e+00,2.32e+00,0.00e+00,
389,1.68e+00,2.28e+00,4.00e-02,
390,1.72e+00,2.32e+00,4.00e-02,
391,1.64e+00,2.28e+00,0.00e+00,
392,1.68e+00,2.44e+00,0.00e+00,
393,1.56e+00,1.92e+00,5.12e+00,
394,1.56e+00,2.00e+00,4.96e+00,
395,1.68e+00,1.96e+00,5.04e+00,
396,1.60e+00,2.00e+00,5.04e+00,
397,1.52e+00,1.96e+00,4.92e+00,
398,1.60e+00,2.00e+00,5.04e+00,
399,1.52e+00,1.96e+00,4.96e+00,
400,1.56e+00,2.00e+00,5.00e+00,
401,1.44e+00,1.96e+00,5.04e+00,
402,1.48e+00,2.08e+00,5.04e+00,
403,1.40e+00,1.88e+00,-1.20e-01,
404,1.48e+00,1.96e+00,4.00e-02,
405,1.40e+00,2.00e+00,-4.00e-02,
406,1.44e+00,1.96e+00,0.00e+00,
407,1.36e+00,2.00e+00,4.00e-02,
408,1.32e+00,1.96e+00,0.00e+00,
409,1.44e+00,2.04e+00,4.00e-02,
410,1.36e+00,2.00e+00,0.00e+00,
411,1.28e+00,1.96e+00,4.00e-02,
412,1.36e+00,2.08e+00,0.00e+00,
413,1.28e+00,1.56e+00,5.16e+00,
414,1.28e+00,1.64e+00,5.04e+00,
415,1.36e+00,1.68e+00,5.00e+00,
416,1.32e+00,1.64e+00,5.00e+00,
417,1.20e+00,1.68e+00,5.04e+00,
418,1.20e+00,1.64e+00,5.04e+00,
419,1.32e+00,1.68e+00,4.96e+00,
420,1.24e+00,1.64e+00,5.00e+00,
421,1.20e+00,1.72e+00,5.04e+00,
422,1.24e+00,1.64e+00,5.04e+00,
423,1.16e+00,1.76e+00,-1.20e-01,
424,1.16e+00,1.64e+00,0.00e+00,
425,1.24e+00,1.68e+00,4.00e-02,
426,1.20e+00,1.64e+00,0.00e+00,
427,1.16e+00,1.68e+00,4.00e-02,
428,1.20e+00,1.64e+00,0.00e+00,
429,1.08e+00,1.72e+00,4.00e-02,
430,1.08e+00,1.64e+00,4.00e-02,
431,1.20e+00,1.68e+00,0.00e+00,
432,1.12e+00,1.80e+00,0.00e+00,
433,1.08e+00,1.24e+00,5.16e+00,
434,1.12e+00,1.28e+00,5.00e+00,
435,1.08e+00,1.36e+00,5.04e+00,
436,1.12e+00,1.28e+00,5.04e+00,
437,1.04e+00,1.32e+00,4.96e+00,
438,1.12e+00,1.28e+00,5.04e+00,
439,1.04e+00,1.36e+00,4.96e+00,
440,1.04e+00,1.28e+00,5.04e+00,
441,1.12e+00,1.36e+00,4.96e+00,
442,1.04e+00,1.40e+00,5.04e+00,
443,1.12e+00,1.24e+00,-1.20e-01,
444,1.04e+00,1.28e+00,4.00e-02,
445,1.12e+00,1.36e+00,0.00e+00,
446,1.04e+00,1.28e+00,0.00e+00,
447,1.12e+00,1.36e+00,4.00e-02,
448,1.04e+00,1.28e+00,4.00e-02,
449,1.08e+00,1.36e+00,0.00e+00,
450,1.04e+00,1.36e+00,0.00e+00,
451,1.08e+00,1.28e+00,4.00e-02,
452,1.04e+00,1.68e+00,0.00e+00,
453,1.08e+00,9.20e-01,5.16e+00,
454,1.04e+00,1.04e+00,5.04e+00,
455,1.12e+00,9.60e-01,5.00e+00,
456,1.04e+00,1.04e+00,5.00e+00,
457,1.12e+00,9.60e-01,5.04e+00,
458,1.04e+00,1.04e+00,5.04e+00,
459,1.12e+00,9.60e-01,4.96e+00,
460,1.04e+00,1.04e+00,5.04e+00,
461,1.12e+00,9.60e-01,4.96e+00,
462,1.04e+00,1.12e+00,5.04e+00,
463,1.12e+00,9.20e-01,-1.20e-01,
464,1.04e+00,1.04e+00,0.00e+00,
465,1.12e+00,9.60e-01,4.00e-02,
466,1.12e+00,1.00e+00,0.00e+00,
467,1.04e+00,1.04e+00,4.00e-02,
468,1.12e+00,1.04e+00,0.00e+00,
469,1.08e+00,9.60e-01,4.00e-02,
470,1.08e+00,1.04e+00,4.00e-02,
471,1.20e+00,1.00e+00,0.00e+00,
472,1.20e+00,6.80e-01,0.00e+00,
473,1.08e+00,1.40e+00,5.16e+00,
474,1.08e+00,1.36e+00,4.96e+00,
475,1.20e+00,1.28e+00,5.04e+00,
476,1.16e+00,1.28e+00,5.00e+00,
477,1.24e+00,1.36e+00,5.04e+00,
478,1.24e+00,1.36e+00,5.00e+00,
479,1.16e+00,1.28e+00,5.04e+00,
480,1.24e+00,1.36e+00,5.04e+00,
481,1.16e+00,1.28e+00,5.00e+00,
482,1.20e+00,1.24e+00,5.04e+00,
483,1.28e+00,1.40e+00,-8.00e-02,
484,1.20e+00,1.28e+00,0.00e+00,
485,1.32e+00,1.36e+00,4.00e-02,
486,1.20e+00,1.36e+00,0.00e+00,
487,1.36e+00,1.28e+00,4.00e-02,
488,1.28e+00,1.36e+00,4.00e-02,
489,1.36e+00,1.28e+00,0.00e+00,
490,1.28e+00,1.36e+00,0.00e+00,
491,1.36e+00,1.28e+00,4.00e-02,
492,1.32e+00,1.64e+00,0.00e+00,
493,1.44e+00,9.20e-01,5.12e+00,
494,1.32e+00,1.04e+00,5.04e+00,
495,1.44e+00,9.60e-01,4.96e+00,
496,1.40e+00,1.00e+00,5.00e+00,
497,1.48e+00,1.04e+00,5.04e+00,
498,1.48e+00,1.04e+00,5.04e+00,
499,1.40e+00,1.00e+00,5.00e+00,
500,1.44e+00,1.04e+00,5.04e+00,
501,1.56e+00,1.00e+00,5.00e+00,
502,1.44e+00,1.08e+00,5.04e+00,
503,1.56e+00,9.20e-01,-1.20e-01,
504,1.52e+00,1.00e+00,0.00e+00,
505,1.60e+00,1.04e+00,4.00e-02,
506,1.52e+00,1.04e+00,0.00e+00,
507,1.64e+00,9.60e-01,4.00e-02,
508,1.56e+00,1.00e+00,0.00e+00,
509,1.68e+00,1.04e+00,4.00e-02,
510,1.64e+00,1.04e+00,4.00e-02,
511,1.72e+00,9.60e-01,-4.00e-02,
512,1.64e+00,6.80e-01,0.00e+00,
513,1.72e+00,1.40e+00,5.16e+00,
514,1.68e+00,1.36e+00,5.00e+00,
515,1.80e+00,1.28e+00,5.04e+00,
516,1.76e+00,1.36e+00,5.04e+00,
517,1.84e+00,1.28e+00,4.96e+00,
518,1.76e+00,1.36e+00,5.00e+00,
519,1.88e+00,1.28e+00,5.04e+00,
520,1.80e+00,1.36e+00,5.04e+00,
521,1.92e+00,1.28e+00,5.00e+00,
522,1.88e+00,1.40e+00,5.04e+00,
523,1.96e+00,1.20e+00,-1.20e-01,
524,1.88e+00,1.36e+00,4.00e-02,
525,2.00e+00,1.28e+00,0.00e+00,
526,1.92e+00,1.36e+00,0.00e+00,
527,2.04e+00,1.28e+00,4.00e-02,
528,2.00e+00,1.36e+00,4.00e-02,
529,2.08e+00,1.28e+00,0.00e+00,
530,2.00e+00,1.28e+00,4.00e-02,
531,2.12e+00,1.36e+00,0.00e+00,
532,2.04e+00,1.28e+00,0.00e+00,
533,2.20e+00,1.76e+00,5.16e+00,
534,2.20e+00,1.72e+00,5.00e+00,
535,2.12e+00,1.64e+00,5.04e+00,
536,2.16e+00,1.72e+00,5.04e+00,
537,2.28e+00,1.64e+00,5.00e+00,
538,2.20e+00,1.72e+00,5.04e+00,
539,2.32e+00,1.64e+00,5.00e+00,
540,2.24e+00,1.64e+00,5.00e+00,
541,2.40e+00,1.72e+00,5.04e+00,
542,2.28e+00,1.64e+00,5.04e+00,
543,2.40e+00,1.72e+00,-8.00e-02,
544,2.36e+00,1.64e+00,4.00e-02,
545,2.44e+00,1.72e+00,0.00e+00,
546,2.40e+00,1.72e+00,0.00e+00,
547,2.52e+00,1.64e+00,4.00e-02,
548,2.40e+00,1.64e+00,0.00e+00,
549,2.56e+00,1.72e+00,4.00e-02,
550,2.48e+00,1.64e+00,0.00e+00,
551,2.56e+00,1.72e+00,4.00e-02,
552,2.52e+00,1.40e+00,0.00e+00,
553,2.64e+00,2.08e+00,5.08e+00,
554,2.60e+00,1.96e+00,5.00e+00,
555,2.68e+00,2.04e+00,5.04e+00,
556,2.60e+00,1.96e+00,5.04e+00,
557,2.76e+00,2.04e+00,5.00e+00,
558,2.64e+00,1.96e+00,5.04e+00,
559,2.80e+00,2.04e+00,5.00e+00,
560,2.80e+00,1.96e+00,5.00e+00,
561,2.72e+00,2.00e+00,5.04e+00,
562,2.76e+00,2.08e+00,5.04e+00,
563,2.88e+00,1.92e+00,-8.00e-02,
564,2.84e+00,1.96e+00,0.00e+00,
565,2.92e+00,2.04e+00,4.00e-02,
566,2.84e+00,2.00e+00,0.00e+00,
567,2.96e+00,1.96e+00,4.00e-02,
568,3.00e+00,1.96e+00,0.00e+00,
569,2.88e+00,2.04e+00,4.00e-02,
570,2.96e+00,2.00e+00,0.00e+00,
571,3.04e+00,1.96e+00,4.00e-02,
572,3.00e+00,1.88e+00,0.00e+00,
573,3.12e+00,2.40e+00,5.12e+00,
574,3.00e+00,2.32e+00,5.04e+00,
575,3.16e+00,2.28e+00,4.96e+00,
576,3.16e+00,2.28e+00,5.04e+00,
577,3.08e+00,2.36e+00,5.00e+00,
578,3.12e+00,2.32e+00,5.00e+00,
579,3.24e+00,2.28e+00,5.04e+00,
580,3.20e+00,2.32e+00,5.04e+00,
581,3.28e+00,2.28e+00,5.00e+00,
582,3.20e+00,2.28e+00,5.04e+00,
583,3.28e+00,2.36e+00,-8.00e-02,
584,3.24e+00,2.32e+00,4.00e-02,
585,3.36e+00,2.28e+00,-8.00e-02,
586,3.32e+00,2.32e+00,0.00e+00,
587,3.40e+00,2.28e+00,4.00e-02,
588,3.40e+00,2.28e+00,4.00e-02,
589,3.32e+00,2.36e+00,0.00e+00,
590,3.36e+00,2.28e+00,4.00e-02,
591,3.48e+00,2.40e+00,0.00e+00,
592,3.44e+00,2.76e+00,0.00e+00,
593,3.52e+00,1.92e+00,5.12e+00,
594,3.52e+00,2.52e+00,5.04e+00,
595,3.44e+00,2.64e+00,5.00e+00,
596,3.48e+00,2.56e+00,5.04e+00,
597,3.60e+00,2.64e+00,4.96e+00,
598,3.48e+00,2.56e+00,5.04e+00,
599,3.60e+00,2.64e+00,4.96e+00,
600,3.64e+00,2.64e+00,5.04e+00,
601,3.56e+00,2.52e+00,5.00e+00,
602,3.64e+00,2.72e+00,5.04e+00,
603,3.60e+00,2.48e+00,-8.00e-02,
604,3.60e+00,2.56e+00,0.00e+00,
605,3.72e+00,2.64e+00,4.00e-02,
606,3.64e+00,2.56e+00,0.00e+00,
607,3.76e+00,2.64e+00,4.00e-02,
608,3.76e+00,2.64e+00,0.00e+00,
609,3.68e+00,2.52e+00,4.00e-02,
610,3.72e+00,2.64e+00,0.00e+00,
611,3.76e+00,2.52e+00,4.00e-02,
612,3.72e+00,2.44e+00,0.00e+00,
613,3.84e+00,3.00e+00,5.16e+00,
614,3.76e+00,2.88e+00,5.04e+00,
615,3.84e+00,2.96e+00,5.00e+00,
616,3.80e+00,2.88e+00,5.04e+00,
617,3.88e+00,2.96e+00,5.00e+00,
618,3.80e+00,2.88e+00,5.04e+00,
619,3.88e+00,2.96e+00,5.00e+00,
620,3.84e+00,2.96e+00,5.00e+00,
621,3.92e+00,2.88e+00,5.04e+00,
622,3.96e+00,3.00e+00,5.04e+00,
623,3.84e+00,2.84e+00,-1.20e-01,
624,3.88e+00,2.96e+00,0.00e+00,
625,3.96e+00,2.88e+00,4.00e-02,
626,3.92e+00,2.88e+00,0.00e+00,
627,3.96e+00,2.96e+00,4.00e-02,
628,3.92e+00,2.96e+00,4.00e-02,
629,4.00e+00,2.88e+00,0.00e+00,
630,3.92e+00,2.88e+00,4.00e-02,
631,4.00e+00,2.96e+00,0.00e+00,
632,3.96e+00,2.64e+00,0.00e+00,
633,4.00e+00,3.32e+00,5.16e+00,
634,4.00e+00,3.28e+00,5.04e+00,
635,3.96e+00,3.20e+00,4.96e+00,
636,3.96e+00,3.20e+00,5.04e+00,
637,4.08e+00,3.28e+00,4.96e+00,
638,3.96e+00,3.20e+00,5.04e+00,
639,4.08e+00,3.28e+00,5.00e+00,
640,3.96e+00,3.24e+00,5.00e+00,
641,4.08e+00,3.20e+00,5.04e+00,
642,3.96e+00,3.32e+00,5.04e+00,
643,4.08e+00,3.12e+00,-1.20e-01,
644,3.96e+00,3.20e+00,4.00e-02,
645,4.08e+00,3.28e+00,0.00e+00,
646,4.08e+00,3.24e+00,4.00e-02,
647,3.96e+00,3.20e+00,-8.00e-02,
648,4.04e+00,3.20e+00,4.00e-02,
649,4.08e+00,3.28e+00,0.00e+00,
650,4.04e+00,3.20e+00,4.00e-02,
651,4.08e+00,3.28e+00,0.00e+00,
652,4.08e+00,3.16e+00,0.00e+00,
653,4.00e+00,3.64e+00,5.12e+00,
654,4.08e+00,3.56e+00,5.04e+00,
655,4.00e+00,3.60e+00,4.96e+00,
656,4.08e+00,3.56e+00,5.04e+00,
657,3.96e+00,3.60e+00,5.00e+00,
658,4.08e+00,3.56e+00,5.04e+00,
659,3.96e+00,3.60e+00,5.00e+00,
660,3.96e+00,3.56e+00,5.04e+00,
661,4.08e+00,3.64e+00,4.96e+00,
662,4.08e+00,3.68e+00,5.04e+00,
663,3.96e+00,3.52e+00,-8.00e-02,
664,3.96e+00,3.56e+00,0.00e+00,
665,4.08e+00,3.60e+00,4.00e-02,
666,4.04e+00,3.56e+00,0.00e+00,
667,3.96e+00,3.60e+00,4.00e-02,
668,3.96e+00,3.56e+00,0.00e+00,
669,4.00e+00,3.60e+00,4.00e-02,
670,4.00e+00,3.56e+00,0.00e+00,
671,3.92e+00,3.60e+00,4.00e-02,
672,4.00e+00,3.20e+00,0.00e+00,
673,3.92e+00,4.00e+00,5.16e+00,
674,3.92e+00,3.84e+00,5.00e+00,
675,4.00e+00,3.92e+00,5.04e+00,
676,3.92e+00,3.92e+00,5.04e+00,
677,3.96e+00,3.84e+00,4.96e+00,
678,3.96e+00,3.84e+00,5.04e+00,
679,3.84e+00,3.92e+00,5.00e+00,
680,3.96e+00,3.84e+00,5.04e+00,
681,3.84e+00,3.92e+00,5.00e+00,
682,3.88e+00,3.92e+00,5.04e+00,
683,3.80e+00,3.80e+00,-1.20e-01,
684,3.80e+00,3.92e+00,4.00e-02,
685,3.88e+00,3.84e+00,0.00e+00,
686,3.80e+00,3.92e+00,4.00e-02,
687,3.88e+00,3.84e+00,0.00e+00,
688,3.84e+00,3.84e+00,0.00e+00,
689,3.72e+00,3.92e+00,4.00e-02,
690,3.72e+00,3.84e+00,0.00e+00,
691,3.84e+00,3.92e+00,4.00e-02,
692,3.76e+00,4.20e+00,0.00e+00,
693,3.68e+00,3.48e+00,5.12e+00,
694,3.68e+00,3.64e+00,5.04e+00,
695,3.76e+00,3.52e+00,4.96e+00,
696,3.72e+00,3.56e+00,5.04e+00,
697,3.60e+00,3.60e+00,4.96e+00,
698,3.60e+00,3.56e+00,5.04e+00,
699,3.72e+00,3.60e+00,4.96e+00,
700,3.64e+00,3.56e+00,5.04e+00,
701,3.56e+00,3.60e+00,4.96e+00,
702,3.64e+00,3.68e+00,5.04e+00,
703,3.56e+00,3.48e+00,-1.20e-01,
704,3.60e+00,3.56e+00,0.00e+00,
705,3.48e+00,3.60e+00,4.00e-02,
706,3.48e+00,3.64e+00,0.00e+00,
707,3.52e+00,3.52e+00,4.00e-02,
708,3.44e+00,3.56e+00,0.00e+00,
709,3.52e+00,3.60e+00,4.00e-02,
710,3.48e+00,3.60e+00,0.00e+00,
711,3.36e+00,3.56e+00,4.00e-02,
712,3.48e+00,3.64e+00,0.00e+00,
713,3.36e+00,3.20e+00,5.16e+00,
714,3.40e+00,3.24e+00,5.04e+00,
715,3.32e+00,3.16e+00,5.00e+00,
716,3.36e+00,3.20e+00,5.04e+00,
717,3.24e+00,3.24e+00,4.96e+00,
718,3.36e+00,3.20e+00,5.04e+00,
719,3.20e+00,3.24e+00,4.96e+00,
720,3.20e+00,3.20e+00,5.04e+00,
721,3.28e+00,3.24e+00,4.96e+00,
722,3.24e+00,3.16e+00,5.04e+00,
723,3.12e+00,3.32e+00,-8.00e-02,
724,3.24e+00,3.28e+00,0.00e+00,
725,3.08e+00,3.20e+00,4.00e-02,
726,3.08e+00,3.24e+00,4.00e-02,
727,3.16e+00,3.20e+00,0.00e+00,
728,3.12e+00,3.20e+00,4.00e-02,
729,3.00e+00,3.28e+00,0.00e+00,
730,3.04e+00,3.20e+00,0.00e+00,
731,2.96e+00,3.24e+00,4.00e-02,
732,2.96e+00,3.44e+00,0.00e+00,
733,3.04e+00,2.84e+00,5.16e+00,
734,2.88e+00,2.88e+00,5.04e+00,
735,3.00e+00,2.92e+00,4.96e+00,
736,2.92e+00,2.88e+00,5.04e+00,
737,2.84e+00,2.96e+00,4.96e+00,
738,2.88e+00,2.92e+00,5.04e+00,
739,2.76e+00,2.88e+00,4.92e+00,
740,2.84e+00,2.88e+00,5.04e+00,
741,2.72e+00,2.96e+00,5.00e+00,
742,2.72e+00,3.00e+00,5.04e+00,
743,2.80e+00,2.80e+00,-1.20e-01,
744,2.76e+00,2.88e+00,0.00e+00,
745,2.64e+00,2.96e+00,4.00e-02,
746,2.68e+00,2.88e+00,4.00e-02,
747,2.60e+00,2.96e+00,0.00e+00,
748,2.68e+00,2.88e+00,0.00e+00,
749,2.52e+00,2.96e+00,4.00e-02,
750,2.52e+00,2.88e+00,4.00e-02,
751,2.64e+00,2.96e+00,0.00e+00,
752,2.56e+00,3.04e+00,0.00e+00,
753,2.48e+00,2.52e+00,5.16e+00,
754,2.52e+00,2.64e+00,5.00e+00,
755,2.40e+00,2.52e+00,5.04e+00,
756,2.44e+00,2.64e+00,5.04e+00,
757,2.36e+00,2.56e+00,4.96e+00,
758,2.44e+00,2.64e+00,5.00e+00,
759,2.28e+00,2.52e+00,5.04e+00,
760,2.28e+00,2.60e+00,5.00e+00,
761,2.40e+00,2.52e+00,5.04e+00,
762,2.32e+00,2.68e+00,5.04e+00,
763,2.24e+00,2.48e+00,-1.20e-01,
764,2.28e+00,2.52e+00,0.00e+00,
765,2.16e+00,2.64e+00,4.00e-02,
766,2.24e+00,2.52e+00,0.00e+00,
767,2.12e+00,2.64e+00,4.00e-02,
768,2.12e+00,2.52e+00,4.00e-02,
769,2.20e+00,2.64e+00,0.00e+00,
770,2.16e+00,2.52e+00,0.00e+00,
771,2.04e+00,2.64e+00,4.00e-02,
772,2.08e+00,2.64e+00,0.00e+00,
773,2.00e+00,2.00e+00,5.16e+00,
774,2.08e+00,2.32e+00,5.04e+00,
775,1.92e+00,2.28e+00,4.96e+00,
776,2.04e+00,2.32e+00,5.00e+00,
777,1.92e+00,2.28e+00,5.04e+00,
778,1.96e+00,2.32e+00,5.00e+00,
779,1.88e+00,2.28e+00,5.04e+00,
780,1.92e+00,2.32e+00,5.00e+00,
781,1.80e+00,2.28e+00,5.04e+00,
782,1.88e+00,2.28e+00,5.04e+00,
783,1.80e+00,2.40e+00,-1.20e-01,
784,1.84e+00,2.32e+00,4.00e-02,
785,1.76e+00,2.28e+00,0.00e+00,
786,1.80e+00,2.32e+00,0.00e+00,
787,1.68e+00,2.28e+00,4.00e-02,
788,1.80e+00,2.32e+00,0.00e+00,
789,1.68e+00,2.28e+00,4.00e-02,
790,1.72e+00,2.32e+00,0.00e+00,
791,1.64e+00,2.28e+00,4.00e-02,
792,1.68e+00,2.44e+00,0.00e+00,
793,1.56e+00,1.92e+00,5.12e+00,
794,1.56e+00,2.00e+00,5.04e+00,
795,1.68e+00,1.96e+00,4.96e+00,
796,1.60e+00,2.00e+00,5.04e+00,
797,1.52e+00,1.96e+00,4.96e+00,
798,1.52e+00,2.00e+00,5.04e+00,
799,1.60e+00,1.96e+00,5.00e+00,
800,1.56e+00,2.00e+00,5.04e+00,
801,1.44e+00,1.96e+00,4.96e+00,
802,1.48e+00,2.08e+00,5.04e+00,
803,1.40e+00,1.88e+00,-1.20e-01,
804,1.48e+00,1.96e+00,0.00e+00,
805,1.40e+00,2.00e+00,4.00e-02,
806,1.44e+00,1.96e+00,4.00e-02,
807,1.32e+00,2.00e+00,0.00e+00,
808,1.32e+00,2.00e+00,0.00e+00,
809,1.44e+00,1.96e+00,4.00e-02,
810,1.36e+00,1.96e+00,4.00e-02,
811,1.28e+00,2.00e+00,0.00e+00,
812,1.36e+00,2.20e+00,0.00e+00,
813,1.28e+00,1.56e+00,5.16e+00,
814,1.36e+00,1.64e+00,5.00e+00,
815,1.28e+00,1.68e+00,5.04e+00,
816,1.20e+00,1.64e+00,5.04e+00,
817,1.32e+00,1.68e+00,4.96e+00,
818,1.20e+00,1.68e+00,5.04e+00,
819,1.32e+00,1.64e+00,4.96e+00,
820,1.24e+00,1.64e+00,5.04e+00,
821,1.20e+00,1.72e+00,4.96e+00,
822,1.24e+00,1.56e+00,5.04e+00,
823,1.16e+00,1.72e+00,-8.00e-02,
824,1.24e+00,1.64e+00,0.00e+00,
825,1.16e+00,1.68e+00,4.00e-02,
826,1.20e+00,1.64e+00,0.00e+00,
827,1.08e+00,1.68e+00,4.00e-02,
828,1.08e+00,1.64e+00,4.00e-02,
829,1.20e+00,1.68e+00,0.00e+00,
830,1.20e+00,1.68e+00,0.00e+00,
831,1.08e+00,1.64e+00,4.00e-02,
832,1.12e+00,1.76e+00,0.00e+00,
833,1.08e+00,1.28e+00,5.12e+00,
834,1.12e+00,1.28e+00,5.04e+00,
835,1.04e+00,1.36e+00,4.96e+00,
836,1.12e+00,1.32e+00,5.04e+00,
837,1.04e+00,1.28e+00,4.96e+00,
838,1.04e+00,1.28e+00,5.04e+00,
839,1.12e+00,1.36e+00,5.00e+00,
840,1.12e+00,1.28e+00,5.04e+00,
841,1.04e+00,1.36e+00,4.96e+00,
842,1.12e+00,1.24e+00,5.04e+00,
843,1.04e+00,1.40e+00,-1.20e-01,
844,1.04e+00,1.28e+00,4.00e-02,
845,1.12e+00,1.36e+00,0.00e+00,
846,1.04e+00,1.28e+00,0.00e+00,
847,1.08e+00,1.36e+00,4.00e-02,
848,1.04e+00,1.28e+00,4.00e-02,
849,1.08e+00,1.36e+00,0.00e+00,
850,1.04e+00,1.36e+00,0.00e+00,
851,1.08e+00,1.28e+00,4.00e-02,
852,1.04e+00,1.72e+00,0.00e+00,
853,1.08e+00,9.20e-01,5.16e+00,
854,1.08e+00,9.60e-01,5.00e+00,
855,1.04e+00,1.04e+00,5.04e+00,
856,1.08e+00,1.04e+00,5.04e+00,
857,1.04e+00,9.60e-01,5.00e+00,
858,1.04e+00,1.04e+00,5.00e+00,
859,1.12e+00,9.60e-01,5.04e+00,
860,1.04e+00,1.04e+00,5.04e+00,
861,1.12e+00,9.60e-01,5.00e+00,
862,1.12e+00,1.12e+00,5.04e+00,
863,1.04e+00,9.20e-01,-8.00e-02,
864,1.04e+00,1.04e+00,0.00e+00,
865,1.12e+00,9.60e-01,4.00e-02,
866,1.12e+00,1.04e+00,0.00e+00,
867,1.04e+00,9.60e-01,4.00e-02,
868,1.08e+00,1.04e+00,0.00e+00,
869,1.12e+00,9.60e-01,4.00e-02,
870,1.08e+00,1.04e+00,0.00e+00,
871,1.20e+00,1.00e+00,4.00e-02,
872,1.20e+00,7.20e-01,0.00e+00,
873,1.08e+00,1.40e+00,5.16e+00,
874,1.08e+00,1.36e+00,5.04e+00,
875,1.20e+00,1.28e+00,4.96e+00,
876,1.16e+00,1.36e+00,5.04e+00,
877,1.20e+00,1.28e+00,4.96e+00,
878,1.16e+00,1.36e+00,5.04e+00,
879,1.24e+00,1.28e+00,4.96e+00,
880,1.16e+00,1.36e+00,5.04e+00,
881,1.24e+00,1.28e+00,4.96e+00,
882,1.20e+00,1.28e+00,5.04e+00,
883,1.28e+00,1.40e+00,-1.20e-01,
884,1.20e+00,1.36e+00,0.00e+00,
885,1.32e+00,1.28e+00,4.00e-02,
886,1.20e+00,1.36e+00,4.00e-02,
887,1.32e+00,1.28e+00,0.00e+00,
888,1.28e+00,1.36e+00,0.00e+00,
889,1.36e+00,1.28e+00,4.00e-02,
890,1.28e+00,1.36e+00,0.00e+00,
891,1.36e+00,1.28e+00,4.00e-02,
892,1.32e+00,1.40e+00,0.00e+00,
893,1.44e+00,9.20e-01,5.08e+00,
894,1.44e+00,1.04e+00,5.04e+00,
895,1.32e+00,1.00e+00,4.96e+00,
896,1.40e+00,1.04e+00,4.96e+00,
897,1.48e+00,9.60e-01,5.04e+00,
898,1.40e+00,1.04e+00,5.04e+00,
899,1.48e+00,9.60e-01,4.96e+00,
900,1.44e+00,1.04e+00,5.00e+00,
901,1.56e+00,9.60e-01,5.04e+00,
902,1.56e+00,1.12e+00,5.04e+00,
903,1.44e+00,9.20e-01,-1.20e-01,
904,1.52e+00,1.00e+00,4.00e-02,
905,1.60e+00,1.04e+00,0.00e+00,
906,1.56e+00,1.04e+00,0.00e+00,
907,1.68e+00,9.60e-01,4.00e-02,
908,1.68e+00,1.00e+00,0.00e+00,
909,1.56e+00,1.04e+00,4.00e-02,
910,1.64e+00,1.04e+00,0.00e+00,
911,1.72e+00,9.60e-01,4.00e-02,
912,1.72e+00,6.80e-01,0.00e+00,
913,1.64e+00,1.40e+00,5.12e+00,
914,1.68e+00,1.36e+00,5.04e+00,
915,1.80e+00,1.28e+00,4.96e+00,
916,1.76e+00,1.36e+00,5.04e+00,
917,1.84e+00,1.32e+00,4.96e+00,
918,1.76e+00,1.36e+00,5.04e+00,
919,1.92e+00,1.28e+00,4.96e+00,
920,1.80e+00,1.36e+00,5.00e+00,
921,1.92e+00,1.28e+00,5.04e+00,
922,1.88e+00,1.24e+00,5.04e+00,
923,1.96e+00,1.40e+00,-1.20e-01,
924,1.88e+00,1.36e+00,4.00e-02,
925,2.00e+00,1.28e+00,0.00e+00,
926,2.04e+00,1.36e+00,0.00e+00,
927,1.92e+00,1.28e+00,4.00e-02,
928,2.00e+00,1.36e+00,4.00e-02,
929,2.08e+00,1.28e+00,0.00e+00,
930,2.00e+00,1.36e+00,4.00e-02,
931,2.12e+00,1.28e+00,0.00e+00,
932,2.04e+00,1.20e+00,0.00e+00,
933,2.16e+00,1.72e+00,5.12e+00,
934,2.20e+00,1.64e+00,5.04e+00,
935,2.12e+00,1.72e+00,4.96e+00,
936,2.16e+00,1.64e+00,5.04e+00,
937,2.28e+00,1.72e+00,4.96e+00,
938,2.24e+00,1.64e+00,5.04e+00,
939,2.32e+00,1.72e+00,4.96e+00,
940,2.24e+00,1.64e+00,5.04e+00,
941,2.32e+00,1.72e+00,4.96e+00,
942,2.40e+00,1.60e+00,5.04e+00,
943,2.28e+00,1.76e+00,-8.00e-02,
944,2.36e+00,1.64e+00,4.00e-02,
945,2.44e+00,1.72e+00,0.00e+00,
946,2.40e+00,1.64e+00,0.00e+00,
947,2.52e+00,1.72e+00,4.00e-02,
948,2.40e+00,1.64e+00,0.00e+00,
949,2.56e+00,1.72e+00,4.00e-02,
950,2.48e+00,1.64e+00,4.00e-02,
951,2.56e+00,1.72e+00,0.00e+00,
952,2.52e+00,1.40e+00,0.00e+00,
953,2.64e+00,2.08e+00,5.16e+00,
954,2.60e+00,2.04e+00,5.04e+00,
955,2.68e+00,1.96e+00,4.96e+00,
956,2.64e+00,1.96e+00,5.04e+00,
957,2.76e+00,2.04e+00,4.92e+00,
958,2.64e+00,1.96e+00,5.04e+00,
959,2.80e+00,2.04e+00,4.92e+00,
960,2.72e+00,2.00e+00,5.04e+00,
961,2.80e+00,1.96e+00,4.92e+00,
962,2.76e+00,2.08e+00,5.04e+00,
963,2.88e+00,1.88e+00,-1.20e-01,
964,2.84e+00,2.00e+00,0.00e+00,
965,2.92e+00,1.96e+00,4.00e-02,
966,2.84e+00,1.96e+00,0.00e+00,
967,2.96e+00,2.00e+00,4.00e-02,
968,2.88e+00,2.00e+00,4.00e-02,
969,3.00e+00,1.96e+00,0.00e+00,
970,2.96e+00,2.00e+00,4.00e-02,
971,3.04e+00,1.96e+00,0.00e+00,
972,3.00e+00,1.88e+00,0.00e+00,
973,3.12e+00,2.40e+00,5.08e+00,
974,3.12e+00,2.32e+00,5.04e+00,
975,3.00e+00,2.28e+00,4.92e+00,
976,3.16e+00,2.28e+00,5.04e+00,
977,3.08e+00,2.36e+00,4.92e+00,
978,3.12e+00,2.28e+00,5.04e+00,
979,3.24e+00,2.40e+00,4.96e+00,
980,3.20e+00,2.32e+00,5.04e+00,
981,3.28e+00,2.28e+00,4.96e+00,
982,3.20e+00,2.28e+00,5.04e+00,
983,3.28e+00,2.36e+00,-8.00e-02,
984,3.24e+00,2.28e+00,4.00e-02,
985,3.36e+00,2.36e+00,0.00e+00,
986,3.32e+00,2.28e+00,0.00e+00,
987,3.40e+00,2.36e+00,4.00e-02,
988,3.40e+00,2.32e+00,0.00e+00,
989,3.32e+00,2.28e+00,4.00e-02,
990,3.36e+00,2.40e+00,-4.00e-02,
991,3.48e+00,2.24e+00,8.00e-02,
992,3.44e+00,2.76e+00,0.00e+00,
993,3.52e+00,1.88e+00,5.16e+00,
994,3.52e+00,2.56e+00,5.04e+00,
995,3.44e+00,2.64e+00,5.00e+00,
996,3.48e+00,2.52e+00,5.08e+00,
997,3.60e+00,2.68e+00,4.92e+00,
998,3.48e+00,2.52e+00,5.04e+00,
999,3.64e+00,2.64e+00,4.96e+00,
1000,3.56e+00,2.64e+00,5.04e+00,
1001,3.64e+00,2.52e+00,4.96e+00,
1002,3.60e+00,2.52e+00,5.04e+00,
1003,3.72e+00,2.72e+00,-1.20e-01,
1004,3.72e+00,2.64e+00,-4.00e-02,
1005,3.60e+00,2.52e+00,8.00e-02,
1006,3.68e+00,2.60e+00,0.00e+00,
1007,3.76e+00,2.52e+00,4.00e-02,
1008,3.76e+00,2.52e+00,-4.00e-02,
1009,3.68e+00,2.60e+00,8.00e-02,
1010,3.76e+00,2.52e+00,-4.00e-02,
1011,3.68e+00,2.68e+00,8.00e-02,
1012,3.84e+00,2.56e+00,0.00e+00,
1013,3.72e+00,3.00e+00,5.12e+00,
1014,3.76e+00,2.88e+00,5.04e+00,
1015,3.84e+00,2.96e+00,4.96e+00,
1016,3.80e+00,2.96e+00,5.08e+00,
1017,3.88e+00,2.88e+00,4.92e+00,
1018,3.80e+00,2.88e+00,5.04e+00,
1019,3.88e+00,2.96e+00,4.92e+00,
1020,3.84e+00,2.88e+00,5.04e+00,
1021,3.92e+00,2.96e+00,4.96e+00,
1022,3.84e+00,3.00e+00,5.04e+00,
1023,3.96e+00,2.84e+00,-8.00e-02,
1024,3.84e+00,2.96e+00,-8.00e-02,
1025,3.96e+00,2.88e+00,4.00e-02,
1026,3.96e+00,2.96e+00,4.00e-02,
1027,3.92e+00,2.88e+00,0.00e+00,
1028,3.92e+00,2.96e+00,-4.00e-02,
1029,4.00e+00,2.84e+00,8.00e-02,
1030,3.92e+00,2.96e+00,8.00e-02,
1031,4.00e+00,2.84e+00,-8.00e-02,
1032,4.00e+00,2.64e+00,-4.00e-02,
1033,3.92e+00,3.32e+00,5.08e+00,
1034,3.96e+00,3.28e+00,4.96e+00,
1035,4.04e+00,3.20e+00,5.04e+00,
1036,3.96e+00,3.28e+00,5.08e+00,
1037,4.08e+00,3.16e+00,4.92e+00,
1038,3.96e+00,3.20e+00,5.04e+00,
1039,4.08e+00,3.28e+00,4.96e+00,
1040,3.96e+00,3.20e+00,5.04e+00,
1041,4.08e+00,3.28e+00,4.96e+00,
1042,4.08e+00,3.32e+00,5.04e+00,
1043,3.96e+00,3.12e+00,-1.20e-01,
1044,4.08e+00,3.20e+00,0.00e+00,
1045,3.96e+00,3.28e+00,4.00e-02,
1046,4.08e+00,3.20e+00,0.00e+00,
1047,4.00e+00,3.28e+00,4.00e-02,
1048,4.08e+00,3.28e+00,-4.00e-02,
1049,4.00e+00,3.16e+00,8.00e-02,
1050,4.08e+00,3.28e+00,-4.00e-02,
1051,3.96e+00,3.16e+00,8.00e-02,
1052,4.04e+00,3.12e+00,0.00e+00,
1053,4.08e+00,3.64e+00,5.16e+00,
1054,4.08e+00,3.60e+00,5.04e+00,
1055,4.00e+00,3.56e+00,4.96e+00,
1056,4.08e+00,3.52e+00,5.08e+00,
1057,3.96e+00,3.64e+00,4.92e+00,
1058,3.96e+00,3.56e+00,5.04e+00,
1059,4.08e+00,3.64e+00,4.92e+00,
1060,3.96e+00,3.60e+00,5.04e+00,
1061,4.08e+00,3.56e+00,5.00e+00,
1062,3.96e+00,3.68e+00,5.04e+00,
1063,4.08e+00,3.48e+00,-1.20e-01,
1064,3.96e+00,3.56e+00,0.00e+00,
1065,4.08e+00,3.60e+00,4.00e-02,
1066,3.96e+00,3.56e+00,4.00e-02,
1067,4.04e+00,3.60e+00,-4.00e-02,
1068,4.00e+00,3.56e+00,0.00e+00,
1069,3.96e+00,3.60e+00,4.00e-02,
1070,4.00e+00,3.56e+00,0.00e+00,
1071,3.92e+00,3.60e+00,4.00e-02,
1072,3.92e+00,3.24e+00,0.00e+00,
1073,4.00e+00,4.00e+00,5.16e+00,
1074,4.00e+00,3.92e+00,5.00e+00,
1075,3.92e+00,3.84e+00,5.04e+00,
1076,3.96e+00,3.92e+00,5.04e+00,
1077,3.88e+00,3.84e+00,4.96e+00,
1078,3.96e+00,3.92e+00,5.04e+00,
1079,3.84e+00,3.84e+00,4.96e+00,
1080,3.96e+00,3.84e+00,5.04e+00,
1081,3.84e+00,3.92e+00,4.96e+00,
1082,3.88e+00,3.96e+00,5.04e+00,
1083,3.80e+00,3.76e+00,-1.20e-01,
1084,3.80e+00,3.84e+00,4.00e-02,
1085,3.88e+00,3.92e+00,0.00e+00,
1086,3.80e+00,3.84e+00,0.00e+00,
1087,3.88e+00,3.92e+00,4.00e-02,
1088,3.84e+00,3.84e+00,4.00e-02,
1089,3.72e+00,3.92e+00,0.00e+00,
1090,3.84e+00,3.84e+00,0.00e+00,
1091,3.72e+00,3.92e+00,4.00e-02,
1092,3.76e+00,4.20e+00,0.00e+00,
1093,3.68e+00,3.48e+00,5.12e+00,
1094,3.76e+00,3.60e+00,5.04e+00,
1095,3.68e+00,3.52e+00,4.92e+00,
1096,3.72e+00,3.60e+00,5.04e+00,
1097,3.60e+00,3.52e+00,4.96e+00,
1098,3.72e+00,3.56e+00,5.04e+00,
1099,3.60e+00,3.60e+00,5.00e+00,
1100,3.64e+00,3.56e+00,5.00e+00,
1101,3.56e+00,3.60e+00,5.04e+00,
1102,3.64e+00,3.68e+00,5.04e+00,
1103,3.48e+00,3.44e+00,-1.20e-01,
1104,3.60e+00,3.56e+00,4.00e-02,
1105,3.48e+00,3.60e+00,0.00e+00,
1106,3.60e+00,3.60e+00,0.00e+00,
1107,3.44e+00,3.52e+00,4.00e-02,
1108,3.52e+00,3.60e+00,4.00e-02,
1109,3.44e+00,3.52e+00,0.00e+00,
1110,3.48e+00,3.52e+00,8.00e-02,
1111,3.36e+00,3.64e+00,-4.00e-02,
1112,3.36e+00,3.60e+00,0.00e+00,
1113,3.48e+00,3.16e+00,5.12e+00,
1114,3.40e+00,3.24e+00,5.04e+00,
1115,3.32e+00,3.20e+00,4.96e+00,
1116,3.36e+00,3.16e+00,5.04e+00,
1117,3.24e+00,3.28e+00,4.96e+00,
1118,3.36e+00,3.20e+00,5.00e+00,
1119,3.24e+00,3.24e+00,5.04e+00,
1120,3.28e+00,3.24e+00,5.04e+00,
1121,3.20e+00,3.20e+00,4.96e+00,
1122,3.24e+00,3.36e+00,5.04e+00,
1123,3.12e+00,3.16e+00,-1.20e-01,
1124,3.24e+00,3.28e+00,0.00e+00,
1125,3.12e+00,3.20e+00,4.00e-02,
1126,3.08e+00,3.20e+00,0.00e+00,
1127,3.16e+00,3.24e+00,4.00e-02,
1128,3.12e+00,3.24e+00,0.00e+00,
1129,3.00e+00,3.20e+00,4.00e-02,
1130,3.08e+00,3.28e+00,4.00e-02,
1131,2.96e+00,3.16e+00,-8.00e-02,
1132,3.04e+00,3.36e+00,0.00e+00,
1133,2.88e+00,2.84e+00,5.12e+00,
1134,3.00e+00,2.88e+00,5.04e+00,
1135,2.88e+00,2.92e+00,4.96e+00,
1136,2.92e+00,2.96e+00,5.04e+00,
1137,2.84e+00,2.84e+00,4.96e+00,
1138,2.88e+00,2.88e+00,5.04e+00,
1139,2.76e+00,2.96e+00,4.96e+00,
1140,2.88e+00,2.88e+00,5.00e+00,
1141,2.72e+00,2.96e+00,5.04e+00,
1142,2.80e+00,3.00e+00,5.04e+00,
1143,2.72e+00,2.80e+00,-1.20e-01,
1144,2.76e+00,2.88e+00,4.00e-02,
1145,2.64e+00,2.96e+00,0.00e+00,
1146,2.68e+00,2.88e+00,0.00e+00,
1147,2.60e+00,2.96e+00,4.00e-02,
1148,2.68e+00,2.88e+00,0.00e+00,
1149,2.52e+00,2.96e+00,4.00e-02,
1150,2.52e+00,2.96e+00,-4.00e-02,
1151,2.60e+00,2.84e+00,8.00e-02,
1152,2.56e+00,3.04e+00,0.00e+00,
1153,2.48e+00,2.52e+00,5.12e+00,
1154,2.52e+00,2.64e+00,5.04e+00,
1155,2.40e+00,2.56e+00,4.92e+00,
1156,2.44e+00,2.64e+00,5.04e+00,
1157,2.36e+00,2.52e+00,4.92e+00,
1158,2.44e+00,2.64e+00,5.04e+00,
1159,2.28e+00,2.52e+00,4.96e+00,
1160,2.28e+00,2.64e+00,5.04e+00,
1161,2.40e+00,2.52e+00,4.96e+00,
1162,2.32e+00,2.68e+00,5.04e+00,
1163,2.24e+00,2.48e+00,-1.20e-01,
1164,2.28e+00,2.64e+00,0.00e+00,
1165,2.16e+00,2.52e+00,4.00e-02,
1166,2.28e+00,2.64e+00,0.00e+00,
1167,2.12e+00,2.52e+00,4.00e-02,
1168,2.12e+00,2.64e+00,-8.00e-02,
1169,2.20e+00,2.52e+00,8.00e-02,
1170,2.16e+00,2.52e+00,-8.00e-02,
1171,2.04e+00,2.64e+00,8.00e-02,
1172,2.08e+00,3.08e+00,0.00e+00,
1173,2.00e+00,2.04e+00,5.12e+00,
1174,2.08e+00,2.32e+00,5.04e+00,
1175,1.92e+00,2.28e+00,4.96e+00,
1176,1.92e+00,2.36e+00,5.04e+00,
1177,2.04e+00,2.24e+00,4.96e+00,
1178,1.96e+00,2.32e+00,5.04e+00,
1179,1.88e+00,2.28e+00,4.96e+00,
1180,1.92e+00,2.24e+00,4.92e+00,
1181,1.80e+00,2.36e+00,5.04e+00,
1182,1.92e+00,2.40e+00,5.04e+00,
1183,1.80e+00,2.20e+00,-1.20e-01,
1184,1.84e+00,2.32e+00,0.00e+00,
1185,1.76e+00,2.28e+00,4.00e-02,
1186,1.80e+00,2.28e+00,4.00e-02,
1187,1.68e+00,2.32e+00,0.00e+00,
1188,1.76e+00,2.32e+00,4.00e-02,
1189,1.68e+00,2.28e+00,0.00e+00,
1190,1.72e+00,2.32e+00,0.00e+00,
1191,1.64e+00,2.28e+00,4.00e-02,
1192,1.68e+00,2.48e+00,0.00e+00,
1193,1.56e+00,1.96e+00,5.12e+00,
1194,1.56e+00,2.00e+00,5.04e+00,
1195,1.64e+00,1.96e+00,4.96e+00,
1196,1.60e+00,2.00e+00,4.96e+00,
1197,1.52e+00,1.96e+00,5.04e+00,
1198,1.60e+00,1.96e+00,5.04e+00,
1199,1.52e+00,2.00e+00,4.96e+00,
