X,CH1,CH2,CH3,Start,Increment,
Sequence,Volt,Volt,Volt,-1.970000e-02,5.000000e-05
0,4.80e-01,6.80e-01,-2.84e+00,
1,5.60e-01,6.00e-01,6.80e-01,
2,4.80e-01,6.80e-01,6.40e-01,
3,5.60e-01,2.40e-01,5.12e+00,
4,4.80e-01,2.80e-01,5.12e+00,
5,5.60e-01,3.60e-01,5.12e+00,
6,5.60e-01,2.80e-01,5.12e+00,
7,4.80e-01,3.60e-01,5.12e+00,
8,4.80e-01,3.60e-01,5.12e+00,
9,5.60e-01,2.80e-01,5.12e+00,
10,5.60e-01,3.60e-01,5.12e+00,
11,4.80e-01,2.80e-01,5.12e+00,
12,4.80e-01,3.60e-01,5.12e+00,
13,5.60e-01,2.40e-01,-5.08e+00,
14,5.60e-01,2.80e-01,-5.08e+00,
15,4.80e-01,3.60e-01,-5.08e+00,
16,5.60e-01,2.80e-01,-5.08e+00,
17,4.80e-01,4.00e-01,-5.08e+00,
18,5.60e-01,3.60e-01,-5.08e+00,
19,4.80e-01,2.80e-01,-2.76e+00,
20,5.60e-01,3.20e-01,-2.88e+00,
21,4.80e-01,3.60e-01,6.80e-01,
22,5.60e-01,1.20e-01,6.80e-01,
23,4.80e-01,7.60e-01,5.12e+00,
24,5.60e-01,6.80e-01,5.12e+00,
25,4.80e-01,6.00e-01,5.12e+00,
26,4.80e-01,6.80e-01,5.12e+00,
27,5.60e-01,6.00e-01,5.12e+00,
28,5.60e-01,6.00e-01,5.12e+00,
29,4.80e-01,6.80e-01,5.12e+00,
30,4.80e-01,6.80e-01,5.12e+00,
31,5.60e-01,6.00e-01,5.12e+00,
32,4.80e-01,7.60e-01,5.12e+00,
33,5.60e-01,5.60e-01,-5.08e+00,
34,5.60e-01,6.80e-01,-5.08e+00,
35,4.80e-01,6.00e-01,-5.08e+00,
36,4.80e-01,6.80e-01,-5.08e+00,
37,5.60e-01,6.00e-01,-5.08e+00,
38,5.60e-01,6.80e-01,-5.08e+00,
39,4.80e-01,6.00e-01,-2.80e+00,
40,4.80e-01,6.80e-01,-2.88e+00,
41,5.60e-01,6.00e-01,6.80e-01,
42,5.60e-01,8.80e-01,5.60e-01,
43,4.80e-01,2.40e-01,5.12e+00,
44,4.80e-01,3.60e-01,5.12e+00,
45,5.60e-01,2.80e-01,5.12e+00,
46,4.80e-01,3.60e-01,5.12e+00,
47,5.60e-01,2.80e-01,5.12e+00,
48,5.60e-01,3.60e-01,5.12e+00,
49,4.80e-01,2.80e-01,5.12e+00,
50,5.60e-01,3.60e-01,5.12e+00,
51,4.80e-01,2.80e-01,5.12e+00,
52,4.80e-01,4.40e-01,5.12e+00,
53,5.60e-01,2.40e-01,-5.08e+00,
54,5.60e-01,3.60e-01,-5.08e+00,
55,4.80e-01,2.80e-01,-5.08e+00,
56,5.60e-01,3.60e-01,-5.08e+00,
57,4.80e-01,2.80e-01,-5.08e+00,
58,4.80e-01,3.60e-01,-5.08e+00,
59,5.60e-01,2.80e-01,-2.80e+00,
60,4.80e-01,3.60e-01,-2.88e+00,
61,5.60e-01,2.80e-01,6.80e-01,
62,5.60e-01,3.20e-01,6.40e-01,
63,4.80e-01,7.20e-01,5.12e+00,
64,4.80e-01,6.80e-01,5.12e+00,
65,5.60e-01,6.00e-01,5.12e+00,
66,4.80e-01,6.00e-01,5.12e+00,
67,5.60e-01,6.80e-01,5.12e+00,
68,4.80e-01,6.80e-01,5.12e+00,
69,5.60e-01,6.00e-01,5.12e+00,
70,4.80e-01,6.80e-01,5.12e+00,
71,5.60e-01,6.00e-01,5.12e+00,
72,4.80e-01,6.80e-01,5.12e+00,
73,5.60e-01,5.60e-01,-5.08e+00,
74,5.60e-01,6.00e-01,-5.08e+00,
75,4.80e-01,6.80e-01,-5.08e+00,
76,5.60e-01,6.80e-01,-5.08e+00,
77,4.80e-01,6.00e-01,-5.08e+00,
78,5.60e-01,6.00e-01,-5.08e+00,
79,4.80e-01,6.80e-01,-2.80e+00,
80,5.60e-01,6.80e-01,-2.84e+00,
81,4.80e-01,6.00e-01,7.20e-01,
82,5.60e-01,8.80e-01,6.40e-01,
83,4.80e-01,2.80e-01,5.12e+00,
84,5.60e-01,3.60e-01,5.12e+00,
85,4.80e-01,2.80e-01,5.12e+00,
86,5.60e-01,3.60e-01,5.12e+00,
87,4.80e-01,2.80e-01,5.12e+00,
88,5.60e-01,3.60e-01,5.12e+00,
89,4.80e-01,2.80e-01,5.12e+00,
90,4.80e-01,3.60e-01,5.12e+00,
91,5.60e-01,2.80e-01,5.12e+00,
92,4.80e-01,4.40e-01,5.12e+00,
93,5.60e-01,2.40e-01,-5.08e+00,
94,5.60e-01,3.20e-01,-5.08e+00,
95,4.80e-01,3.60e-01,-5.08e+00,
96,5.60e-01,3.60e-01,-5.08e+00,
97,4.80e-01,2.80e-01,-5.08e+00,
98,5.60e-01,3.60e-01,-5.08e+00,
99,4.80e-01,2.80e-01,-2.80e+00,
100,4.80e-01,3.60e-01,-2.84e+00,
101,5.60e-01,3.20e-01,6.80e-01,
102,5.60e-01,8.00e-02,6.00e-01,
103,4.80e-01,7.20e-01,5.12e+00,
104,4.80e-01,6.80e-01,5.12e+00,
105,5.60e-01,6.00e-01,5.12e+00,
106,4.80e-01,6.80e-01,5.12e+00,
107,5.60e-01,6.00e-01,5.12e+00,
108,5.60e-01,6.80e-01,5.12e+00,
109,4.80e-01,6.00e-01,5.12e+00,
110,4.80e-01,6.80e-01,5.12e+00,
111,5.60e-01,6.00e-01,5.12e+00,
112,4.80e-01,6.00e-01,5.12e+00,
113,5.60e-01,8.00e-01,-5.08e+00,
114,5.60e-01,6.80e-01,-5.08e+00,
115,4.80e-01,6.00e-01,-5.08e+00,
116,5.60e-01,6.80e-01,-5.08e+00,
117,4.80e-01,6.00e-01,-5.08e+00,
118,5.60e-01,6.80e-01,-5.08e+00,
119,4.80e-01,6.00e-01,-2.80e+00,
120,5.60e-01,6.80e-01,-2.84e+00,
121,4.80e-01,6.00e-01,6.80e-01,
122,5.60e-01,6.80e-01,6.40e-01,
123,4.80e-01,2.40e-01,5.12e+00,
124,4.80e-01,2.80e-01,5.12e+00,
125,5.60e-01,3.60e-01,5.12e+00,
126,4.80e-01,3.60e-01,5.12e+00,
127,5.60e-01,2.80e-01,5.12e+00,
128,4.80e-01,3.60e-01,5.12e+00,
129,5.60e-01,2.80e-01,5.12e+00,
130,4.80e-01,3.60e-01,5.12e+00,
131,5.60e-01,2.80e-01,5.12e+00,
132,4.80e-01,3.60e-01,5.12e+00,
133,5.60e-01,2.40e-01,-5.08e+00,
134,5.60e-01,3.60e-01,-5.08e+00,
135,4.80e-01,3.20e-01,-5.08e+00,
136,5.60e-01,3.60e-01,-5.08e+00,
137,4.80e-01,3.20e-01,-5.08e+00,
138,5.60e-01,3.20e-01,-5.08e+00,
139,4.80e-01,3.60e-01,-2.80e+00,
140,5.60e-01,3.60e-01,-2.88e+00,
141,4.80e-01,2.80e-01,7.20e-01,
142,5.60e-01,8.00e-02,6.40e-01,
143,4.80e-01,7.20e-01,5.12e+00,
144,4.80e-01,6.00e-01,5.12e+00,
145,5.60e-01,6.80e-01,5.12e+00,
146,4.80e-01,6.80e-01,5.12e+00,
147,5.60e-01,6.00e-01,5.12e+00,
148,4.80e-01,6.00e-01,5.12e+00,
149,5.60e-01,6.80e-01,5.12e+00,
150,4.80e-01,6.00e-01,5.12e+00,
151,5.60e-01,6.80e-01,5.12e+00,
152,5.60e-01,7.60e-01,5.12e+00,
153,4.80e-01,5.60e-01,-5.08e+00,
154,5.60e-01,6.80e-01,-5.08e+00,
155,4.80e-01,6.00e-01,-5.08e+00,
156,5.60e-01,6.80e-01,-5.08e+00,
157,4.80e-01,6.00e-01,-5.08e+00,
158,5.60e-01,6.80e-01,-5.08e+00,
159,4.80e-01,6.00e-01,-2.80e+00,
160,5.60e-01,6.00e-01,-2.80e+00,
161,4.80e-01,6.80e-01,6.80e-01,
162,4.80e-01,8.40e-01,6.40e-01,
163,5.60e-01,2.40e-01,5.12e+00,
164,5.60e-01,2.80e-01,5.12e+00,
165,4.80e-01,3.60e-01,5.12e+00,
166,4.80e-01,3.60e-01,5.12e+00,
167,5.60e-01,2.80e-01,5.12e+00,
168,4.80e-01,3.60e-01,5.12e+00,
169,5.60e-01,2.80e-01,5.12e+00,
170,4.80e-01,3.60e-01,5.12e+00,
171,5.60e-01,2.80e-01,5.12e+00,
172,4.80e-01,4.40e-01,5.12e+00,
173,5.60e-01,2.40e-01,-5.08e+00,
174,5.60e-01,3.60e-01,-5.08e+00,
175,4.80e-01,2.80e-01,-5.08e+00,
176,5.60e-01,3.60e-01,-5.08e+00,
177,4.80e-01,2.80e-01,-5.08e+00,
178,5.60e-01,3.20e-01,-5.08e+00,
179,4.80e-01,3.60e-01,-2.76e+00,
180,5.60e-01,3.60e-01,-2.88e+00,
181,4.80e-01,2.80e-01,6.80e-01,
182,5.60e-01,2.80e-01,6.40e-01,
183,4.80e-01,7.20e-01,5.12e+00,
184,5.60e-01,6.80e-01,5.12e+00,
185,4.80e-01,6.00e-01,5.12e+00,
186,4.80e-01,6.80e-01,5.12e+00,
187,5.60e-01,6.00e-01,5.12e+00,
188,5.60e-01,6.80e-01,5.12e+00,
189,4.80e-01,6.00e-01,5.12e+00,
190,5.60e-01,6.00e-01,5.12e+00,
191,4.80e-01,6.80e-01,5.12e+00,
192,4.80e-01,6.80e-01,5.12e+00,
193,5.60e-01,5.60e-01,-5.08e+00,
194,5.60e-01,6.80e-01,-5.08e+00,
195,4.80e-01,6.00e-01,-5.08e+00,
196,5.60e-01,6.80e-01,-5.08e+00,
197,4.80e-01,6.00e-01,-5.08e+00,
198,5.60e-01,6.80e-01,-5.08e+00,
199,4.80e-01,6.00e-01,-2.76e+00,
200,5.60e-01,6.00e-01,-2.92e+00,
201,4.80e-01,6.80e-01,6.80e-01,
202,5.60e-01,8.40e-01,5.60e-01,
203,4.80e-01,2.40e-01,5.12e+00,
204,4.80e-01,2.80e-01,5.12e+00,
205,5.60e-01,3.60e-01,5.12e+00,
206,4.80e-01,3.60e-01,5.12e+00,
207,5.60e-01,2.80e-01,5.12e+00,
208,4.80e-01,3.60e-01,5.12e+00,
209,5.60e-01,2.80e-01,5.12e+00,
210,5.60e-01,3.60e-01,5.12e+00,
211,4.80e-01,2.80e-01,5.12e+00,
212,4.80e-01,2.80e-01,5.12e+00,
213,5.60e-01,4.40e-01,-5.08e+00,
214,5.60e-01,3.20e-01,-5.08e+00,
215,4.80e-01,3.60e-01,-5.08e+00,
216,5.60e-01,3.60e-01,-5.08e+00,
217,4.80e-01,3.20e-01,-5.08e+00,
218,5.60e-01,3.20e-01,-5.08e+00,
219,4.80e-01,3.60e-01,-2.80e+00,
220,5.60e-01,2.80e-01,-2.84e+00,
221,4.80e-01,3.60e-01,6.80e-01,
222,5.60e-01,8.00e-02,6.00e-01,
223,4.80e-01,7.20e-01,5.12e+00,
224,4.80e-01,6.80e-01,5.12e+00,
225,5.60e-01,6.00e-01,5.12e+00,
226,5.60e-01,6.80e-01,5.12e+00,
227,4.80e-01,6.00e-01,5.12e+00,
228,4.80e-01,6.80e-01,5.12e+00,
229,5.60e-01,6.00e-01,5.12e+00,
230,5.60e-01,6.80e-01,5.12e+00,
231,4.80e-01,6.00e-01,5.12e+00,
232,5.60e-01,6.00e-01,5.12e+00,
233,4.80e-01,8.00e-01,-5.08e+00,
234,5.60e-01,6.80e-01,-5.08e+00,
235,4.80e-01,6.00e-01,-5.08e+00,
236,4.80e-01,6.80e-01,-5.08e+00,
237,5.60e-01,6.00e-01,-5.08e+00,
238,5.60e-01,6.00e-01,-5.08e+00,
239,4.80e-01,6.80e-01,-2.80e+00,
240,5.60e-01,6.00e-01,-2.84e+00,
241,4.80e-01,6.80e-01,7.20e-01,
242,4.80e-01,6.80e-01,6.40e-01,
243,5.60e-01,2.40e-01,5.12e+00,
244,5.60e-01,2.80e-01,5.12e+00,
245,4.80e-01,3.60e-01,5.12e+00,
246,5.60e-01,3.60e-01,5.12e+00,
247,4.80e-01,2.80e-01,5.12e+00,
248,5.60e-01,3.60e-01,5.12e+00,
249,4.80e-01,2.80e-01,5.12e+00,
250,4.80e-01,3.60e-01,5.12e+00,
251,5.60e-01,2.80e-01,5.12e+00,
252,4.80e-01,3.60e-01,5.12e+00,
253,5.60e-01,2.40e-01,-5.08e+00,
254,5.60e-01,3.60e-01,-5.08e+00,
255,4.80e-01,3.20e-01,-5.08e+00,
256,5.60e-01,3.20e-01,-5.08e+00,
257,4.80e-01,3.60e-01,-5.08e+00,
258,5.60e-01,3.60e-01,-5.08e+00,
259,4.80e-01,2.80e-01,-2.76e+00,
260,4.80e-01,3.60e-01,-2.88e+00,
261,5.60e-01,3.20e-01,6.80e-01,
262,4.80e-01,8.00e-02,6.00e-01,
263,5.60e-01,7.20e-01,5.12e+00,
264,4.80e-01,6.80e-01,5.12e+00,
265,5.60e-01,6.00e-01,5.12e+00,
266,4.80e-01,6.00e-01,5.12e+00,
267,5.60e-01,6.80e-01,5.12e+00,
268,4.80e-01,6.00e-01,5.12e+00,
269,5.60e-01,6.80e-01,5.12e+00,
270,4.80e-01,6.80e-01,5.12e+00,
271,5.60e-01,6.00e-01,5.12e+00,
272,4.80e-01,6.00e-01,5.12e+00,
273,5.60e-01,7.20e-01,-5.08e+00,
274,5.60e-01,6.80e-01,-5.08e+00,
275,4.80e-01,6.00e-01,-5.08e+00,
276,5.60e-01,6.80e-01,-5.08e+00,
277,4.80e-01,6.00e-01,-5.08e+00,
278,5.60e-01,6.00e-01,-5.08e+00,
279,4.80e-01,6.80e-01,-2.80e+00,
280,4.80e-01,6.80e-01,-2.84e+00,
281,5.60e-01,6.00e-01,6.80e-01,
282,5.60e-01,8.40e-01,6.40e-01,
283,4.80e-01,2.40e-01,5.12e+00,
284,4.80e-01,3.60e-01,5.12e+00,
285,5.60e-01,2.80e-01,5.12e+00,
286,4.80e-01,3.60e-01,5.12e+00,
287,5.60e-01,2.80e-01,5.12e+00,
288,5.60e-01,3.60e-01,5.12e+00,
289,4.80e-01,2.80e-01,5.12e+00,
290,4.80e-01,3.60e-01,5.12e+00,
291,5.60e-01,2.80e-01,5.12e+00,
292,4.80e-01,4.40e-01,5.12e+00,
293,5.60e-01,2.40e-01,-5.08e+00,
294,5.60e-01,3.60e-01,-5.08e+00,
295,4.80e-01,2.80e-01,-5.08e+00,
296,5.60e-01,2.80e-01,-5.08e+00,
297,4.80e-01,4.00e-01,-5.08e+00,
298,5.60e-01,3.60e-01,-5.08e+00,
299,4.80e-01,2.80e-01,-2.80e+00,
300,5.60e-01,2.80e-01,-2.88e+00,
301,4.80e-01,4.00e-01,8.00e-01,
302,4.80e-01,2.80e-01,6.40e-01,
303,5.60e-01,7.20e-01,5.12e+00,
304,5.60e-01,6.80e-01,5.12e+00,
305,4.80e-01,6.00e-01,5.12e+00,
306,5.60e-01,6.00e-01,5.12e+00,
307,4.80e-01,6.80e-01,5.12e+00,
308,4.80e-01,6.80e-01,5.12e+00,
309,5.60e-01,6.00e-01,5.12e+00,
310,4.80e-01,6.00e-01,5.12e+00,
311,5.60e-01,6.80e-01,5.12e+00,
312,4.80e-01,6.80e-01,5.12e+00,
313,5.60e-01,5.60e-01,-5.08e+00,
314,5.60e-01,6.00e-01,-5.08e+00,
315,4.80e-01,6.80e-01,-5.08e+00,
316,5.60e-01,6.80e-01,-5.08e+00,
317,4.80e-01,6.00e-01,-5.08e+00,
318,5.60e-01,6.80e-01,-5.08e+00,
319,4.80e-01,6.00e-01,-2.80e+00,
320,5.60e-01,6.80e-01,-2.84e+00,
321,4.80e-01,6.00e-01,6.80e-01,
322,5.60e-01,9.20e-01,6.00e-01,
323,4.80e-01,2.40e-01,5.12e+00,
324,5.60e-01,2.80e-01,5.12e+00,
325,4.80e-01,3.60e-01,5.12e+00,
326,5.60e-01,2.80e-01,5.12e+00,
327,4.80e-01,3.60e-01,5.12e+00,
328,4.80e-01,3.60e-01,5.12e+00,
329,5.60e-01,2.80e-01,5.12e+00,
330,5.60e-01,2.80e-01,5.12e+00,
331,4.80e-01,3.60e-01,5.12e+00,
332,4.80e-01,4.40e-01,5.12e+00,
333,5.60e-01,2.40e-01,-5.08e+00,
334,5.60e-01,4.00e-01,-5.08e+00,
335,4.80e-01,2.80e-01,-5.08e+00,
336,5.60e-01,2.80e-01,-5.08e+00,
337,4.80e-01,4.00e-01,-5.08e+00,
338,5.60e-01,3.60e-01,-5.08e+00,
339,4.80e-01,2.80e-01,-2.80e+00,
340,5.60e-01,3.60e-01,-2.88e+00,
341,4.80e-01,2.80e-01,6.80e-01,
342,5.60e-01,8.00e-02,6.00e-01,
343,4.80e-01,7.60e-01,5.12e+00,
344,4.80e-01,6.80e-01,5.12e+00,
345,5.60e-01,6.00e-01,5.12e+00,
346,4.80e-01,6.80e-01,5.12e+00,
347,5.60e-01,6.00e-01,5.12e+00,
348,4.80e-01,6.80e-01,5.12e+00,
349,5.60e-01,6.00e-01,5.12e+00,
350,4.80e-01,6.00e-01,5.12e+00,
351,5.60e-01,6.80e-01,5.12e+00,
352,5.60e-01,6.00e-01,5.12e+00,
353,4.80e-01,7.20e-01,-5.08e+00,
354,5.60e-01,6.80e-01,-5.08e+00,
355,4.80e-01,6.00e-01,-5.08e+00,
356,5.60e-01,6.80e-01,-5.08e+00,
357,4.80e-01,6.00e-01,-5.08e+00,
358,5.60e-01,6.00e-01,-5.08e+00,
359,4.80e-01,6.80e-01,-2.80e+00,
360,5.60e-01,6.00e-01,-2.88e+00,
361,4.80e-01,6.80e-01,6.80e-01,
362,5.60e-01,6.80e-01,6.40e-01,
363,4.80e-01,2.40e-01,5.12e+00,
364,5.60e-01,2.80e-01,5.12e+00,
365,4.80e-01,3.60e-01,5.12e+00,
366,4.80e-01,3.60e-01,5.12e+00,
367,5.60e-01,2.80e-01,5.12e+00,
368,5.60e-01,2.80e-01,5.12e+00,
369,4.80e-01,3.60e-01,5.12e+00,
370,4.80e-01,2.80e-01,5.12e+00,
371,5.60e-01,3.60e-01,5.12e+00,
372,4.80e-01,3.60e-01,5.12e+00,
373,5.60e-01,2.40e-01,-5.08e+00,
374,5.60e-01,3.20e-01,-5.08e+00,
375,4.80e-01,3.60e-01,-5.08e+00,
376,5.60e-01,3.60e-01,-5.08e+00,
377,4.80e-01,2.80e-01,-5.08e+00,
378,5.60e-01,3.60e-01,-5.08e+00,
379,4.80e-01,2.80e-01,-2.80e+00,
380,5.60e-01,3.60e-01,-2.84e+00,
381,4.80e-01,2.80e-01,6.80e-01,
382,5.60e-01,1.20e-01,6.00e-01,
383,4.80e-01,7.20e-01,5.12e+00,
384,5.60e-01,6.80e-01,5.12e+00,
385,4.80e-01,6.00e-01,5.12e+00,
386,5.60e-01,6.00e-01,5.12e+00,
387,4.80e-01,6.80e-01,5.12e+00,
388,4.80e-01,6.00e-01,5.12e+00,
389,5.60e-01,6.80e-01,5.12e+00,
390,5.60e-01,6.00e-01,5.12e+00,
391,4.80e-01,6.80e-01,5.12e+00,
392,4.80e-01,6.00e-01,5.12e+00,
393,5.60e-01,1.08e+00,-5.08e+00,
394,4.64e+00,4.00e-01,-5.08e+00,
395,4.48e+00,7.20e-01,-5.08e+00,
396,4.48e+00,6.80e-01,-5.08e+00,
397,4.56e+00,6.00e-01,-5.08e+00,
398,4.52e+00,6.80e-01,-5.08e+00,
399,4.48e+00,6.00e-01,-2.80e+00,
400,4.48e+00,6.00e-01,-2.84e+00,
401,4.56e+00,6.80e-01,7.20e-01,
402,4.52e+00,6.00e-01,6.00e-01,
403,4.44e+00,1.08e+00,5.12e+00,
404,4.52e+00,9.60e-01,5.12e+00,
405,4.44e+00,1.04e+00,5.12e+00,
406,4.52e+00,9.60e-01,5.12e+00,
407,4.44e+00,1.04e+00,5.12e+00,
408,4.52e+00,9.60e-01,5.12e+00,
409,4.44e+00,1.04e+00,5.12e+00,
410,4.52e+00,1.04e+00,5.12e+00,
411,4.44e+00,9.60e-01,5.12e+00,
412,4.52e+00,1.08e+00,5.12e+00,
413,4.48e+00,9.20e-01,-5.08e+00,
414,4.48e+00,9.60e-01,-5.08e+00,
415,4.52e+00,1.04e+00,-5.08e+00,
416,4.52e+00,9.60e-01,-5.08e+00,
417,4.48e+00,1.04e+00,-5.08e+00,
418,4.48e+00,9.60e-01,-5.08e+00,
419,4.52e+00,1.04e+00,-2.80e+00,
420,4.48e+00,9.60e-01,-2.88e+00,
421,4.52e+00,1.04e+00,6.80e-01,
422,4.56e+00,9.60e-01,6.40e-01,
423,4.44e+00,1.40e+00,5.12e+00,
424,4.52e+00,1.36e+00,5.12e+00,
425,4.48e+00,1.24e+00,5.12e+00,
426,4.52e+00,1.36e+00,5.12e+00,
427,4.48e+00,1.24e+00,5.12e+00,
428,4.52e+00,1.28e+00,5.12e+00,
429,4.48e+00,1.36e+00,5.12e+00,
430,4.52e+00,1.32e+00,5.12e+00,
431,4.48e+00,1.28e+00,5.12e+00,
432,4.48e+00,1.32e+00,5.12e+00,
433,4.60e+00,1.20e+00,-5.08e+00,
434,4.60e+00,1.28e+00,-5.08e+00,
435,4.48e+00,1.32e+00,-5.08e+00,
436,4.48e+00,1.28e+00,-5.08e+00,
437,4.60e+00,1.36e+00,-5.08e+00,
438,4.48e+00,1.28e+00,-5.08e+00,
439,4.60e+00,1.32e+00,-2.80e+00,
440,4.60e+00,1.28e+00,-2.92e+00,
441,4.48e+00,1.36e+00,6.80e-01,
442,4.48e+00,1.20e+00,6.00e-01,
443,4.60e+00,1.72e+00,5.12e+00,
444,4.52e+00,1.64e+00,5.12e+00,
445,4.48e+00,1.60e+00,5.12e+00,
446,4.48e+00,1.64e+00,5.12e+00,
447,4.60e+00,1.60e+00,5.12e+00,
448,4.48e+00,1.64e+00,5.12e+00,
449,4.60e+00,1.60e+00,5.12e+00,
450,4.48e+00,1.64e+00,5.12e+00,
451,4.60e+00,1.60e+00,5.12e+00,
452,4.48e+00,1.72e+00,5.12e+00,
453,4.60e+00,1.56e+00,-5.08e+00,
454,4.60e+00,1.64e+00,-5.08e+00,
455,4.48e+00,1.60e+00,-5.08e+00,
456,4.60e+00,1.64e+00,-5.08e+00,
457,4.48e+00,1.60e+00,-5.08e+00,
458,4.48e+00,1.64e+00,-5.08e+00,
459,4.60e+00,1.60e+00,-2.80e+00,
460,4.60e+00,1.60e+00,-2.84e+00,
461,4.48e+00,1.68e+00,6.80e-01,
462,4.60e+00,1.40e+00,6.40e-01,
463,4.48e+00,2.08e+00,5.12e+00,
464,4.48e+00,2.00e+00,5.12e+00,
465,4.60e+00,1.96e+00,5.12e+00,
466,4.60e+00,1.96e+00,5.12e+00,
467,4.48e+00,2.00e+00,5.12e+00,
468,4.48e+00,1.96e+00,5.12e+00,
469,4.60e+00,2.00e+00,5.12e+00,
470,4.48e+00,2.00e+00,5.12e+00,
471,4.60e+00,1.92e+00,5.12e+00,
472,4.48e+00,2.00e+00,5.12e+00,
473,4.60e+00,1.88e+00,-5.08e+00,
474,4.60e+00,1.96e+00,-5.08e+00,
475,4.48e+00,2.00e+00,-5.08e+00,
476,4.48e+00,2.00e+00,-5.08e+00,
477,4.60e+00,1.96e+00,-5.08e+00,
478,4.60e+00,2.00e+00,-5.08e+00,
479,4.48e+00,1.96e+00,-2.80e+00,
480,4.48e+00,2.00e+00,-2.84e+00,
481,4.60e+00,1.96e+00,6.80e-01,
482,4.60e+00,1.96e+00,6.40e-01,
483,4.48e+00,2.36e+00,5.12e+00,
484,4.60e+00,2.32e+00,5.12e+00,
485,4.48e+00,2.28e+00,5.12e+00,
486,4.48e+00,2.32e+00,5.12e+00,
487,4.60e+00,2.28e+00,5.12e+00,
488,4.48e+00,2.32e+00,5.12e+00,
489,4.60e+00,2.24e+00,5.12e+00,
490,4.48e+00,2.32e+00,5.12e+00,
491,4.60e+00,2.24e+00,5.12e+00,
492,4.48e+00,2.24e+00,5.12e+00,
493,4.60e+00,2.36e+00,-5.08e+00,
494,4.60e+00,2.32e+00,-5.08e+00,
495,4.48e+00,2.28e+00,-5.08e+00,
496,4.60e+00,2.28e+00,-5.08e+00,
497,4.48e+00,2.32e+00,-5.08e+00,
498,4.48e+00,2.32e+00,-5.08e+00,
499,4.60e+00,2.28e+00,-2.80e+00,
500,4.60e+00,2.32e+00,-2.88e+00,
501,4.48e+00,2.28e+00,6.80e-01,
502,4.60e+00,1.96e+00,6.40e-01,
503,4.48e+00,2.72e+00,5.12e+00,
504,4.48e+00,2.60e+00,5.12e+00,
505,4.60e+00,2.52e+00,5.12e+00,
506,4.48e+00,2.60e+00,5.12e+00,
507,4.56e+00,2.52e+00,5.12e+00,
508,4.48e+00,2.60e+00,5.12e+00,
509,4.60e+00,2.52e+00,5.12e+00,
510,4.52e+00,2.52e+00,5.12e+00,
511,4.48e+00,2.60e+00,5.12e+00,
512,4.48e+00,2.64e+00,5.12e+00,
513,4.60e+00,2.44e+00,-5.08e+00,
514,4.48e+00,2.60e+00,-5.08e+00,
515,4.60e+00,2.52e+00,-5.08e+00,
516,4.60e+00,2.60e+00,-5.08e+00,
517,4.48e+00,2.52e+00,-5.08e+00,
518,4.48e+00,2.60e+00,-5.08e+00,
519,4.60e+00,2.52e+00,-2.80e+00,
520,4.48e+00,2.52e+00,-2.88e+00,
521,4.60e+00,2.60e+00,7.20e-01,
522,4.60e+00,2.44e+00,6.00e-01,
523,4.48e+00,2.96e+00,5.12e+00,
524,4.52e+00,2.88e+00,5.12e+00,
525,4.48e+00,2.96e+00,5.12e+00,
526,4.52e+00,2.88e+00,5.12e+00,
527,4.48e+00,2.96e+00,5.12e+00,
528,4.48e+00,2.88e+00,5.12e+00,
529,4.52e+00,2.92e+00,5.12e+00,
530,4.48e+00,2.88e+00,5.12e+00,
531,4.60e+00,2.92e+00,5.12e+00,
532,4.48e+00,2.96e+00,5.12e+00,
533,4.60e+00,2.80e+00,-5.08e+00,
534,4.60e+00,2.88e+00,-5.08e+00,
535,4.48e+00,2.96e+00,-5.08e+00,
536,4.60e+00,2.88e+00,-5.08e+00,
537,4.48e+00,2.92e+00,-5.08e+00,
538,4.60e+00,2.88e+00,-5.08e+00,
539,4.48e+00,2.96e+00,-2.80e+00,
540,4.60e+00,2.88e+00,-2.84e+00,
541,4.48e+00,2.92e+00,6.80e-01,
542,4.48e+00,2.88e+00,6.40e-01,
543,4.60e+00,3.32e+00,5.12e+00,
544,4.48e+00,3.20e+00,5.12e+00,
545,4.52e+00,3.24e+00,5.12e+00,
546,4.48e+00,3.20e+00,5.12e+00,
547,4.56e+00,3.28e+00,5.12e+00,
548,4.52e+00,3.28e+00,5.12e+00,
549,4.48e+00,3.16e+00,5.12e+00,
550,4.52e+00,3.24e+00,5.12e+00,
551,4.48e+00,3.16e+00,5.12e+00,
552,4.48e+00,3.28e+00,5.12e+00,
553,4.60e+00,3.12e+00,-5.08e+00,
554,4.60e+00,3.20e+00,-5.08e+00,
555,4.48e+00,3.28e+00,-5.08e+00,
556,4.48e+00,3.20e+00,-5.08e+00,
557,4.60e+00,3.24e+00,-5.08e+00,
558,4.60e+00,3.24e+00,-5.08e+00,
559,4.48e+00,3.20e+00,-2.76e+00,
560,4.48e+00,3.20e+00,-2.88e+00,
561,4.60e+00,3.24e+00,6.80e-01,
562,4.48e+00,3.12e+00,6.40e-01,
563,4.60e+00,3.60e+00,5.12e+00,
564,4.52e+00,3.56e+00,5.12e+00,
565,4.48e+00,3.52e+00,5.12e+00,
566,4.52e+00,3.56e+00,5.12e+00,
567,4.48e+00,3.52e+00,5.12e+00,
568,4.48e+00,3.56e+00,5.12e+00,
569,4.52e+00,3.52e+00,5.12e+00,
570,4.52e+00,3.56e+00,5.12e+00,
571,4.48e+00,3.52e+00,5.12e+00,
572,4.48e+00,3.68e+00,5.12e+00,
573,4.60e+00,3.44e+00,-5.08e+00,
574,4.48e+00,3.56e+00,-5.08e+00,
575,4.60e+00,3.52e+00,-5.08e+00,
576,4.48e+00,3.56e+00,-5.08e+00,
577,4.60e+00,3.52e+00,-5.08e+00,
578,4.60e+00,3.56e+00,-5.08e+00,
579,4.48e+00,3.52e+00,-2.80e+00,
580,4.48e+00,3.56e+00,-2.88e+00,
581,4.60e+00,3.52e+00,6.80e-01,
582,4.48e+00,3.24e+00,6.00e-01,
583,4.56e+00,4.00e+00,5.12e+00,
584,4.52e+00,3.92e+00,5.12e+00,
585,4.48e+00,3.84e+00,5.12e+00,
586,4.52e+00,3.84e+00,5.12e+00,
587,4.48e+00,3.92e+00,5.12e+00,
588,4.52e+00,3.84e+00,5.12e+00,
589,4.48e+00,3.92e+00,5.12e+00,
590,4.52e+00,3.84e+00,5.12e+00,
591,4.48e+00,3.92e+00,5.12e+00,
592,4.48e+00,3.96e+00,5.12e+00,
593,4.60e+00,3.76e+00,-5.08e+00,
594,4.48e+00,3.92e+00,-5.08e+00,
595,4.60e+00,3.84e+00,-5.08e+00,
596,4.60e+00,3.84e+00,-5.08e+00,
597,4.48e+00,3.92e+00,-5.08e+00,
598,4.48e+00,3.84e+00,-5.08e+00,
599,4.60e+00,3.92e+00,-2.80e+00,
600,4.48e+00,3.84e+00,-2.84e+00,
601,4.60e+00,3.92e+00,6.80e-01,
602,4.48e+00,3.84e+00,6.00e-01,
603,4.60e+00,4.28e+00,5.12e+00,
604,4.52e+00,4.24e+00,5.12e+00,
605,4.48e+00,4.16e+00,5.12e+00,
606,4.48e+00,4.16e+00,5.12e+00,
607,4.52e+00,4.24e+00,5.12e+00,
608,4.52e+00,4.16e+00,5.12e+00,
609,4.48e+00,4.24e+00,5.12e+00,
610,4.52e+00,4.16e+00,5.12e+00,
611,4.48e+00,4.24e+00,5.12e+00,
612,4.48e+00,4.16e+00,5.12e+00,
613,4.60e+00,4.28e+00,-5.08e+00,
614,4.60e+00,4.24e+00,-5.08e+00,
615,4.48e+00,4.16e+00,-5.08e+00,
616,4.60e+00,4.24e+00,-5.08e+00,
617,4.48e+00,4.16e+00,-5.08e+00,
618,4.48e+00,4.16e+00,-5.08e+00,
619,4.60e+00,4.24e+00,-2.80e+00,
620,4.48e+00,4.24e+00,-2.84e+00,
621,4.60e+00,4.16e+00,6.80e-01,
622,4.48e+00,3.96e+00,5.60e-01,
623,4.60e+00,4.64e+00,5.12e+00,
624,4.52e+00,4.56e+00,5.12e+00,
625,4.48e+00,4.48e+00,5.12e+00,
626,4.52e+00,4.48e+00,5.12e+00,
627,4.48e+00,4.56e+00,5.12e+00,
628,4.52e+00,4.48e+00,5.12e+00,
629,4.48e+00,4.56e+00,5.12e+00,
630,4.52e+00,4.44e+00,5.12e+00,
631,4.48e+00,4.60e+00,5.12e+00,
632,4.44e+00,4.44e+00,5.12e+00,
633,4.60e+00,4.64e+00,-5.08e+00,
634,4.60e+00,4.52e+00,-5.08e+00,
635,4.48e+00,4.60e+00,-5.08e+00,
636,4.48e+00,4.60e+00,-5.08e+00,
637,4.60e+00,4.48e+00,-5.08e+00,
638,4.48e+00,4.48e+00,-5.08e+00,
639,4.60e+00,4.60e+00,-2.84e+00,
640,4.48e+00,4.52e+00,-2.84e+00,
641,4.60e+00,4.60e+00,6.80e-01,
642,4.60e+00,4.40e+00,6.40e-01,
643,4.48e+00,5.00e+00,5.12e+00,
644,4.52e+00,4.84e+00,5.12e+00,
645,4.48e+00,4.92e+00,5.12e+00,
646,4.52e+00,4.84e+00,5.12e+00,
647,4.48e+00,4.92e+00,5.12e+00,
648,4.52e+00,4.84e+00,5.12e+00,
649,4.48e+00,4.92e+00,5.12e+00,
650,4.52e+00,4.92e+00,5.12e+00,
651,4.48e+00,4.80e+00,5.12e+00,
652,4.48e+00,4.96e+00,5.12e+00,
653,4.60e+00,4.76e+00,-5.08e+00,
654,4.48e+00,4.84e+00,-5.08e+00,
655,4.60e+00,4.92e+00,-5.08e+00,
656,4.48e+00,4.84e+00,-5.08e+00,
657,4.60e+00,4.92e+00,-5.08e+00,
658,4.48e+00,4.84e+00,-5.08e+00,
659,4.60e+00,4.92e+00,-2.76e+00,
660,4.48e+00,4.84e+00,-2.92e+00,
661,4.60e+00,4.92e+00,6.80e-01,
662,4.60e+00,4.92e+00,6.00e-01,
663,4.44e+00,4.44e+00,5.12e+00,
664,4.48e+00,4.52e+00,5.12e+00,
665,4.52e+00,4.60e+00,5.12e+00,
666,4.48e+00,4.52e+00,5.12e+00,
667,4.52e+00,4.60e+00,5.12e+00,
668,4.52e+00,4.60e+00,5.12e+00,
669,4.48e+00,4.48e+00,5.12e+00,
670,4.52e+00,4.48e+00,5.12e+00,
671,4.48e+00,4.60e+00,5.12e+00,
672,4.48e+00,4.60e+00,5.12e+00,
673,4.60e+00,4.44e+00,-5.08e+00,
674,4.60e+00,4.60e+00,-5.08e+00,
675,4.48e+00,4.52e+00,-5.08e+00,
676,4.60e+00,4.60e+00,-5.08e+00,
677,4.48e+00,4.52e+00,-5.08e+00,
678,4.48e+00,4.60e+00,-5.08e+00,
679,4.60e+00,4.48e+00,-2.80e+00,
680,4.60e+00,4.60e+00,-2.84e+00,
681,4.48e+00,4.48e+00,7.20e-01,
682,4.48e+00,4.44e+00,7.20e-01,
683,4.60e+00,5.00e+00,5.12e+00,
684,4.48e+00,4.84e+00,5.12e+00,
685,4.56e+00,4.92e+00,5.12e+00,
686,4.48e+00,4.92e+00,5.12e+00,
687,4.56e+00,4.80e+00,5.12e+00,
688,4.52e+00,4.84e+00,5.12e+00,
689,4.48e+00,4.92e+00,5.12e+00,
690,4.48e+00,4.84e+00,5.12e+00,
691,4.52e+00,4.92e+00,5.12e+00,
692,4.48e+00,4.92e+00,5.12e+00,
693,4.60e+00,4.76e+00,-5.08e+00,
694,4.60e+00,4.84e+00,-5.08e+00,
695,4.48e+00,4.92e+00,-5.08e+00,
696,4.60e+00,4.80e+00,-5.08e+00,
697,4.48e+00,4.92e+00,-5.08e+00,
698,4.48e+00,4.92e+00,-5.08e+00,
699,4.60e+00,4.84e+00,-2.68e+00,
700,4.60e+00,4.92e+00,-3.04e+00,
701,4.48e+00,4.80e+00,8.00e-01,
702,4.48e+00,5.00e+00,5.60e-01,
703,4.60e+00,4.48e+00,5.12e+00,
704,4.52e+00,4.56e+00,5.12e+00,
705,4.48e+00,4.48e+00,5.12e+00,
706,4.52e+00,4.52e+00,5.12e+00,
707,4.48e+00,4.60e+00,5.12e+00,
708,4.52e+00,4.52e+00,5.12e+00,
709,4.48e+00,4.60e+00,5.12e+00,
710,4.52e+00,4.52e+00,5.12e+00,
711,4.48e+00,4.60e+00,5.12e+00,
712,4.44e+00,4.60e+00,5.12e+00,
713,4.60e+00,4.40e+00,-5.08e+00,
714,4.60e+00,4.60e+00,-5.08e+00,
715,4.48e+00,4.52e+00,-5.08e+00,
716,4.60e+00,4.52e+00,-5.08e+00,
717,4.48e+00,4.60e+00,-5.08e+00,
718,4.60e+00,4.52e+00,-5.08e+00,
719,4.48e+00,4.60e+00,-2.76e+00,
720,4.48e+00,4.52e+00,-2.84e+00,
721,4.60e+00,4.60e+00,6.80e-01,
722,4.60e+00,4.48e+00,6.40e-01,
723,4.48e+00,4.92e+00,5.12e+00,
724,4.48e+00,4.84e+00,5.12e+00,
725,4.52e+00,4.92e+00,5.12e+00,
726,4.52e+00,4.88e+00,5.12e+00,
727,4.48e+00,4.84e+00,5.12e+00,
728,4.52e+00,4.88e+00,5.12e+00,
729,4.48e+00,4.84e+00,5.12e+00,
730,4.48e+00,4.92e+00,5.12e+00,
731,4.60e+00,4.80e+00,5.12e+00,
732,4.48e+00,4.92e+00,5.12e+00,
733,4.60e+00,4.76e+00,-5.08e+00,
734,4.48e+00,4.92e+00,-5.08e+00,
735,4.60e+00,4.80e+00,-5.08e+00,
736,4.48e+00,4.92e+00,-5.08e+00,
737,4.60e+00,4.80e+00,-5.08e+00,
738,4.48e+00,4.84e+00,-5.08e+00,
739,4.60e+00,4.92e+00,-2.80e+00,
740,4.60e+00,4.92e+00,-2.84e+00,
741,4.48e+00,4.80e+00,6.80e-01,
742,4.48e+00,5.00e+00,6.00e-01,
743,4.60e+00,4.48e+00,5.12e+00,
744,4.52e+00,4.52e+00,5.12e+00,
745,4.48e+00,4.48e+00,5.12e+00,
746,4.52e+00,4.48e+00,5.12e+00,
747,4.48e+00,4.56e+00,5.12e+00,
748,4.48e+00,4.52e+00,5.12e+00,
749,4.52e+00,4.52e+00,5.12e+00,
750,4.52e+00,4.52e+00,5.12e+00,
751,4.48e+00,4.56e+00,5.12e+00,
752,4.48e+00,4.60e+00,5.12e+00,
753,4.60e+00,4.40e+00,-5.08e+00,
754,4.60e+00,4.60e+00,-5.08e+00,
755,4.48e+00,4.48e+00,-5.08e+00,
756,4.48e+00,4.60e+00,-5.08e+00,
757,4.60e+00,4.48e+00,-5.08e+00,
758,4.48e+00,4.60e+00,-5.08e+00,
759,4.60e+00,4.48e+00,-2.80e+00,
760,4.48e+00,4.60e+00,-2.84e+00,
761,4.60e+00,4.48e+00,6.80e-01,
762,4.48e+00,4.40e+00,6.40e-01,
763,4.60e+00,5.00e+00,5.12e+00,
764,4.52e+00,4.88e+00,5.12e+00,
765,4.48e+00,4.84e+00,5.12e+00,
766,4.52e+00,4.84e+00,5.12e+00,
767,4.48e+00,4.88e+00,5.12e+00,
768,4.52e+00,4.88e+00,5.12e+00,
769,4.48e+00,4.84e+00,5.12e+00,
770,4.52e+00,4.84e+00,5.12e+00,
771,4.48e+00,4.88e+00,5.12e+00,
772,4.48e+00,4.96e+00,5.12e+00,
773,4.60e+00,4.76e+00,-5.08e+00,
774,4.60e+00,4.84e+00,-5.08e+00,
775,4.48e+00,4.92e+00,-5.08e+00,
776,4.48e+00,4.92e+00,-5.08e+00,
777,4.60e+00,4.80e+00,-5.08e+00,
778,4.48e+00,4.92e+00,-5.08e+00,
779,4.60e+00,4.80e+00,-2.80e+00,
780,4.48e+00,4.84e+00,-2.84e+00,
781,4.60e+00,4.92e+00,6.80e-01,
782,4.48e+00,4.88e+00,6.00e-01,
783,4.56e+00,4.44e+00,5.12e+00,
784,4.48e+00,4.52e+00,5.12e+00,
785,4.52e+00,4.52e+00,5.12e+00,
786,4.52e+00,4.48e+00,5.12e+00,
787,4.48e+00,4.56e+00,5.12e+00,
788,4.52e+00,4.48e+00,5.12e+00,
789,4.48e+00,4.56e+00,5.12e+00,
790,4.52e+00,4.52e+00,5.12e+00,
791,4.48e+00,4.56e+00,5.12e+00,
792,4.48e+00,4.40e+00,5.12e+00,
793,4.56e+00,4.60e+00,-5.08e+00,
794,4.48e+00,4.52e+00,-5.08e+00,
795,4.60e+00,4.60e+00,-5.08e+00,
796,4.48e+00,4.60e+00,-5.08e+00,
797,4.60e+00,4.48e+00,-5.08e+00,
798,4.48e+00,4.60e+00,-5.08e+00,
799,4.56e+00,4.48e+00,-2.80e+00,
800,4.48e+00,4.56e+00,-2.88e+00,
801,4.60e+00,4.48e+00,6.80e-01,
802,4.48e+00,4.44e+00,6.80e-01,
803,4.56e+00,5.00e+00,5.12e+00,
804,4.52e+00,4.84e+00,5.12e+00,
805,4.48e+00,4.88e+00,5.12e+00,
806,4.48e+00,4.84e+00,5.12e+00,
807,4.52e+00,4.88e+00,5.12e+00,
808,4.48e+00,4.84e+00,5.12e+00,
809,4.52e+00,4.88e+00,5.12e+00,
810,4.48e+00,4.80e+00,5.12e+00,
811,4.56e+00,4.92e+00,5.12e+00,
812,4.48e+00,4.92e+00,5.12e+00,
813,4.60e+00,4.76e+00,-5.08e+00,
814,4.48e+00,4.92e+00,-5.08e+00,
815,4.60e+00,4.84e+00,-5.08e+00,
816,4.60e+00,4.84e+00,-5.08e+00,
817,4.48e+00,4.92e+00,-5.08e+00,
818,4.52e+00,4.84e+00,-5.08e+00,
819,4.48e+00,4.92e+00,-2.80e+00,
820,4.48e+00,4.84e+00,-2.88e+00,
821,4.56e+00,4.88e+00,6.80e-01,
822,4.48e+00,4.96e+00,6.40e-01,
823,4.56e+00,4.48e+00,5.12e+00,
824,4.52e+00,4.52e+00,5.12e+00,
825,4.48e+00,4.52e+00,5.12e+00,
826,4.52e+00,4.52e+00,5.12e+00,
827,4.48e+00,4.56e+00,5.12e+00,
828,4.52e+00,4.52e+00,5.12e+00,
829,4.48e+00,4.60e+00,5.12e+00,
830,4.52e+00,4.48e+00,5.12e+00,
831,4.48e+00,4.56e+00,5.12e+00,
832,4.48e+00,4.64e+00,5.12e+00,
833,4.60e+00,4.44e+00,-5.08e+00,
834,4.48e+00,4.52e+00,-5.08e+00,
835,4.60e+00,4.60e+00,-5.08e+00,
836,4.48e+00,4.52e+00,-5.08e+00,
837,4.60e+00,4.60e+00,-5.08e+00,
838,4.48e+00,4.52e+00,-5.08e+00,
839,4.60e+00,4.60e+00,-2.80e+00,
840,4.52e+00,4.60e+00,-2.88e+00,
841,4.48e+00,4.48e+00,6.80e-01,
842,4.52e+00,4.48e+00,6.40e-01,
843,4.44e+00,4.92e+00,5.12e+00,
844,4.52e+00,4.88e+00,5.12e+00,
845,4.48e+00,4.84e+00,5.12e+00,
846,4.52e+00,4.84e+00,5.12e+00,
847,4.48e+00,4.92e+00,5.12e+00,
848,4.52e+00,4.84e+00,5.12e+00,
849,4.48e+00,4.92e+00,5.12e+00,
850,4.52e+00,4.84e+00,5.12e+00,
851,4.48e+00,4.88e+00,5.12e+00,
852,4.48e+00,4.88e+00,5.12e+00,
853,4.60e+00,4.76e+00,-5.08e+00,
854,4.48e+00,4.84e+00,-5.08e+00,
855,4.60e+00,4.92e+00,-5.08e+00,
856,4.48e+00,4.84e+00,-5.08e+00,
857,4.60e+00,4.92e+00,-5.08e+00,
858,4.48e+00,4.84e+00,-5.08e+00,
859,4.60e+00,4.92e+00,-2.80e+00,
860,4.48e+00,4.84e+00,-2.84e+00,
861,4.60e+00,4.92e+00,6.40e-01,
862,4.48e+00,5.00e+00,6.00e-01,
863,4.60e+00,4.48e+00,5.12e+00,
864,4.52e+00,4.48e+00,5.12e+00,
865,4.48e+00,4.56e+00,5.12e+00,
866,4.48e+00,4.52e+00,5.12e+00,
867,4.52e+00,4.60e+00,5.12e+00,
868,4.52e+00,4.52e+00,5.12e+00,
869,4.48e+00,4.52e+00,5.12e+00,
870,4.52e+00,4.56e+00,5.12e+00,
871,4.48e+00,4.52e+00,5.12e+00,
872,4.48e+00,4.60e+00,5.12e+00,
873,4.56e+00,4.40e+00,-5.08e+00,
874,4.48e+00,4.48e+00,-5.08e+00,
875,4.60e+00,4.60e+00,-5.08e+00,
876,4.48e+00,4.52e+00,-5.08e+00,
877,4.60e+00,4.60e+00,-5.08e+00,
878,4.48e+00,4.52e+00,-5.08e+00,
879,4.60e+00,4.60e+00,-2.76e+00,
880,4.48e+00,4.52e+00,-2.84e+00,
881,4.60e+00,4.56e+00,6.80e-01,
882,4.48e+00,4.44e+00,6.00e-01,
883,4.60e+00,5.00e+00,5.12e+00,
884,4.52e+00,4.88e+00,5.12e+00,
885,4.48e+00,4.84e+00,5.12e+00,
886,4.52e+00,4.84e+00,5.12e+00,
887,4.48e+00,4.88e+00,5.12e+00,
888,4.52e+00,4.88e+00,5.12e+00,
889,4.48e+00,4.84e+00,5.12e+00,
890,4.52e+00,4.84e+00,5.12e+00,
891,4.48e+00,4.88e+00,5.12e+00,
892,4.48e+00,4.96e+00,5.12e+00,
893,4.60e+00,4.76e+00,-5.08e+00,
894,4.60e+00,4.84e+00,-5.08e+00,
895,4.48e+00,4.92e+00,-5.08e+00,
896,4.48e+00,4.84e+00,-5.08e+00,
897,4.60e+00,4.88e+00,-5.08e+00,
898,4.48e+00,4.84e+00,-5.08e+00,
899,4.60e+00,4.92e+00,-2.80e+00,
900,4.48e+00,4.92e+00,-2.84e+00,
901,4.60e+00,4.84e+00,6.80e-01,
902,4.48e+00,4.92e+00,5.20e-01,
903,4.60e+00,4.44e+00,5.12e+00,
904,4.48e+00,4.60e+00,5.12e+00,
905,4.52e+00,4.48e+00,5.12e+00,
906,4.52e+00,4.48e+00,5.12e+00,
907,4.48e+00,4.60e+00,5.12e+00,
908,4.52e+00,4.60e+00,5.12e+00,
909,4.48e+00,4.52e+00,5.12e+00,
910,4.52e+00,4.52e+00,5.12e+00,
911,4.48e+00,4.60e+00,5.12e+00,
912,4.48e+00,4.60e+00,5.12e+00,
913,4.60e+00,4.40e+00,-5.08e+00,
914,4.60e+00,4.60e+00,-5.08e+00,
915,4.48e+00,4.48e+00,-5.08e+00,
916,4.60e+00,4.60e+00,-5.08e+00,
917,4.48e+00,4.48e+00,-5.08e+00,
918,4.48e+00,4.52e+00,-5.08e+00,
919,4.60e+00,4.60e+00,-2.80e+00,
920,4.48e+00,4.52e+00,-2.84e+00,
921,4.60e+00,4.60e+00,6.80e-01,
922,4.48e+00,4.44e+00,7.20e-01,
923,4.60e+00,5.00e+00,5.12e+00,
924,4.52e+00,4.84e+00,5.12e+00,
925,4.48e+00,4.92e+00,5.12e+00,
926,4.52e+00,4.88e+00,5.12e+00,
927,4.48e+00,4.84e+00,5.12e+00,
928,4.52e+00,4.84e+00,5.12e+00,
929,4.48e+00,4.92e+00,5.12e+00,
930,4.52e+00,4.84e+00,5.12e+00,
931,4.48e+00,4.92e+00,5.12e+00,
932,4.48e+00,4.96e+00,5.12e+00,
933,4.60e+00,4.76e+00,-5.08e+00,
934,4.48e+00,4.84e+00,-5.08e+00,
935,4.60e+00,4.92e+00,-5.08e+00,
936,4.48e+00,4.88e+00,-5.08e+00,
937,4.60e+00,4.84e+00,-5.08e+00,
938,4.48e+00,4.84e+00,-5.08e+00,
939,4.60e+00,4.88e+00,-2.80e+00,
940,4.60e+00,4.84e+00,-2.80e+00,
941,4.48e+00,4.92e+00,6.80e-01,
942,4.48e+00,5.00e+00,5.60e-01,
943,4.60e+00,4.48e+00,5.12e+00,
944,4.52e+00,4.52e+00,5.12e+00,
945,4.48e+00,4.52e+00,5.12e+00,
946,4.52e+00,4.52e+00,5.12e+00,
947,4.48e+00,4.60e+00,5.12e+00,
948,4.52e+00,4.52e+00,5.12e+00,
949,4.48e+00,4.48e+00,5.12e+00,
950,4.52e+00,4.48e+00,5.12e+00,
951,4.48e+00,4.60e+00,5.12e+00,
952,4.48e+00,4.64e+00,5.12e+00,
953,4.60e+00,4.40e+00,-5.08e+00,
954,4.60e+00,4.52e+00,-5.08e+00,
955,4.48e+00,4.60e+00,-5.08e+00,
956,4.60e+00,4.52e+00,-5.08e+00,
957,4.48e+00,4.60e+00,-5.08e+00,
958,4.60e+00,4.60e+00,-5.08e+00,
959,4.48e+00,4.48e+00,-2.80e+00,
960,4.48e+00,4.56e+00,-2.88e+00,
961,4.60e+00,4.48e+00,6.80e-01,
962,4.60e+00,4.52e+00,6.40e-01,
963,4.48e+00,4.96e+00,5.12e+00,
964,4.52e+00,4.88e+00,5.12e+00,
965,4.48e+00,4.84e+00,5.12e+00,
966,4.48e+00,4.84e+00,5.12e+00,
967,4.52e+00,4.88e+00,5.12e+00,
968,4.56e+00,4.80e+00,5.12e+00,
969,4.44e+00,4.92e+00,5.12e+00,
970,4.48e+00,4.80e+00,5.12e+00,
971,4.56e+00,4.92e+00,5.12e+00,
972,4.48e+00,4.92e+00,5.12e+00,
973,4.60e+00,4.76e+00,-5.08e+00,
974,4.60e+00,4.92e+00,-5.08e+00,
975,4.48e+00,4.84e+00,-5.08e+00,
976,4.60e+00,4.84e+00,-5.08e+00,
977,4.48e+00,4.92e+00,-5.08e+00,
978,4.48e+00,4.84e+00,-5.08e+00,
979,4.60e+00,4.92e+00,-2.80e+00,
980,4.60e+00,4.84e+00,-2.88e+00,
981,4.48e+00,4.92e+00,6.80e-01,
982,4.48e+00,5.00e+00,5.20e-01,
983,4.60e+00,4.44e+00,5.12e+00,
984,4.48e+00,4.56e+00,5.12e+00,
985,4.56e+00,4.48e+00,5.12e+00,
986,4.52e+00,4.56e+00,5.12e+00,
987,4.48e+00,4.44e+00,5.12e+00,
988,4.52e+00,4.52e+00,5.12e+00,
989,4.48e+00,4.56e+00,5.12e+00,
990,4.52e+00,4.60e+00,5.12e+00,
991,4.48e+00,4.48e+00,5.12e+00,
992,4.48e+00,4.64e+00,5.12e+00,
993,4.60e+00,4.44e+00,-5.08e+00,
994,4.60e+00,4.52e+00,-5.08e+00,
995,4.48e+00,4.60e+00,-5.08e+00,
996,4.60e+00,4.52e+00,-5.08e+00,
997,4.48e+00,4.60e+00,-5.08e+00,
998,4.48e+00,4.52e+00,-5.08e+00,
999,4.60e+00,4.56e+00,-2.80e+00,
1000,4.48e+00,4.52e+00,-2.92e+00,
1001,4.60e+00,4.60e+00,7.20e-01,
1002,4.48e+00,4.44e+00,6.00e-01,
1003,4.60e+00,5.00e+00,5.12e+00,
1004,4.52e+00,4.80e+00,5.12e+00,
1005,4.44e+00,4.92e+00,5.12e+00,
1006,4.52e+00,4.92e+00,5.12e+00,
1007,4.48e+00,4.80e+00,5.12e+00,
1008,4.52e+00,4.84e+00,5.12e+00,
1009,4.48e+00,4.88e+00,5.12e+00,
1010,4.52e+00,4.84e+00,5.12e+00,
1011,4.48e+00,4.88e+00,5.12e+00,
1012,4.48e+00,4.96e+00,5.12e+00,
1013,4.60e+00,4.76e+00,-5.08e+00,
1014,4.60e+00,4.84e+00,-5.08e+00,
1015,4.48e+00,4.92e+00,-5.08e+00,
1016,4.48e+00,4.84e+00,-5.08e+00,
1017,4.60e+00,4.92e+00,-5.08e+00,
1018,4.60e+00,4.92e+00,-5.08e+00,
1019,4.48e+00,4.84e+00,-2.84e+00,
1020,4.48e+00,4.88e+00,-2.84e+00,
1021,4.60e+00,4.80e+00,6.80e-01,
1022,4.48e+00,4.88e+00,6.40e-01,
1023,4.60e+00,4.48e+00,5.12e+00,
1024,4.52e+00,4.52e+00,5.12e+00,
1025,4.48e+00,4.48e+00,5.12e+00,
1026,4.60e+00,4.48e+00,5.12e+00,
1027,4.44e+00,4.60e+00,5.12e+00,
1028,4.44e+00,4.48e+00,5.12e+00,
1029,4.56e+00,4.60e+00,5.12e+00,
1030,4.52e+00,4.60e+00,5.12e+00,
1031,4.44e+00,4.44e+00,5.12e+00,
1032,4.48e+00,4.60e+00,5.12e+00,
1033,4.60e+00,4.44e+00,-5.08e+00,
1034,4.60e+00,4.48e+00,-5.08e+00,
1035,4.48e+00,4.60e+00,-5.08e+00,
1036,4.48e+00,4.60e+00,-5.08e+00,
1037,4.60e+00,4.48e+00,-5.08e+00,
1038,4.60e+00,4.48e+00,-5.08e+00,
1039,4.48e+00,4.60e+00,-2.80e+00,
1040,4.48e+00,4.60e+00,-2.84e+00,
1041,4.60e+00,4.48e+00,6.80e-01,
1042,4.48e+00,4.44e+00,6.80e-01,
1043,4.60e+00,5.00e+00,5.12e+00,
1044,4.52e+00,4.84e+00,5.12e+00,
1045,4.48e+00,4.92e+00,5.12e+00,
1046,4.60e+00,4.80e+00,5.12e+00,
1047,4.44e+00,4.92e+00,5.12e+00,
1048,4.44e+00,4.80e+00,5.12e+00,
1049,4.60e+00,4.92e+00,5.12e+00,
1050,4.48e+00,4.92e+00,5.12e+00,
1051,4.56e+00,4.80e+00,5.12e+00,
1052,4.44e+00,4.92e+00,5.12e+00,
1053,4.60e+00,4.76e+00,-5.08e+00,
1054,4.60e+00,4.84e+00,-5.08e+00,
1055,4.48e+00,4.92e+00,-5.08e+00,
1056,4.48e+00,4.84e+00,-5.08e+00,
1057,4.60e+00,4.92e+00,-5.08e+00,
1058,4.48e+00,4.84e+00,-5.08e+00,
1059,4.60e+00,4.92e+00,-2.76e+00,
1060,4.60e+00,4.84e+00,-2.92e+00,
1061,4.48e+00,4.92e+00,6.80e-01,
1062,4.48e+00,5.00e+00,5.60e-01,
1063,4.60e+00,4.44e+00,5.12e+00,
1064,4.48e+00,4.48e+00,5.12e+00,
1065,4.52e+00,4.60e+00,5.12e+00,
1066,4.48e+00,4.56e+00,5.12e+00,
1067,4.52e+00,4.48e+00,5.12e+00,
1068,4.48e+00,4.48e+00,5.12e+00,
1069,4.52e+00,4.60e+00,5.12e+00,
1070,4.52e+00,4.52e+00,5.12e+00,
1071,4.48e+00,4.60e+00,5.12e+00,
1072,4.48e+00,4.60e+00,5.12e+00,
1073,4.60e+00,4.40e+00,-5.08e+00,
1074,4.60e+00,4.52e+00,-5.08e+00,
1075,4.48e+00,4.60e+00,-5.08e+00,
1076,4.48e+00,4.60e+00,-5.08e+00,
1077,4.60e+00,4.48e+00,-5.08e+00,
1078,4.48e+00,4.48e+00,-5.08e+00,
1079,4.60e+00,4.60e+00,-2.80e+00,
1080,4.48e+00,4.52e+00,-2.84e+00,
1081,4.60e+00,4.60e+00,6.80e-01,
1082,4.56e+00,4.52e+00,6.40e-01,
1083,4.44e+00,4.96e+00,5.12e+00,
1084,4.48e+00,4.92e+00,5.12e+00,
1085,4.56e+00,4.80e+00,5.12e+00,
1086,4.48e+00,4.84e+00,5.12e+00,
1087,4.56e+00,4.92e+00,5.12e+00,
1088,4.48e+00,4.92e+00,5.12e+00,
1089,4.60e+00,4.80e+00,5.12e+00,
1090,4.48e+00,4.92e+00,5.12e+00,
1091,4.56e+00,4.80e+00,5.12e+00,
1092,4.48e+00,4.92e+00,5.12e+00,
1093,4.60e+00,4.76e+00,-5.08e+00,
1094,4.60e+00,4.84e+00,-5.08e+00,
1095,4.48e+00,4.92e+00,-5.08e+00,
1096,4.60e+00,4.84e+00,-5.08e+00,
1097,4.48e+00,4.92e+00,-5.08e+00,
1098,4.48e+00,4.84e+00,-5.08e+00,
1099,4.60e+00,4.92e+00,-2.80e+00,
1100,4.48e+00,4.84e+00,-2.92e+00,
1101,4.60e+00,4.88e+00,6.80e-01,
1102,4.48e+00,5.00e+00,7.20e-01,
1103,4.60e+00,4.48e+00,5.12e+00,
1104,4.52e+00,4.52e+00,5.12e+00,
1105,4.48e+00,4.60e+00,5.12e+00,
1106,4.48e+00,4.48e+00,5.12e+00,
1107,4.52e+00,4.60e+00,5.12e+00,
1108,4.48e+00,4.60e+00,5.12e+00,
1109,4.60e+00,4.44e+00,5.12e+00,
1110,4.52e+00,4.44e+00,5.12e+00,
1111,4.44e+00,4.60e+00,5.12e+00,
1112,4.48e+00,4.44e+00,5.12e+00,
1113,4.60e+00,4.60e+00,-5.08e+00,
1114,4.48e+00,4.52e+00,-5.08e+00,
1115,4.60e+00,4.60e+00,-5.08e+00,
1116,4.48e+00,4.52e+00,-5.08e+00,
1117,4.60e+00,4.56e+00,-5.08e+00,
1118,4.48e+00,4.52e+00,-5.08e+00,
1119,4.60e+00,4.60e+00,-2.80e+00,
1120,4.48e+00,4.60e+00,-2.88e+00,
1121,4.60e+00,4.48e+00,6.80e-01,
1122,4.48e+00,4.44e+00,6.40e-01,
1123,4.60e+00,5.00e+00,5.12e+00,
1124,4.52e+00,4.84e+00,5.12e+00,
1125,4.48e+00,4.92e+00,5.12e+00,
1126,4.52e+00,4.84e+00,5.12e+00,
1127,4.48e+00,4.92e+00,5.12e+00,
1128,4.48e+00,4.80e+00,5.12e+00,
1129,4.52e+00,4.92e+00,5.12e+00,
1130,4.52e+00,4.80e+00,5.12e+00,
1131,4.44e+00,4.92e+00,5.12e+00,
1132,4.48e+00,4.96e+00,5.12e+00,
1133,4.60e+00,4.76e+00,-5.08e+00,
1134,4.48e+00,4.84e+00,-5.08e+00,
1135,4.60e+00,4.88e+00,-5.08e+00,
1136,4.48e+00,4.84e+00,-5.08e+00,
1137,4.60e+00,4.92e+00,-5.08e+00,
1138,4.60e+00,4.84e+00,-5.08e+00,
1139,4.48e+00,4.88e+00,-2.80e+00,
1140,4.48e+00,4.88e+00,-2.84e+00,
1141,4.60e+00,4.84e+00,6.80e-01,
1142,4.52e+00,4.92e+00,6.40e-01,
1143,4.48e+00,4.48e+00,5.12e+00,
1144,4.52e+00,4.52e+00,5.12e+00,
1145,4.48e+00,4.56e+00,5.12e+00,
1146,4.48e+00,4.52e+00,5.12e+00,
1147,4.52e+00,4.60e+00,5.12e+00,
1148,4.52e+00,4.52e+00,5.12e+00,
1149,4.48e+00,4.56e+00,5.12e+00,
1150,4.52e+00,4.56e+00,5.12e+00,
1151,4.48e+00,4.48e+00,5.12e+00,
1152,4.48e+00,4.56e+00,5.12e+00,
1153,4.60e+00,4.40e+00,-5.08e+00,
1154,4.48e+00,4.52e+00,-5.08e+00,
1155,4.60e+00,4.60e+00,-5.08e+00,
1156,4.48e+00,4.52e+00,-5.08e+00,
1157,4.60e+00,4.60e+00,-5.08e+00,
1158,4.48e+00,4.52e+00,-5.08e+00,
1159,4.60e+00,4.60e+00,-2.80e+00,
1160,4.48e+00,4.52e+00,-2.84e+00,
1161,4.60e+00,4.60e+00,8.00e-01,
1162,4.60e+00,4.44e+00,7.20e-01,
1163,4.44e+00,5.00e+00,5.12e+00,
1164,4.52e+00,4.92e+00,5.12e+00,
1165,4.48e+00,4.80e+00,5.12e+00,
1166,4.52e+00,4.88e+00,5.12e+00,
1167,4.48e+00,4.80e+00,5.12e+00,
1168,4.52e+00,4.84e+00,5.12e+00,
1169,4.48e+00,4.88e+00,5.12e+00,
1170,4.48e+00,4.88e+00,5.12e+00,
1171,4.52e+00,4.84e+00,5.12e+00,
1172,4.48e+00,4.96e+00,5.12e+00,
1173,4.60e+00,4.76e+00,-5.08e+00,
1174,4.60e+00,4.84e+00,-5.08e+00,
1175,4.48e+00,4.92e+00,-5.08e+00,
1176,4.48e+00,4.84e+00,-5.08e+00,
1177,4.60e+00,4.92e+00,-5.08e+00,
1178,4.48e+00,4.84e+00,-5.08e+00,
1179,4.60e+00,4.92e+00,-2.76e+00,
1180,4.48e+00,4.84e+00,-2.92e+00,
1181,4.60e+00,4.92e+00,6.80e-01,
1182,4.48e+00,5.00e+00,6.00e-01,
1183,4.60e+00,4.48e+00,5.12e+00,
1184,4.52e+00,4.60e+00,5.12e+00,
1185,4.48e+00,4.48e+00,5.12e+00,
1186,4.52e+00,4.48e+00,5.12e+00,
1187,4.48e+00,4.56e+00,5.12e+00,
1188,4.48e+00,4.52e+00,5.12e+00,
1189,4.52e+00,4.60e+00,5.12e+00,
1190,4.52e+00,4.52e+00,5.12e+00,
1191,4.48e+00,4.60e+00,5.12e+00,
1192,4.48e+00,4.60e+00,5.12e+00,
1193,4.60e+00,4.40e+00,-5.08e+00,
1194,4.60e+00,4.60e+00,-5.08e+00,
1195,4.48e+00,4.48e+00,-5.08e+00,
1196,4.48e+00,4.48e+00,-5.08e+00,
1197,4.60e+00,4.60e+00,-5.08e+00,
1198,4.60e+00,4.52e+00,-5.08e+00,
1199,4.48e+00,4.60e+00,-2.84e+00,
